Place,Name,CyrillicName,BirthYear,BodyweightKg,Bench1Kg,Bench2Kg,Bench3Kg,Best3BenchKg,WeightClassKg,Event,Equipment,Division,Sex,TotalKg,BirthDate
1,Ekaterina Volodko,Екатерина Володько,2001,42.85,65,67.5,70,70,43,B,Single-ply,Sub-Juniors,F,70.0,
2,Rada Dmitrieva,Рада Дмитриева,1999,43.00,60,65,-70,65,43,B,Single-ply,Sub-Juniors,F,65.0,
3,Karina Chebunina,Карина Чебунина,2003,42.70,45,50,-52.5,50,43,B,Single-ply,Sub-Juniors,F,50.0,
1,Natalya Stoyanova,Наталья Стоянова,2000,46.25,70,-72.5,72.5,72.5,47,B,Single-ply,Sub-Juniors,F,72.5,
2,Ilona Zhanysova,Илона Жанысова,2000,46.65,-57.5,57.5,-72.5,57.5,47,B,Single-ply,Sub-Juniors,F,57.5,
3,Anastasiya Semenova,Анастасия Семенова,2001,47.00,45,52.5,-60,52.5,47,B,Single-ply,Sub-Juniors,F,52.5,
4,Aleksandra Safronova,Александра Сафронова,2001,46.70,-40,40,42.5,42.5,47,B,Single-ply,Sub-Juniors,F,42.5,
1,Olga Stoyanova,Ольга Стоянова,2002,51.40,-82.5,85,87.5,87.5,52,B,Single-ply,Sub-Juniors,F,87.5,
2,Veronika Chashchukhina,Вероника Чащухина,2000,51.50,85,-87.5,87.5,87.5,52,B,Single-ply,Sub-Juniors,F,87.5,
3,Alina Osipova,Алина Осипова,2000,51.15,75,77.5,-85,77.5,52,B,Single-ply,Sub-Juniors,F,77.5,
4,Inna Seredenko,Инна Середенко,2001,50.25,70,-75,-77.5,70,52,B,Single-ply,Sub-Juniors,F,70.0,
5,Elizaveta Pobeguts,Елизавета Побегуц,1999,51.55,50,57.5,-62.5,57.5,52,B,Single-ply,Sub-Juniors,F,57.5,
DQ,Viktoriya Shankova,Виктория Шанькова,2000,51.90,,,,,52,B,Single-ply,Sub-Juniors,F,,
1,Daniela Kolesnik,Даниела Колесник,1999,56.65,115,125,130,130,57,B,Single-ply,Sub-Juniors,F,130.0,
2,Diana Stompa,Диана Стомпа,1999,56.65,80,-82.5,-82.5,80,57,B,Single-ply,Sub-Juniors,F,80.0,
3,Varvara Morozova,Варвара Морозова,1999,56.85,75,-77.5,-77.5,75,57,B,Single-ply,Sub-Juniors,F,75.0,
4,Darya Pisarkova,Дарья Писарькова,2000,56.50,-72.5,72.5,-77.5,72.5,57,B,Single-ply,Sub-Juniors,F,72.5,
1,Darya Vakhrameeva,Дарья Вахрамеева,2000,58.90,107.5,115,120,120,63,B,Single-ply,Sub-Juniors,F,120.0,
2,Tatyana Kashtanova,Татьяна Каштанова,2002,59.95,85,-90,-90,85,63,B,Single-ply,Sub-Juniors,F,85.0,
3,Ekaterina Smirnova,Екатерина Смирнова,1999,61.25,-82.5,82.5,-85,82.5,63,B,Single-ply,Sub-Juniors,F,82.5,
1,Olesya Nesterenko,Олеся Нестеренко,2001,69.90,102.5,107.5,112.5,112.5,72,B,Single-ply,Sub-Juniors,F,112.5,
2,Anna Mikryukova,Анна Микрюкова,1999,63.25,105,-110,110,110,72,B,Single-ply,Sub-Juniors,F,110.0,
3,Veronika Maksimenko,Вероника Максименко,1999,70.50,95,102.5,-107.5,102.5,72,B,Single-ply,Sub-Juniors,F,102.5,
1,Darya Chetvernina,Дарья Четвернина,2000,80.50,90,95,100,100,84,B,Single-ply,Sub-Juniors,F,100.0,
2,Ekaterina Sherina,Екатерина Шерина,1999,77.30,-92.5,92.5,97.5,97.5,84,B,Single-ply,Sub-Juniors,F,97.5,
3,Ekaterina Knyazeva,Екатерина Князева,2002,83.45,85,90,95,95,84,B,Single-ply,Sub-Juniors,F,95.0,
4,Anzhelika Luchinetskaya,Анжелика Лучинецкая,1999,80.50,70,77.5,85,85,84,B,Single-ply,Sub-Juniors,F,85.0,
1,Evgeniya Ruzaeva,Евгения Рузаева,2000,91.70,72.5,77.5,-82.5,77.5,84+,B,Single-ply,Sub-Juniors,F,77.5,
2,Arina Shishmareva,Арина Шишмарева,2001,113.40,55,60,-62.5,60,84+,B,Single-ply,Sub-Juniors,F,60.0,
DQ,Anna Vozmilova,Анна Возмилова,2001,86.35,-95,-95,-95,,84+,B,Single-ply,Sub-Juniors,F,,
1,Sergey Vasilev,Сергей Васильев,1999,51.75,110,-117.5,117.5,117.5,53,B,Single-ply,Sub-Juniors,M,117.5,
2,Nikita Maltsev,Никита Мальцев,2001,50.55,100,110,-117.5,110,53,B,Single-ply,Sub-Juniors,M,110.0,
3,Valeriy Prokopev,Валерий Прокопьев,2001,52.75,105,-112.5,-112.5,105,53,B,Single-ply,Sub-Juniors,M,105.0,
4,Pavel Semibratov,Павел Семибратов,2000,52.80,85,92.5,97.5,97.5,53,B,Single-ply,Sub-Juniors,M,97.5,
1,Kurban Saidov,Курбан Саидов,1999,57.40,135,145,-159,145,59,B,Single-ply,Sub-Juniors,M,145.0,
2,Vitaliy Shabanov,Виталий Шабанов,2002,58.65,95,102.5,107.5,107.5,59,B,Single-ply,Sub-Juniors,M,107.5,
3,Andrey Talko,Андрей Талько,2002,58.00,100,105,-107.5,105,59,B,Single-ply,Sub-Juniors,M,105.0,
1,Aleksandr Grigorev,Александр Григорьев,1999,65.10,165,175,185,185,66,B,Single-ply,Sub-Juniors,M,185.0,
2,Vasiliy Kalinin,Василий Калинин,1999,64.95,-150,150,165,165,66,B,Single-ply,Sub-Juniors,M,165.0,
3,Vladimir Ufimskiy,Владимир Уфимский,1999,63.55,127.5,132.5,-135,132.5,66,B,Single-ply,Sub-Juniors,M,132.5,
1,Pavel Korolyov,Павел Королёв,2000,71.15,165,175,-180,175,74,B,Single-ply,Sub-Juniors,M,175.0,
2,Nikita Styazhkin,Никита Стяжкин,1999,72.70,155,162.5,170,170,74,B,Single-ply,Sub-Juniors,M,170.0,
3,Aleksey Leontev,Алексей Леонтьев,1999,68.65,145,155,160,160,74,B,Single-ply,Sub-Juniors,M,160.0,
4,Ivan Mazurin,Иван Мазурин,2001,71.60,-160,-160,160,160,74,B,Single-ply,Sub-Juniors,M,160.0,
5,Nikita Andronov,Никита Андронов,1999,66.15,152.5,-157.5,-157.5,152.5,74,B,Single-ply,Sub-Juniors,M,152.5,
6,Artem Safonov #1,Артем Сафонов,2002,73.20,-150,150,-160,150,74,B,Single-ply,Sub-Juniors,M,150.0,
1,Anton Vykhtar,Антон Выхтарь,1999,74.20,177.5,187.5,192.5,192.5,83,B,Single-ply,Sub-Juniors,M,192.5,
2,Sergey Konovnitsyn,Сергей Коновницын,1999,79.05,165,170,180,180,83,B,Single-ply,Sub-Juniors,M,180.0,
3,Aleksandr Alsufev,Александр Алсуфьев,1999,81.75,150,155,-160,155,83,B,Single-ply,Sub-Juniors,M,155.0,
4,Pavel Kiselyov,Павел Киселёв,1999,81.20,125,132.5,-140,132.5,83,B,Single-ply,Sub-Juniors,M,132.5,
DQ,Evgeniy Zhemchuzhnyy,Евгений Жемчужный,1999,82.90,,,,,83,B,Single-ply,Sub-Juniors,M,,
1,Anton Kurdyukov,Антон Курдюков,1999,89.50,190,200,-230,200,93,B,Single-ply,Sub-Juniors,M,200.0,
2,Aleksey Dolbnya,Алексей Долбня,1999,91.95,160,170,182.5,182.5,93,B,Single-ply,Sub-Juniors,M,182.5,
3,Stanislav Khrebtov,Станислав Хребтов,1999,91.65,160,170,-180,170,93,B,Single-ply,Sub-Juniors,M,170.0,
4,Daniil Novosyolov,Даниил Новосёлов,1999,86.55,-140,140,150,150,93,B,Single-ply,Sub-Juniors,M,150.0,
1,Nariman Azizov,Нариман Азизов,1999,93.80,175,182.5,192.5,192.5,105,B,Single-ply,Sub-Juniors,M,192.5,
2,Sergey Volodin,Сергей Володин,1999,97.80,182.5,187.5,192.5,192.5,105,B,Single-ply,Sub-Juniors,M,192.5,
3,Ustin Sidorov,Устин Сидоров,1999,97.70,-165,165,-180,165,105,B,Single-ply,Sub-Juniors,M,165.0,
1,Mikhail Grigorev,Михаил Григорьев,1999,118.00,170,180,-195,180,120,B,Single-ply,Sub-Juniors,M,180.0,
DQ,Sergey Kolmakov,Сергей Колмаков,2000,117.60,,,,,120,B,Single-ply,Sub-Juniors,M,,
1,Nikita Leskovets,Никита Лесковец,1999,132.40,230,242.5,-250,242.5,120+,B,Single-ply,Sub-Juniors,M,242.5,
1,Aleksandra Suntsova,Александра Сунцова,1998,42.95,70,77.5,83,83,43,B,Single-ply,Juniors,F,83.0,
1,Olga Gerasimova,Ольга Герасимова,1995,46.65,80,85,90,90,47,B,Single-ply,Juniors,F,90.0,
2,Mariya Burova,Мария Бурова,1995,46.85,77.5,82.5,87.5,87.5,47,B,Single-ply,Juniors,F,87.5,
DQ,Alisa Zhilkina,Алиса Жилкина,1995,,,,,,47,B,Single-ply,Juniors,F,,
1,Tatiana Smolekho,Татьяна Смолехо,1996,51.75,97.5,105,107.5,107.5,52,B,Single-ply,Juniors,F,107.5,
2,Alesya Petukhova,Алеся Петухова,1997,50.20,82.5,87.5,90,90,52,B,Single-ply,Juniors,F,90.0,
3,Alyona Goncharenko,Алёна Гончаренко,1997,51.30,-85,85,-90,85,52,B,Single-ply,Juniors,F,85.0,
4,Serafima Pigenko,Серафима Пигенко,1995,51.90,80,-87.5,-87.5,80,52,B,Single-ply,Juniors,F,80.0,
5,Vladlena Chursina,Владлена Чурсина,1998,51.45,65,70,75,75,52,B,Single-ply,Juniors,F,75.0,
1,Tatyana Rikhelgof,Татьяна Рихельгоф,1997,56.40,102.5,107.5,110,110,57,B,Single-ply,Juniors,F,110.0,
2,Kristina Odnokozova,Кристина Однокозова,1996,56.15,100,-105,107.5,107.5,57,B,Single-ply,Juniors,F,107.5,
3,Nadezhda Churilova,Надежда Чурилова,1996,56.90,-97.5,-97.5,97.5,97.5,57,B,Single-ply,Juniors,F,97.5,
4,Nina Kozlova,Нина Козлова,1998,57.00,80,85,87.5,87.5,57,B,Single-ply,Juniors,F,87.5,
5,Yuliya Lapukhina,Юлия Лапухина,1997,56.40,60,,,60,57,B,Single-ply,Juniors,F,60.0,
1,Anastasiya Yatsko,Анастасия Яцко,1994,62.45,102.5,107.5,112.5,112.5,63,B,Single-ply,Juniors,F,112.5,
2,Veronika Usova,Вероника Усова,1998,57.95,102.5,107.5,-112.5,107.5,63,B,Single-ply,Juniors,F,107.5,
3,Ekaterina Negasheva,Екатерина Негашева,1998,61.30,100,107.5,-112.5,107.5,63,B,Single-ply,Juniors,F,107.5,
4,Ekaterina Lisevich,Екатерина Лисевич,1997,60.55,95,-100,100,100,63,B,Single-ply,Juniors,F,100.0,
DQ,Alina Garipova,Алина Гарипова,1995,58.90,-75,-75,-75,,63,B,Single-ply,Juniors,F,,
1,Mariia Erokhina,Мария Ерохина,1995,71.35,115,125,-130,125,72,B,Single-ply,Juniors,F,125.0,
2,Ekaterina Prokopova,Екатерина Прокопова,1994,70.80,-115,115,-125,115,72,B,Single-ply,Juniors,F,115.0,
3,Anna Bystrova,Анна Быстрова,1994,71.25,105,110,-112.5,110,72,B,Single-ply,Juniors,F,110.0,
4,Anastasiya Shamonova,Анастасия Шамонова,1998,71.70,105,110,-112.5,110,72,B,Single-ply,Juniors,F,110.0,
5,Kseniya Petrova,Ксения Петрова,1997,66.95,65,70,-75,70,72,B,Single-ply,Juniors,F,70.0,
1,Yana Pokazanyeva,Яна Показаньева,1997,81.40,-127.5,130,137.5,137.5,84,B,Single-ply,Juniors,F,137.5,
2,Darya Khadimukhametova,Дарья Хадимухаметова,1998,76.30,115,120,130,130,84,B,Single-ply,Juniors,F,130.0,
3,Amaliya Naam,Амалия Наам,1995,76.35,100,102.5,110,110,84,B,Single-ply,Juniors,F,110.0,
4,Zhana Spinova,Жана Спинова,1995,82.90,90,-97.5,-97.5,90,84,B,Single-ply,Juniors,F,90.0,
1,Tatyana Didenko,Татьяна Диденко,1997,84.15,107.5,110,115,115,84+,B,Single-ply,Juniors,F,115.0,
2,Yana Spinova,Яна Спинова,1995,86.40,100,107.5,112.5,112.5,84+,B,Single-ply,Juniors,F,112.5,
3,Oksana Semenukha,Оксана Семенуха,1995,84.70,-90,90,100,100,84+,B,Single-ply,Juniors,F,100.0,
1,Georgiy Klimenko,Георгий Клименко,1995,52.95,150,160,165,165,53,B,Single-ply,Juniors,M,165.0,
2,Iles Maksharipov,Илес Макшарипов,1998,52.30,105,115,125,125,53,B,Single-ply,Juniors,M,125.0,
1,Andrey Bokk,Андрей Бокк,1995,58.70,110,117.5,-125,117.5,59,B,Single-ply,Juniors,M,117.5,
2,Ruslan Aliev,Руслан Алиев,1998,56.45,105,115,-120,115,59,B,Single-ply,Juniors,M,115.0,
1,Ruslan Balabanov,Руслан Балабанов,1996,66.00,190,200,-213.5,200,66,B,Single-ply,Juniors,M,200.0,
2,Andrey Khomyakov,Андрей Хомяков,1996,65.50,152.5,157.5,-162.5,157.5,66,B,Single-ply,Juniors,M,157.5,
3,Daniil Nikiforov,Даниил Никифоров,1998,65.60,147.5,155,157.5,157.5,66,B,Single-ply,Juniors,M,157.5,
4,Dmitriy Chubarov,Дмитрий Чубаров,1996,65.95,150,157.5,-162.5,157.5,66,B,Single-ply,Juniors,M,157.5,
5,Ernest Ibragimov,Эрнест Ибрагимов,1998,63.80,-145,145,-157.5,145,66,B,Single-ply,Juniors,M,145.0,
1,Valeriy Vorotilin,Валерий Воротилин,1995,73.30,207.5,-210,215,215,74,B,Single-ply,Juniors,M,215.0,
2,Rafael Sadykov,Рафаэль Садыков,1994,70.25,200,210,-215,210,74,B,Single-ply,Juniors,M,210.0,
3,Konstantin Berdnikov,Константин Бердников,1995,73.10,190,200,210,210,74,B,Single-ply,Juniors,M,210.0,
4,Timur Leysle,Тимур Лейсле,1994,72.25,195,202.5,207.5,207.5,74,B,Single-ply,Juniors,M,207.5,
5,Andrey Maksimov,Андрей Максимов,1995,73.30,180,-192.5,-205,180,74,B,Single-ply,Juniors,M,180.0,
6,Dmitriy Tyrinov,Дмитрий Тыринов,1998,74.00,152.5,-160,160,160,74,B,Single-ply,Juniors,M,160.0,
DQ,Rustem Khalliulin,Рустем Халлиулин,1998,72.80,,,,,74,B,Single-ply,Juniors,M,,
1,Vadim Kazak,Вадим Казак,1994,81.30,230,237.5,245,245,83,B,Single-ply,Juniors,M,245.0,
2,Vladislav Shaibekov,Владислав Шайбеков,1995,82.90,232.5,240,-245.5,240,83,B,Single-ply,Juniors,M,240.0,
3,Aleksey Sitnikov #4,Алексей Ситников,1997,82.75,-200,200,-210,200,83,B,Single-ply,Juniors,M,200.0,
4,Dmitriy Sedymov,Дмитрий Седымов,1995,82.50,155,-160,-160,155,83,B,Single-ply,Juniors,M,155.0,
1,Prokhor Poplygin,Прохор Поплыгин,1997,92.45,-260,260,,260,93,B,Single-ply,Juniors,M,260.0,
2,Sergey Kinas,Сергей Кинас,1994,92.40,-240,240,-260,240,93,B,Single-ply,Juniors,M,240.0,
3,Nikita Pavlov,Никита Павлов,1994,92.55,210,-220,220,220,93,B,Single-ply,Juniors,M,220.0,
4,Vladislav Gerashchenko,Владислав Геращенко,1994,92.00,195,210,-220,210,93,B,Single-ply,Juniors,M,210.0,
1,Egor Savelev,Егор Савельев,1994,101.25,290,302.5,-312.5,302.5,105,B,Single-ply,Juniors,M,302.5,
2,Roman Simakhin,Роман Симахин,1996,103.70,-280,280,-305,280,105,B,Single-ply,Juniors,M,280.0,
1,Denis Kildeev,Денис Кильдеев,1995,105.80,225,240,-255,240,120,B,Single-ply,Juniors,M,240.0,
2,Sergey Pozdnyak,Сергей Поздняк,1997,106.45,-200,200,-210,200,120,B,Single-ply,Juniors,M,200.0,
1,Vladislav Nemov,Владислав Немов,1996,127.70,220,230,237.5,237.5,120+,B,Single-ply,Juniors,M,237.5,
2,Dmitriy Lobotov,Дмитрий Лоботов,1997,144.25,200,212.5,225,225,120+,B,Single-ply,Juniors,M,225.0,
3,Oleg Evreev,Олег Евреев,1995,126.70,210,-220,222.5,222.5,120+,B,Single-ply,Juniors,M,222.5,
