Place,Sex,Name,CyrillicName,BodyweightKg,Bench1Kg,Bench2Kg,Bench3Kg,Best3BenchKg,Bench4Kg,Deadlift1Kg,Deadlift2Kg,Deadlift3Kg,Best3DeadliftKg,Deadlift4Kg,TotalKg,WeightClassKg,Event,Equipment,Tested,Division,Age,BirthDate
1,M,Daniil Chzhan,Даниил Чжан,75,-75,77.5,82.5,82.5,,-135,145,155,155,,237.5,75,BD,Raw,Yes,Teen 16-17,16,2003-12-08
1,M,Dmitriy Savelev,Дмитрий Савельев,104.4,120,127.5,-132.5,127.5,,210,222.5,230,230,,357.5,110,BD,Raw,Yes,Masters 40-44,40,1980-01-28
1,F,Lyudmila Khromenkova,Людмила Хроменкова,55.6,50,55,-57.5,55,,125,135,145,145,,200,56,BD,Raw,No,Masters 55-59,58,1961-09-20
1,M,Daniil Poddubnyy,Даниил Поддубный,74,160,165,-170,165,,260,275,-292.5,275,,440,75,BD,Raw,No,Open,26,1994-04-10
1,M,Kirill Korotich,Кирилл Коротич,87.4,130,137.5,145,145,,212.5,225,240,240,,385,90,BD,Raw,No,Juniors 20-23,23,1997-08-15
1,M,Aleksey Khromenkov,Алексей Хроменков,99.4,105,115,125,125,,175,-190,200,200,,325,100,BD,Raw,No,Masters 60-64,62,1957-10-02
1,F,Natalya Razumova,Наталья Разумова,56,67.5,-72.5,-72.5,67.5,,,,,,,67.5,56,B,Raw,Yes,Masters 40-44,44,1976-07-05
1,F,Yuliya Kalinchenko,Юлія Калінченко,77.5,90,95,-97.5,95,,,,,,,95,82.5,B,Raw,Yes,Masters 40-44,42,1977-11-20
1,M,Nikita Soldatkin,Никита Солдаткин,81.1,-130,-130,130,130,,,,,,,130,82.5,B,Raw,Yes,Teen 16-17,16,2003-08-31
2,M,Nikita Vostretsov,Никита Вострецов,77.3,107.5,117.5,127.5,127.5,,,,,,,127.5,82.5,B,Raw,Yes,Teen 16-17,17,2003-05-21
1,M,Artem Yurets,Артем Юрец,82.2,155,165,-172.5,165,,,,,,,165,82.5,B,Raw,Yes,Open,34,1986-03-04
1,M,Dmitriy Tkachenko,Дмитрий Ткаченко,89.7,155,157.5,160,160,,,,,,,160,90,B,Raw,Yes,Open,39,1981-04-09
2,M,Ruslan Ametusta,Руслан Аметуста,89,145,152.5,-160,152.5,,,,,,,152.5,90,B,Raw,Yes,Open,34,1985-10-25
3,M,Igor Zemlyanov,Игорь Землянов,86,120,132.5,-135,132.5,,,,,,,132.5,90,B,Raw,Yes,Open,27,1993-03-27
4,M,Aleksandr Pavlov,Александр Павлов,89.5,-125,125,132.5,132.5,,,,,,,132.5,90,B,Raw,Yes,Open,27,1993-04-15
1,M,Anton Tsisnetskiy,Антон Циснецкий,98.8,155,162.5,165,165,,,,,,,165,100,B,Raw,Yes,Open,29,1991-05-06
2,M,Oleg Zakharov,Олег Захаров,98.7,142.5,-152.5,-162.5,142.5,,,,,,,142.5,100,B,Raw,Yes,Open,31,1988-10-01
3,M,Roman Gayday,Роман Гайдай,99.5,142.5,-152.5,-162.5,142.5,,,,,,,142.5,100,B,Raw,Yes,Open,26,1994-04-26
1,M,Aleksandr Tsivanyuk,Александр Циванюк,110,190,200,205,205,,,,,,,205,110,B,Raw,Yes,Open,38,1981-11-23
2,M,Evgeniy Krasnov,Евгений Краснов,104.9,170,-180,180,180,,,,,,,180,110,B,Raw,Yes,Open,39,1981-03-15
1,M,Andrey Loginov,Андрей Логинов,104.5,155,160,-162.5,160,,,,,,,160,110,B,Raw,Yes,Masters 40-44,42,1978-02-26
1,F,Elena Pecherskaya,Елена Печерская,77.6,85,90,95,95,,,,,,,95,82.5,B,Raw,No,Open,29,1991-02-08
1,M,Anatoliy Gorbunov,Анатолий Горбунов,55.7,55,57.5,,57.5,,,,,,,57.5,56,B,Raw,No,Masters 75-79,78,1941-09-07
1,M,Kirill Korotich,Кирилл Коротич,87.4,130,137.5,145,145,,,,,,,145,90,B,Raw,No,Juniors 20-23,23,1997-08-15
1,M,Mustafa Seytnebiev,Мустафа Сейтнебиев,85.5,175,-180,-180,175,,,,,,,175,90,B,Raw,No,Open,24,1996-07-15
2,M,Artyom Vinogradskiy,Артём Виноградский,86.3,162.5,167.5,172.5,172.5,,,,,,,172.5,90,B,Raw,No,Open,34,1986-08-15
1,M,Viktor Kiriyak,Виктор Кирияк,99.9,182.5,192.5,-200,192.5,,,,,,,192.5,100,B,Raw,No,Open,24,1996-06-22
2,M,Aleksandr Palyonov,Александр Палёнов,96.7,160,170,180,180,,,,,,,180,100,B,Raw,No,Open,33,1987-02-11
3,M,Ruslan Patrenkov,Руслан Патренков,97,130,140,-145,140,,,,,,,140,100,B,Raw,No,Open,30,1990-07-07
1,M,Vyacheslav Gorbunov,Вячеслав Горбунов,97.3,145,155,160,160,,,,,,,160,100,B,Raw,No,Masters 50-54,52,1967-12-20
1,M,Mikhail Likhach,Михаил Лихач,109,245,255,260,260,-267.5,,,,,,260,110,B,Raw,No,Open,31,1989-04-20
2,M,Maksim Lisyutin,Максим Лисютин,108,230,245,-255,245,,,,,,,245,110,B,Raw,No,Open,35,1985-04-24
3,M,Denis Pavlenko,Денис Павленко,103.6,220,-225,-230,220,,,,,,,220,110,B,Raw,No,Open,27,1993-03-11
1,M,Andrey Buryachenko,Андрей Буряченко,120.3,180,192.5,200,200,,,,,,,200,125,B,Raw,No,Open,43,1976-12-30
1,M,Nikolay Lelyokin,Николай Лелёкин,117,190,200,-205,200,,,,,,,200,125,B,Raw,No,Masters 40-44,42,1977-11-17
1,M,Vladimir Peshko,Владимир Пешко,114.6,-180,180,,180,,,,,,,180,125,B,Raw,No,Masters 50-54,50,1970-02-12
DQ,M,Dzhamshid Ismatillaev,Джамшид Исматиллаев,133.7,-200,,,,,,,,,,,140,B,Raw,No,Open,36,1983-11-16
1,M,Vladimir Peshko,Владимир Пешко,114.6,-250,250,-260,250,,,,,,,250,125,B,Single-ply,No,Masters 50-54,50,1970-02-12
1,M,Dmitriy Tkachenko,Дмитрий Ткаченко,89.7,217.5,225,,225,,,,,,,225,90,B,Unlimited,Yes,Open,39,1981-04-09
1,M,Maksim Edrenikov,Максим Едреников,102.8,180,192.5,202.5,202.5,,,,,,,202.5,110,B,Unlimited,Yes,Masters 40-44,43,1976-10-25
1,M,Aleksandr Onishchenko,Александр Онищенко,74.6,190,-217.5,-217.5,190,,,,,,,190,75,B,Unlimited,No,Open,22,1998-01-14
1,M,Dmitriy Tkachenko,Дмитрий Ткаченко,89.7,217.5,225,,225,,,,,,,225,90,B,Unlimited,No,Open,39,1981-04-09
1,M,Artem Stasyuk,Артем Стасюк,105,280,-300,-300,280,,,,,,,280,110,B,Unlimited,No,Open,27,1993-05-30
1,M,Nikolay Lelyokin,Николай Лелёкин,117,270,-300,-300,270,,,,,,,270,125,B,Unlimited,No,Open,42,1977-11-17
1,M,Anton Barskov,Антон Барсков,165.5,370,-400,-400,370,,,,,,,370,140+,B,Unlimited,Yes,Open,36,1984-05-17
1,M,Marat Abdullin,Марат Абдуллин,99.75,292.5,315,330,330,,,,,,,330,100,B,Unlimited,No,Open,35,1985-07-21
1,M,Dmitriy Shabalin #1,Дмитрий Шабалин,134.1,-360,360,380,380,,,,,,,380,140,B,Unlimited,No,Masters 50-54,51,1969-01-19
1,F,Sultanie Abibulaeva,Султание Абибулаева,65,25,30,-32.5,30,,,,,,,30,67.5,B,Raw,No,Juniors 20-23,20,2000-06-27
1,F,Yuliya Kaftanova,Юлия Кафтанова,47,,,,,,97.5,-110,-110,97.5,,97.5,48,D,Raw,Yes,Open,24,1996-02-13
1,F,Oksana Tretyakova,Оксана Третьякова,64.8,,,,,,110,-120,120,120,,120,67.5,D,Raw,Yes,Open,28,1991-10-23
1,F,Natalya Andrusyak,Наталья Андрусяк,70.7,,,,,,150,160,170,170,,170,75,D,Raw,Yes,Open,24,1996-03-31
2,F,Marina Leushina,Марина Леушина,75,,,,,,115,122.5,-125,122.5,,122.5,75,D,Raw,Yes,Open,37,1983-02-05
1,M,Daniil Larin,Даниил Ларин,40.7,,,,,,60,65,70,70,,70,52,D,Raw,Yes,Teen 13-15,13,2007-04-15
1,M,Aleksey Kotov,Алексей Котов,74.8,,,,,,210,225,-230,225,,225,75,D,Raw,Yes,Open,32,1987-09-19
1,M,Aleksey Khekalo,Алексей Хекало,78.9,,,,,,240,255,,255,,255,82.5,D,Raw,Yes,Open,20,2000-08-28
1,M,Andrey Yakushev,Андрей Якушев,97.6,,,,,,170,180,190,190,,190,100,D,Raw,Yes,Teen 16-17,16,2004-07-22
1,M,Sergey Pirogov,Сергей Пирогов,97.5,,,,,,222.5,232.5,240,240,,240,100,D,Raw,Yes,Open,47,1972-12-15
2,M,Dmitriy Stepin,Дмитрий Степин,99.1,,,,,,210,217.5,-222.5,217.5,,217.5,100,D,Raw,Yes,Open,33,1986-09-10
1,M,Sergey Pirogov,Сергей Пирогов,97.5,,,,,,222.5,232.5,240,240,,240,100,D,Raw,Yes,Masters 45-49,47,1972-12-15
1,M,Vasiliy Leonenko,Василий Леоненко,93.4,,,,,,230,-240,-240,230,,230,100,D,Raw,Yes,Masters 50-54,53,1967-04-06
1,M,Dmitriy Savelev,Дмитрий Савельев,104.4,,,,,,210,222.5,230,230,,230,110,D,Raw,Yes,Masters 40-44,40,1980-01-28
1,F,Elvira Kataeva,Эльвира Катаева,58.8,,,,,,165,170,175,175,,175,60,D,Raw,No,Open,32,1988-01-07
1,M,Daniil Poddubnyy,Даниил Поддубный,74,,,,,,260,275,-292.5,275,,275,75,D,Raw,No,Open,26,1994-04-10
1,M,Kirill Korotich,Кирилл Коротич,87.4,,,,,,212.5,225,240,240,,240,90,D,Raw,No,Juniors 20-23,23,1997-08-15
1,M,Aleksey Zamorodskikh,Алексей Замородских,94.3,,,,,,200,215,222.5,222.5,,222.5,100,D,Raw,No,Open,39,1981-03-10
1,M,Vasiliy Leonenko,Василий Леоненко,93.4,,,,,,230,-240,-240,230,,230,100,D,Raw,No,Masters 50-54,53,1967-04-06
1,M,Sergey Stupin,Сергей Ступин,108,,,,,,320,-350,-350,320,,320,110,D,Raw,No,Open,37,1983-01-11
2,M,Ruslan Zhigalov,Руслан Жигалов,108.4,,,,,,-270,270,290,290,,290,110,D,Raw,No,Open,40,1980-08-10
1,M,Ruslan Zhigalov,Руслан Жигалов,108.4,,,,,,-270,270,290,290,,290,110,D,Raw,No,Masters 40-44,40,1980-08-10
1,M,Aleksey Kotov,Алексей Котов,74.8,,,,,,225,-240,-240,225,,225,75,D,Single-ply,Yes,Open,32,1987-09-19
