Place,Sex,Name,CyrillicName,BodyweightKg,Squat1Kg,Squat2Kg,Squat3Kg,Best3SquatKg,Squat4Kg,Bench1Kg,Bench2Kg,Bench3Kg,Best3BenchKg,Bench4Kg,Deadlift1Kg,Deadlift2Kg,Deadlift3Kg,Best3DeadliftKg,Deadlift4Kg,TotalKg,WeightClassKg,Event,Equipment,Tested,Division,Age,BirthDate
1,F,Tatyana Mamonova,Татьяна Мамонова,42.3,35,40,45,45,,-30,30,-32.5,30,,45,50,60,60,,135,44,SBD,Raw,No,Youth,13,2007-02-12
1,F,Viktoriya Koteneva,Виктория Котенева,40.5,60,65,70,70,,40,42.5,-45,42.5,,77.5,82.5,90,90,,202.5,44,SBD,Raw,No,Pro Sub-Juniors 17-19,19,2001-01-15
2,F,Kristina Kostenko,Кристина Костенко,55.3,-37.5,37.5,42.5,42.5,,25,30,-32.5,30,,-45,-50,50,50,,122.5,56,SBD,Raw,No,Youth,12,2007-11-13
1,F,Alina Sodol,Алина Содоль,53.2,80,85,-90,85,,40,45,47.5,47.5,,90,95,-100,95,,227.5,56,SBD,Raw,No,Pro Sub-Juniors 17-19,19,2001-02-07
1,F,Mariya Rachkovskaya,Мария Рачковская,60,95,100,105,105,,50,55,57.5,57.5,,90,97.5,100,100,,262.5,60,SBD,Raw,No,Pro Juniors 20-23,23,1996-11-17
1,F,Anna Vishnyak,Анна Вишняк,58.7,130,140,-145,140,,90,97.5,-102.5,97.5,,150,167.5,-175,167.5,,405,60,SBD,Raw,No,Pro Open,35,1984-12-12
2,F,Nadezhda Yarkina,Надежда Яркина,59,85,92.5,100,100,,45,50,52.5,52.5,,95,102.5,110,110,,262.5,60,SBD,Raw,No,Pro Open,22,1998-04-27
1,F,Vera Volobueva,Вера Волобуева,66.6,100,105,110,110,,65,67.5,70,70,,125,130,,130,,310,67.5,SBD,Raw,No,Pro Open,63,1957-03-23
2,F,Margarita Koroleva,Маргарита Королева,67.2,90,-95,-95,90,,42.5,-45,47.5,47.5,,100,107.5,115,115,,252.5,67.5,SBD,Raw,No,Pro Open,26,1994-01-28
3,F,Evgeniya Shuklina,Евгения Шуклина,65.4,85,-90,-90,85,,52.5,-55,-55,52.5,,105,-110,-110,105,,242.5,67.5,SBD,Raw,No,Pro Open,30,1989-11-11
1,F,Irina Zotova,Ирина Зотова,75,140,147.5,152.5,152.5,,85,90,-92.5,90,,150,160,170,170,,412.5,75,SBD,Raw,No,Pro Open,46,1973-11-29
1,F,Oksana Chudnaya,Оксана Чудная,74.2,95,102.5,107.5,107.5,,45,50,55,55,,105,115,122.5,122.5,,285,75,SBD,Raw,No,Pro Masters 40-49,43,1977-05-30
1,M,Nikita Skorokhodov,Никита Скороходов,46.1,75,80,90,90,,47.5,52.5,-55,52.5,,75,-82.5,82.5,82.5,,225,52,SBD,Raw,No,Youth,12,2008-08-06
2,M,Arseniy Makhkamov,Арсений Махкамов,50.7,60,65,67.5,67.5,,42.5,45,-47.5,45,,62.5,70,80,80,,192.5,52,SBD,Raw,No,Youth,12,2008-04-23
1,M,Roman Bernatskiy,Роман Бернацкий,53.4,-45,45,50,50,,32.5,35,-37.5,35,,50,55,62.5,62.5,,147.5,56,SBD,Raw,No,Youth,11,2008-12-02
1,M,Ivan Borodin,Иван Бородин,57.1,67.5,-70,70,70,,-47.5,50,-52.5,50,,85,90,-100,90,,210,60,SBD,Raw,No,Youth,12,2008-04-18
1,M,Semyon Bodyukov,Семён Бодюков,59.6,135,142.5,-147.5,142.5,,82.5,-87.5,-87.5,82.5,,130,137.5,-142.5,137.5,,362.5,60,SBD,Raw,No,Pro Sub-Juniors 17-19,17,2002-12-25
1,M,Maksim Starodubtsev,Максим Стародубцев,66.5,85,90,95,95,,55,-60,-60,55,,95,100,110,110,,260,67.5,SBD,Raw,No,Youth,13,2007-08-15
2,M,Evgeniy Kovalevskiy,Евгений Ковалевский,60.1,60,-70,80,80,,-40,-50,57.5,57.5,,70,100,-120,100,,237.5,67.5,SBD,Raw,No,Pro Teen 14-16,16,2004-03-30
1,M,Kirill Kosov,Кирилл Косов,72,-110,120,130,130,,90,95,97.5,97.5,,140,155,175,175,,402.5,75,SBD,Raw,No,Pro Sub-Juniors 17-19,17,2003-07-09
2,M,Ilya Golubtsov,Илья Голубцов,75,135,140,145,145,,90,95,-100,95,,140,145,150,150,,390,75,SBD,Raw,No,Pro Sub-Juniors 17-19,17,2003-02-23
3,M,Mikhail Kamyshnikov,Михаил Камышников,73.3,-105,105,110,110,,70,-72.5,-72.5,70,,115,120,130,130,,310,75,SBD,Raw,No,Pro Sub-Juniors 17-19,17,2003-08-24
1,M,Konstantin Shiryaev,Константин Ширяев,68.6,-90,90,92.5,92.5,,67.5,70,-75,70,,95,102.5,110,110,,272.5,75,SBD,Raw,No,Pro Juniors 20-23,20,2000-07-16
1,M,Sergey Irkitov,Сергей Иркитов,74.9,150,160,-175,160,,115,120,125,125,,160,175,-190,175,,460,75,SBD,Raw,No,Pro Open,25,1995-05-29
1,M,Daniil Kovalenko,Даниил Коваленко,78.8,152.5,-160,160,160,,92.5,100,-102.5,100,,155,-162.5,162.5,162.5,,422.5,82.5,SBD,Raw,No,Pro Teen 14-16,14,2006-05-16
1,M,Andrey Gusiletov,Андрей Гусилетов,80.1,170,-187.5,-190,170,,105,-110,-110,105,,185,200,212.5,212.5,,487.5,82.5,SBD,Raw,No,Pro Juniors 20-23,20,1999-10-28
2,M,Artem Dadyko,Артем Дадыко,82.5,150,160,165,165,,95,100,102.5,102.5,,160,170,175,175,,442.5,82.5,SBD,Raw,No,Pro Juniors 20-23,21,1998-12-22
1,M,Evgeniy Kuzminykh,Евгений Кузьминых,82.4,180,190,-192.5,190,,150,155,-160,155,,200,-220,-220,200,,545,82.5,SBD,Raw,No,Pro Open,36,1983-11-15
2,M,Andrey Gusiletov,Андрей Гусилетов,80.1,170,-187.5,-190,170,,105,-110,-110,105,,185,200,212.5,212.5,,487.5,82.5,SBD,Raw,No,Pro Open,20,1999-10-28
3,M,Vladislav Kolpakov,Владислав Колпаков,78,120,130,-135,130,,90,-95,-95,90,,130,140,145,145,,365,82.5,SBD,Raw,No,Pro Open,25,1995-02-28
1,M,Nikolay Larkin,Николай Ларкин,88.5,160,170,180,180,,130,135,140,140,,215,225,230,230,,550,90,SBD,Raw,No,Pro Open,28,1992-05-17
2,M,Aleksandr Taktaev,Александр Тактаев,87.8,-180,187.5,-195,187.5,,125,132.5,-137.5,132.5,,195,212.5,227.5,227.5,,547.5,90,SBD,Raw,No,Pro Open,24,1996-09-13
1,M,Dmitriy Sinelnikov,Дмитрий Синельников,93.5,160,180,-200,180,,120,130,-140,130,,220,240,250,250,,560,100,SBD,Raw,No,Pro Juniors 20-23,21,1999-08-05
1,M,Aleksey Tomskiy,Алексей Томский,92.5,190,200,212.5,212.5,,135,142.5,147.5,147.5,,205,215,227.5,227.5,,587.5,100,SBD,Raw,No,Pro Open,35,1985-04-09
2,M,Denis Polkin,Денис Полькин,99.7,200,210,-220,210,,120,127.5,135,135,,-222.5,227.5,235,235,,580,100,SBD,Raw,No,Pro Open,34,1986-03-06
1,M,Mikhail Averin,Михаил Аверин,105.4,-100,-100,110,110,,-72.5,72.5,77.5,77.5,,-100,110,120,120,,307.5,110,SBD,Raw,No,Youth,13,2007-02-15
1,M,Aleksey Dyachenko,Алексей Дьяченко,108.8,215,225,-235,225,,137.5,145,152.5,152.5,,220,240,,240,,617.5,110,SBD,Raw,No,Pro Open,25,1995-07-19
2,M,Ilya Ovsyanov,Илья Овсянов,106.4,180,185,190,190,,137.5,145,150,150,,210,220,230,230,,570,110,SBD,Raw,No,Pro Open,39,1980-11-24
3,M,Aleksey Krechetov,Алексей Кречетов,109.4,160,170,-185,170,,130,135,137.5,137.5,,200,215,220,220,,527.5,110,SBD,Raw,No,Pro Open,33,1987-01-17
1,M,Aleksandr Shestunov,Александр Шестунов,120.5,230,250,,250,,205,-210,-210,205,,290,300,-310,300,,755,125,SBD,Raw,No,Pro Open,39,1981-04-03
1,F,Alina Kudrina,Алина Кудрина,56,,,,,,55,-57.5,-57.5,55,,,,,,,55,56,B,Raw,No,Pro Juniors 20-23,20,1999-10-07
1,F,Ekaterina Anishchenko,Екатерина Анищенко,57.8,,,,,,-40,40,-45,40,,,,,,,40,60,B,Raw,No,Pro Sub-Juniors 17-19,19,2000-10-11
1,F,Anna Vishnyak,Анна Вишняк,58.7,,,,,,90,97.5,-102.5,97.5,,,,,,,97.5,60,B,Raw,No,Pro Open,35,1984-12-12
2,F,Anna Golomentseva,Анна Голоменцева,59.6,,,,,,50,-55,-55,50,,,,,,,50,60,B,Raw,No,Pro Open,30,1990-01-15
3,F,Olga Androsova,Ольга Андросова,57.9,,,,,,30,35,-40,35,,,,,,,35,60,B,Raw,No,Pro Open,26,1994-01-23
1,F,Tatyana Efremova,Татьяна Ефремова,66.9,,,,,,52.5,55,-57.5,55,,,,,,,55,67.5,B,Raw,No,Pro Masters 40-49,45,1975-04-01
1,F,Sofya Yureva,Софья Юрьева,74.7,,,,,,-80,-80,80,80,,,,,,,80,75,B,Raw,No,Pro Teen 14-16,16,2003-11-06
1,F,Yuliya Korovina,Юлия Коровина,74.1,,,,,,-67.5,67.5,-70,67.5,,,,,,,67.5,75,B,Raw,No,Pro Open,44,1976-07-12
2,F,Oksana Massold,Оксана Массольд,74.5,,,,,,60,-65,-65,60,,,,,,,60,75,B,Raw,No,Pro Open,38,1982-06-27
1,F,Oksana Chudnaya,Оксана Чудная,74.2,,,,,,45,50,55,55,,,,,,,55,75,B,Raw,No,Pro Masters 40-49,43,1977-05-30
1,M,Ilya Nemov,Илья Немов,47.6,,,,,,45,-47.5,-50,45,,,,,,,45,52,B,Raw,No,Youth,13,2006-10-20
1,M,Egor Rakhmatulin,Егор Рахматулин,61.8,,,,,,-72.5,77.5,85,85,,,,,,,85,67.5,B,Raw,No,Pro Sub-Juniors 17-19,,2002-10-04
DQ,M,Sergey Kolesnikov,Сергей Колесников,66,,,,,,-77.5,-77.5,-77.5,,,,,,,,,67.5,B,Raw,No,Pro Open,30,1990-03-16
DQ,M,Ivan Shubkin,Иван Шубкин,72.7,,,,,,-90,-90,-90,,,,,,,,,75,B,Raw,No,Pro Teen 14-16,16,2003-11-28
1,M,Danil Tatarintsev,Данил Татаринцев,73.2,,,,,,-75,-77.5,77.5,77.5,,,,,,,77.5,75,B,Raw,No,Pro Sub-Juniors 17-19,17,2003-04-28
DQ,M,Anton Artemov,Антон Артемов,74,,,,,,-80,-80,-80,,,,,,,,,75,B,Raw,No,Pro Sub-Juniors 17-19,19,2001-07-20
1,M,Aleksandr Fink,Александр Финк,73.3,,,,,,125,-130,-130,125,,,,,,,125,75,B,Raw,No,Pro Juniors 20-23,21,1999-03-03
1,M,Andrey Litvinov,Андрей Литвинов,74.3,,,,,,105,-112.5,-112.5,105,,,,,,,105,75,B,Raw,No,Pro Open,32,1988-08-01
1,M,Sergey Dubtsov,Сергей Дубцов,82.3,,,,,,130,137.5,142.5,142.5,,,,,,,142.5,82.5,B,Raw,No,Pro Juniors 20-23,22,1998-01-09
DQ,M,Danil Lukyanov,Данил Лукьянов,82.2,,,,,,-117.5,-122.5,-122.5,,,,,,,,,82.5,B,Raw,No,Pro Juniors 20-23,22,1997-10-09
1,M,Evgeniy Otmashkin,Евгений Отмашкин,81.6,,,,,,127.5,132.5,-135,132.5,,,,,,,132.5,82.5,B,Raw,No,Pro Open,27,1993-02-04
2,M,Artem Rogatkov,Артем Рогатков,81.7,,,,,,122.5,127.5,-132.5,127.5,,,,,,,127.5,82.5,B,Raw,No,Pro Open,32,1987-11-26
1,M,Maksim Dumasov,Максим Думасов,85.9,,,,,,60,65,-70,65,,,,,,,65,90,B,Raw,No,Pro Teen 14-16,15,2005-09-01
1,M,Mikhail Shpagin,Михаил Шпагин,89.4,,,,,,160,165,170,170,,,,,,,170,90,B,Raw,No,Pro Open,31,1988-10-25
2,M,Nikolay Saptsin,Николай Сапцин,88.7,,,,,,150,162.5,165,165,,,,,,,165,90,B,Raw,No,Pro Open,59,1961-08-02
3,M,Viktor Kuzyakin,Виктор Кузякин,89.1,,,,,,150,-155,-155,150,,,,,,,150,90,B,Raw,No,Pro Open,22,1997-10-06
4,M,Aleksandr Taktaev,Александр Тактаев,87.8,,,,,,125,132.5,-137.5,132.5,,,,,,,132.5,90,B,Raw,No,Pro Open,24,1996-09-13
5,M,Nikolay Taktaev,Николай Тактаев,86.5,,,,,,115,-125,,115,,,,,,,115,90,B,Raw,No,Pro Open,24,1996-09-13
1,M,Nikolay Saptsin,Николай Сапцин,88.7,,,,,,150,162.5,165,165,,,,,,,165,90,B,Raw,No,Pro Masters 50-59,59,1961-08-02
1,M,Egor Korobkin,Егор Коробкин,94.7,,,,,,120,125,130,130,,,,,,,130,100,B,Raw,No,Pro Sub-Juniors 17-19,17,2003-05-29
2,M,Eduard Vorobev,Эдуард Воробьев,92.5,,,,,,120,-130,-130,120,,,,,,,120,100,B,Raw,No,Pro Sub-Juniors 17-19,19,2001-04-20
1,M,Ilya Kuznetsov,Илья Кузнецов,97.6,,,,,,165,-172.5,172.5,172.5,,,,,,,172.5,100,B,Raw,No,Pro Open,26,1994-01-16
2,M,Vladislav Sakovich,Владислав Сакович,92.3,,,,,,150,-155,155,155,,,,,,,155,100,B,Raw,No,Pro Open,25,1995-07-10
3,M,Aleksey Tomskiy,Алексей Томский,92.5,,,,,,135,142.5,147.5,147.5,,,,,,,147.5,100,B,Raw,No,Pro Open,35,1985-04-09
1,M,Vladimir Logushkin,Владимир Логушкин,98.9,,,,,,90,95,100,100,,,,,,,100,100,B,Raw,No,Pro Masters 60-69,61,1959-05-15
1,M,Mikhail Averin,Михаил Аверин,105.4,,,,,,-72.5,72.5,77.5,77.5,,,,,,,77.5,110,B,Raw,No,Youth,13,2007-02-15
1,M,Igor Slizunkov,Игорь Слизунков,106,,,,,,175,-180,-180,175,,,,,,,175,110,B,Raw,No,Pro Open,25,1994-11-21
2,M,Ilya Ovsyanov,Илья Овсянов,106.4,,,,,,137.5,145,150,150,,,,,,,150,110,B,Raw,No,Pro Open,39,1980-11-24
3,M,Dmitriy Savchenko,Дмитрий Савченко,101,,,,,,120,,,120,,,,,,,120,110,B,Raw,No,Pro Open,39,1981-08-03
1,M,Aleksey Mikheda,Алексей Михеда,108.2,,,,,,145,-152.5,-155,145,,,,,,,145,110,B,Raw,No,Pro Masters 40-49,45,1975-07-31
1,M,Aleksandr Shestunov,Александр Шестунов,120.5,,,,,,205,-210,-210,205,,,,,,,205,125,B,Raw,No,Pro Open,39,1981-04-03
1,M,Vladimir Sviridov,Владимир Свиридов,150.1,,,,,,190,200,,200,,,,,,,200,140+,B,Raw,No,Pro Open,41,1979-08-09
1,M,Vladimir Sviridov,Владимир Свиридов,150.1,,,,,,190,200,,200,,,,,,,200,140+,B,Raw,No,Pro Masters 40-49,41,1979-08-09
1,F,Sofya Skobelina,Софья Скобелина,39.5,,,,,,,,,,,70,75,80,80,,80,44,D,Raw,No,Youth,12,2008-04-01
2,F,Anastasiya Kurzova,Анастасия Курзова,36.8,,,,,,,,,,,40,45,50,50,,50,44,D,Raw,No,Youth,11,2009-01-30
1,F,Anna Vishnyak,Анна Вишняк,58.7,,,,,,,,,,,150,167.5,-175,167.5,,167.5,60,D,Raw,No,Pro Open,35,1984-12-12
1,F,Oksana Chudnaya,Оксана Чудная,74.2,,,,,,,,,,,105,115,122.5,122.5,,122.5,75,D,Raw,No,Pro Masters 40-49,43,1977-05-30
1,M,Ilya Nemov,Илья Немов,47.6,,,,,,,,,,,82.5,-87.5,-90,82.5,,82.5,52,D,Raw,No,Youth,13,2006-10-20
1,M,Dmitriy Semenov,Дмитрий Семенов,65.9,,,,,,,,,,,220,-230,-230,220,,220,67.5,D,Raw,No,Pro Juniors 20-23,20,2000-01-29
1,M,Dmitriy Semenov,Дмитрий Семенов,65.9,,,,,,,,,,,220,-230,-230,220,,220,67.5,D,Raw,No,Pro Open,20,2000-01-29
1,M,Danil Tatarintsev,Данил Татаринцев,73.2,,,,,,,,,,,-160,-170,175,175,,175,75,D,Raw,No,Pro Sub-Juniors 17-19,17,2003-04-28
1,M,Aleksey Podanev,Алексей Поданев,72.3,,,,,,,,,,,160,-170,170,170,,170,75,D,Raw,No,Pro Open,35,1985-01-20
2,M,Aleksandr Lopatin,Александр Лопатин,75,,,,,,,,,,,-160,160,170,170,,170,75,D,Raw,No,Pro Open,38,1981-12-02
1,M,Nikita Pustovoytov,Никита Пустовойтов,80.5,,,,,,,,,,,125,-132.5,-132.5,125,,125,82.5,D,Raw,No,Pro Teen 14-16,15,2005-08-12
1,M,Daniil Dedov,Даниил Дедов,80.9,,,,,,,,,,,130,140,-145,140,,140,82.5,D,Raw,No,Pro Juniors 20-23,22,1998-04-12
1,M,Roman Avdeev,Роман Авдеев,89.1,,,,,,,,,,,235,250,257.5,257.5,,257.5,90,D,Raw,No,Pro Juniors 20-23,22,1998-05-18
2,M,Sergey Ponomarev,Сергей Пономарев,88.2,,,,,,,,,,,210,230,-260,230,,230,90,D,Raw,No,Pro Juniors 20-23,22,1997-12-22
3,M,Stepan Bryksin,Степан Брыксин,88.5,,,,,,,,,,,-195,202.5,207.5,207.5,,207.5,90,D,Raw,No,Pro Juniors 20-23,22,1998-06-17
1,M,Sergey Ponomarev,Сергей Пономарев,88.2,,,,,,,,,,,210,230,-260,230,,230,90,D,Raw,No,Pro Open,22,1997-12-22
2,M,Nikolay Taktaev,Николай Тактаев,86.5,,,,,,,,,,,185,202.5,-212.5,202.5,,202.5,90,D,Raw,No,Pro Open,24,1996-09-13
3,M,Dmitriy Ovsienko,Дмитрий Овсиенко,89.8,,,,,,,,,,,165,172.5,-177.5,172.5,,172.5,90,D,Raw,No,Pro Open,31,1989-06-07
1,M,Eduard Vorobev,Эдуард Воробьев,92.5,,,,,,,,,,,200,220,-240,220,,220,100,D,Raw,No,Pro Sub-Juniors 17-19,19,2001-04-20
1,M,Dmitriy Sinelnikov,Дмитрий Синельников,93.5,,,,,,,,,,,220,240,250,250,,250,100,D,Raw,No,Pro Juniors 20-23,21,1999-08-05
1,M,Aleksey Tomskiy,Алексей Томский,92.5,,,,,,,,,,,205,215,227.5,227.5,,227.5,100,D,Raw,No,Pro Open,35,1985-04-09
1,M,Ilya Ovsyanov,Илья Овсянов,106.4,,,,,,,,,,,210,220,230,230,,230,110,D,Raw,No,Pro Open,39,1980-11-24
1,M,Aleksandr Shestunov,Александр Шестунов,120.5,,,,,,,,,,,290,300,-310,300,,300,125,D,Raw,No,Pro Open,39,1981-04-03
1,M,Vladimir Sviridov,Владимир Свиридов,150.1,,,,,,,,,,,300,310,320,320,,320,140+,D,Raw,No,Pro Open,41,1979-08-09
1,M,Vladimir Sviridov,Владимир Свиридов,150.1,,,,,,,,,,,300,310,320,320,,320,140+,D,Raw,No,Pro Masters 40-49,41,1979-08-09
