Place,Name,Division,Equipment,Event,BirthDate,BirthYear,Sex,BodyweightKg,WeightClassKg,Squat1Kg,Squat2Kg,Squat3Kg,Best3SquatKg,Bench1Kg,Bench2Kg,Bench3Kg,Best3BenchKg,Deadlift1Kg,Deadlift2Kg,Deadlift3Kg,Best3DeadliftKg,TotalKg
1,Fitia Rakotoarisoa,Seniors,Raw,SBD,,1996,F,46.5,47,65,-70,75,75,35,40,-42.5,40,75,82.5,87.5,87.5,202.5
1,Maeva Lambert,Seniors,Raw,SBD,,1990,F,51.1,52,95,102.5,-107.5,102.5,55,60,62.5,62.5,112.5,120,125,125,290
1,Sovannphaktra Pal,Seniors,Raw,SBD,,1991,F,55,57,107.5,112.5,117.5,117.5,57.5,62.5,65,65,137.5,142.5,-145,142.5,325
2,Doaa Amouri,Seniors,Raw,SBD,,1990,F,56.7,57,-102.5,102.5,107.5,107.5,45,47.5,-50,47.5,122.5,127.5,-132.5,127.5,282.5
3,Alannah Epaulard,Seniors,Raw,SBD,,1997,F,55.2,57,70,75,82.5,82.5,42.5,47.5,-50,47.5,92.5,-100,,92.5,222.5
1,Marie Bouchere,Seniors,Raw,SBD,,1995,F,62.1,63,102.5,107.5,-112.5,107.5,60,65,-67.5,65,127.5,135,142.5,142.5,315
2,Olivia Kulcsar,Seniors,Raw,SBD,,1990,F,58.9,63,90,97.5,-102.5,97.5,50,55,-57.5,55,112.5,122.5,132.5,132.5,285
1,Cécile Caux,Seniors,Raw,SBD,,1992,F,76.5,84,95,105,110,110,42.5,47.5,50,50,110,120,130,130,290
2,Marlene Dorand,Seniors,Raw,SBD,,1994,F,81.9,84,-107.5,-110,110,110,57.5,60,-62.5,60,115,122.5,130,130,300
1,Virginie Chatelet,Masters 1,Raw,SBD,,1977,F,78,84,85,92.5,-100,92.5,40,42.5,-55,42.5,115,125,-132.5,125,260
1,Lucas Parisot,Sub-Juniors,Raw,SBD,,2003,M,65.9,66,125,-130,-137.5,125,60,-70,-70,60,170,180,-190,180,365
1,Miles Hamimi,Juniors,Raw,SBD,,2000,M,49.3,53,60,70,80,80,40,45,,45,100,115,120,120,245
1,Enzo Perroux,Juniors,Raw,SBD,,2000,M,70.6,74,-150,-150,150,150,95,-105,105,105,-195,200,-215,200,455
1,Guillaume Jean Marie Flore,Juniors,Raw,SBD,,2000,M,82.6,83,-220,-220,220,220,127.5,-135,-135,127.5,265,280,-302.5,280,627.5
2,Leo Terrade,Juniors,Raw,SBD,,1999,M,80.5,83,195,205,212.5,212.5,100,105,-112.5,105,230,250,260,260,577.5
3,Mathieu Porliod,Juniors,Raw,SBD,,2002,M,79.4,83,140,-145,152.5,152.5,85,-90,90,90,165,175,182.5,182.5,425
4,Kevin Goudjil,Juniors,Raw,SBD,,2000,M,79,83,140,-155,-160,140,90,-97.5,-102.5,90,170,190,-210,190,420
1,Valentin Tourneux,Juniors,Raw,SBD,,1998,M,87.7,93,177.5,-185,190,190,117.5,122.5,127.5,127.5,180,192.5,205,205,522.5
2,Hugo Poiret,Juniors,Raw,SBD,,2000,M,91.3,93,102.5,107.5,-115,107.5,72.5,77.5,82.5,82.5,120,127.5,137.5,137.5,327.5
1,Paul Delhomme,Juniors,Raw,SBD,,1999,M,96.3,105,160,170,175,175,100,107.5,112.5,112.5,190,205,215,215,502.5
2,Killlian Izzedine,Juniors,Raw,SBD,,1999,M,100.2,105,-120,120,140,140,-100,110,125,125,140,160,180,180,445
1,David Ta,Juniors,Raw,SBD,,1998,M,56.7,59,100,-115,-120,100,-60,-65,65,65,140,160,-170,160,325
1,Florian Magnier,Seniors,Raw,SBD,,1995,M,73.9,74,195,202.5,207.5,207.5,150,155,-160,155,195,205,220,220,582.5
2,Teddy Rosier,Seniors,Raw,SBD,,1989,M,72.9,74,-180,200,-205,200,110,125,-135,125,200,215,227.5,227.5,552.5
3,Christophe Gorsy,Seniors,Raw,SBD,,1993,M,72.6,74,167.5,172.5,177.5,177.5,130,-135,,130,195,205,212.5,212.5,520
4,Guillaume Dubreu,Seniors,Raw,SBD,,1997,M,73.8,74,165,172.5,-180,172.5,117.5,122.5,127.5,127.5,207.5,217.5,-230,217.5,517.5
5,Yohan Duarte,Seniors,Raw,SBD,,1992,M,74,74,165,175,185,185,110,115,120,120,195,210,-220,210,515
6,Mickael Poizet,Seniors,Raw,SBD,,1996,M,73.1,74,172.5,185,192.5,192.5,107.5,115,-120,115,200,215,-220,215,522.5
7,Thomas Tonnoir,Seniors,Raw,SBD,,1986,M,73.1,74,160,170,180,180,120,-130,-130,120,180,200,215,215,515
8,Bryan Lajmi,Seniors,Raw,SBD,,1987,M,73.4,74,100,-130,135,135,-100,105,110,110,180,200,-205,200,445
9,Aurelien Standaert,Seniors,Raw,SBD,,1996,M,72.6,74,-122.5,122.5,135,135,90,-100,100,100,170,190,200,200,435
10,Jeremy Kulscar,Seniors,Raw,SBD,,1994,M,73.4,74,125,135,145,145,102.5,-107.5,,102.5,175,187.5,-200,187.5,435
11,Reda Agaoua,Seniors,Raw,SBD,,1995,M,74,74,122.5,127.5,132.5,132.5,-92.5,92.5,-97.5,92.5,177.5,180,195,195,420
1,Jamal Saadi,Seniors,Raw,SBD,,1987,M,78.1,83,155,165,175,175,110,120,122.5,122.5,230,247.5,260,260,557.5
2,Gauthier Giffard,Seniors,Raw,SBD,,1995,M,81.3,83,-172.5,172.5,177.5,177.5,-112.5,115,122.5,122.5,182.5,187.5,195,195,495
3,Carlos Tiny,Seniors,Raw,SBD,,1994,M,81.6,83,-130,135,147.5,147.5,70,80,87.5,87.5,175,-190,190,190,425
4,Nicolas Collot,Seniors,Raw,SBD,,1997,M,81.7,83,130,142.5,150,150,92.5,100,102.5,102.5,172.5,185,-195,185,437.5
5,Nicolas Picard,Seniors,Raw,SBD,,1996,M,81,83,132.5,137.5,145,145,82.5,87.5,92.5,92.5,157.5,165,177.5,177.5,415
DQ,Leo Madeleine,Seniors,Raw,SBD,,1991,M,83,83,-150,-150,-150,,-100,,,,-200,,,,
1,Desire Kwamen,Seniors,Raw,SBD,,1989,M,91.4,93,205,210,-220,210,130,-135,137.5,137.5,265,270,275,275,622.5
2,Matthieu Jeanville,Seniors,Raw,SBD,,1997,M,90.6,93,175,190,200,200,140,150,160,160,205,220,230,230,590
3,Julien Amblard,Seniors,Raw,SBD,,1990,M,90.3,93,190,210,-222.5,210,115,120,127.5,127.5,200,230,-240,230,567.5
4,Guillaume Nony,Seniors,Raw,SBD,,1992,M,92.2,93,180,192.5,197.5,197.5,110,117.5,120,120,225,237.5,-245,237.5,555
5,Yan Spaggiari,Seniors,Raw,SBD,,1996,M,88,93,182.5,192.5,-200,192.5,130,-132.5,,130,195,207.5,-220,207.5,530
6,Axel Guerin,Seniors,Raw,SBD,,1997,M,84.6,93,150,162.5,172.5,172.5,110,115,-120,115,185,195,210,210,497.5
7,Florentin Jean,Seniors,Raw,SBD,,1997,M,87.5,93,150,157.5,165,165,120,122.5,-127.5,122.5,180,190,205,205,492.5
8,Dave Lafon,Seniors,Raw,SBD,,1987,M,86.7,93,105,115,-122.5,115,90,95,-97.5,95,130,145,160,160,370
1,Quentin Beltzung,Seniors,Raw,SBD,,1994,M,105.8,120,-135,135,150,150,77.5,85,90,90,180,200,-215,200,440
1,Alexis Soares,Seniors,Raw,SBD,,1987,M,126.6,120+,-245,245,255,255,180,200,202.5,202.5,245,260,270,270,727.5
DQ,Jerold Manioc,Seniors,Raw,SBD,,1985,M,126.6,120+,-190,-200,-200,,-145,,,,280,-300,-300,280,
1,Wilfried Richeux,Masters 1,Raw,SBD,,1974,M,81.3,83,135,145,152.5,152.5,100,110,115,115,160,170,-180,170,437.5
2,Eddy Leblanc,Masters 1,Raw,SBD,,1974,M,82.8,83,110,125,-140,125,110,117.5,120,120,140,160,170,170,415
1,Kader Slimani,Masters 1,Raw,SBD,,1980,M,87,93,140,150,160,160,100,110,-120,110,175,190,200,200,470
1,Christophe Barbosa,Masters 1,Raw,SBD,,1975,M,105,105,150,160,175,175,100,115,125,125,180,,,180,480
1,Félix Martial,Masters 2,Raw,SBD,,1963,M,83,83,170,182.5,187.5,187.5,80,90,92.5,92.5,175,190,200,200,480
1,Gemel Boughamdouz,Masters 2,Raw,SBD,,1963,M,91.3,93,170,185,-200,185,130,140,150,150,210,225,,225,560
1,Pascal Lesellier,Masters 3,Raw,SBD,,1961,M,80.7,83,145,,,145,110,,,110,160,,,160,415
1,Quentin Lefebvre,Juniors,Raw,B,,2000,M,100.7,105,,,,,140,155,162.5,162.5,,,,,162.5
1,Thomas Lemarchand,Seniors,Raw,B,,1988,M,66.8,74,,,,,110,120,130,130,,,,,130
1,Besnik Sadriji,Seniors,Raw,B,,1991,M,91.9,93,,,,,125,132.5,-140,132.5,,,,,132.5
1,Emile Tahi,Masters 1,Raw,B,,1979,M,82.8,83,,,,,135,145,150,150,,,,,150
1,Fabien Lambiel,Masters 1,Raw,B,,1974,M,116.2,120,,,,,130,-140,142.5,142.5,,,,,142.5
1,Eric Bar,Masters 2,Raw,B,,1969,M,123.2,120+,,,,,130,140,145,145,,,,,145
1,Jonathan Bar,Seniors,Single-ply,B,,1996,M,67.5,74,,,,,105,-110,-112.5,105,,,,,105
