Division,WeightClassKg,Place,Name,Team,BodyweightKg,Best3SquatKg,Best3BenchKg,Best3DeadliftKg,TotalKg,Equipment,Event,Sex
Girls,44.23,1,Emily Franklin,Shepherd,40.6,83.91,47.63,92.99,224.53,Single-ply,SBD,F
Girls,44.23,2,Kristen Minatrea,Livingston,43.05,74.84,38.56,70.31,183.7,Single-ply,SBD,F
Girls,44.23,3,Lauren Reighard,Splendora,42.68,65.77,31.75,65.77,163.29,Single-ply,SBD,F
Girls,44.23,4,Megan Rappelet,Bridge City,39.15,56.7,31.75,61.23,149.69,Single-ply,SBD,F
Girls,44.23,5,Hadley Rennie,Sweeny,35.7,56.7,31.75,58.97,147.42,Single-ply,SBD,F
Girls,44.23,DQ,Adrienne Calvillo,Freeport Brazosport,42.96,,,,,Single-ply,SBD,F
Girls,47.85,1,Yessenia Mata,Splendora,47.36,115.67,70.31,122.47,308.44,Single-ply,SBD,F
Girls,47.85,2,Kyndall Moffett,Livingston,45.99,97.52,56.7,108.86,263.08,Single-ply,SBD,F
Girls,47.85,3,Alaina Whitworth,Splendora,46.49,102.06,45.36,90.72,238.14,Single-ply,SBD,F
Girls,47.85,4,Shaylin McCoy,Sour Lake Hardin-Jefferson,45.04,83.91,40.82,97.52,222.26,Single-ply,SBD,F
Girls,47.85,5,Josie Watts,Bridge City,46.86,74.84,34.02,90.72,199.58,Single-ply,SBD,F
Girls,47.85,6,Abigale Riggs,Splendora,45.9,72.57,34.02,74.84,181.44,Single-ply,SBD,F
Girls,47.85,DQ,Xandria Garcia,Bay City,46.36,97.52,45.36,,,Single-ply,SBD,F
Girls,47.85,DQ,Madisyn Marbury,Livingston,45.81,,,,,Single-ply,SBD,F
Girls,47.85,DQ,Mia Hamlin,Wharton,46.4,,,,,Single-ply,SBD,F
Girls,51.94,1,Destanee Maurer,Sweeny,50.39,115.67,63.5,120.2,299.37,Single-ply,SBD,F
Girls,51.94,2,Madison Williams,Cleveland Tarkington,48.49,120.2,56.7,117.93,294.84,Single-ply,SBD,F
Girls,51.94,3,Hannah Alexander #1,Lumberton,50.03,106.59,70.31,113.4,290.3,Single-ply,SBD,F
Girls,51.94,4,Erin Blazek,Splendora,47.94,90.72,65.77,99.79,256.28,Single-ply,SBD,F
Girls,51.94,5,Sarahi Rodriguez,Splendora,50.35,97.52,43.09,113.4,254.01,Single-ply,SBD,F
Girls,51.94,6,Alexis Ehrlich,Shepherd,49.94,102.06,52.16,88.45,242.67,Single-ply,SBD,F
Girls,51.94,7,Trista Maxey,Sour Lake Hardin-Jefferson,49.76,97.52,43.09,83.91,224.53,Single-ply,SBD,F
Girls,51.94,8,Shelbie Ferguson,Shepherd,49.8,72.57,52.16,97.52,222.26,Single-ply,SBD,F
Girls,51.94,9,Victoria Cash,Sour Lake Hardin-Jefferson,51.21,79.38,40.82,95.25,215.46,Single-ply,SBD,F
Girls,51.94,DQ,Chandria Ivory,Livingston,51.48,83.91,40.82,,,Single-ply,SBD,F
Girls,51.94,DQ,Bret King #1,Hamshire-Fannett,48.85,115.67,,,,Single-ply,SBD,F
Girls,51.94,DQ,Kaylie Sorrel,Bay City,49.21,,,,,Single-ply,SBD,F
Girls,56.02,1,Scout Bebee,Silsbee,53.75,129.27,65.77,142.88,337.93,Single-ply,SBD,F
Girls,56.02,2,Ava Higginbothom,Splendora,52.12,120.2,68.04,136.08,324.32,Single-ply,SBD,F
Girls,56.02,3,Madalyn Hollingsworth,Cleveland Tarkington,53.75,104.33,61.23,129.27,294.84,Single-ply,SBD,F
Girls,56.02,4,Brisa Carmona,Splendora,52.16,102.06,47.63,102.06,251.74,Single-ply,SBD,F
Girls,56.02,5,Sharla Ruiz,Shepherd,54.16,92.99,52.16,102.06,247.21,Single-ply,SBD,F
Girls,56.02,6,Rebecca Plante,West Columbia,54.57,83.91,52.16,106.59,242.67,Single-ply,SBD,F
Girls,56.02,7,Angela Cristello,Shepherd,53.75,83.91,58.97,90.72,233.6,Single-ply,SBD,F
Girls,56.02,8,Isabella Lopez,Sour Lake Hardin-Jefferson,53.89,83.91,40.82,108.86,233.6,Single-ply,SBD,F
Girls,56.02,DQ,Halie Chaney,Splendora,52.89,,,,,Single-ply,SBD,F
Girls,56.02,DQ,Fernanda Galvez,Splendora,52.16,104.33,49.9,,,Single-ply,SBD,F
Girls,56.02,DQ,Raymunda Cobarrubias,Splendora,53.98,,,,,Single-ply,SBD,F
Girls,56.02,DQ,Lark Walker,Liberty,52.62,117.93,54.43,,,Single-ply,SBD,F
Girls,60.1,1,Harmony Hysten,Sweeny,59.28,124.74,74.84,122.47,322.05,Single-ply,SBD,F
Girls,60.1,2,Hannah Blanchard,Splendora,56.79,124.74,79.38,106.59,310.71,Single-ply,SBD,F
Girls,60.1,3,Morgan Adkison,Splendora,56.56,120.2,61.23,122.47,303.91,Single-ply,SBD,F
Girls,60.1,4,Raylie Pagan,Splendora,56.38,111.13,61.23,120.2,292.57,Single-ply,SBD,F
Girls,60.1,5,Sadie Stone,Bridge City,56.7,117.93,54.43,120.2,292.57,Single-ply,SBD,F
Girls,60.1,6,Tori Rash,Needville,57.97,124.74,52.16,106.59,283.5,Single-ply,SBD,F
Girls,60.1,7,Gia Wilson,Splendora,58.47,108.86,65.77,106.59,281.23,Single-ply,SBD,F
Girls,60.1,8,Serenity Whitworth,Splendora,56.88,97.52,58.97,108.86,265.35,Single-ply,SBD,F
Girls,60.1,9,Abby Allen,Needville,57.61,92.99,49.9,99.79,242.67,Single-ply,SBD,F
Girls,60.1,DQ,Riley Huff,Lumberton,58.11,104.33,,,,Single-ply,SBD,F
Girls,60.1,DQ,Maria Gutierrez,Livingston,58.11,97.52,,,,Single-ply,SBD,F
Girls,60.1,DQ,Kaylene Gaviria,Splendora,56.97,97.52,,,,Single-ply,SBD,F
Girls,67.36,1,Erieanna Lopez,Shepherd,63.37,161.03,97.52,181.44,439.98,Single-ply,SBD,F
Girls,67.36,2,Victoria Pena,Splendora,65,158.76,77.11,158.76,394.63,Single-ply,SBD,F
Girls,67.36,3,Anna Green,Sweeny,65.14,117.93,74.84,147.42,340.19,Single-ply,SBD,F
Girls,67.36,4,Alissa Cassell,Splendora,63.55,115.67,63.5,124.74,303.91,Single-ply,SBD,F
Girls,67.36,5,McKinzy Franklin,Shepherd,65.45,113.4,63.5,113.4,290.3,Single-ply,SBD,F
Girls,67.36,6,Launa Sanders,West Columbia,65.59,102.06,56.7,129.27,288.03,Single-ply,SBD,F
Girls,67.36,7,Cameron Baker #1,Cleveland Tarkington,63,102.06,56.7,111.13,269.89,Single-ply,SBD,F
Girls,67.36,8,Lucero Villafana,Splendora,61.69,92.99,56.7,117.93,267.62,Single-ply,SBD,F
Girls,67.36,9,Hannah Kincannon,Bridge City,63.09,90.72,49.9,106.59,247.21,Single-ply,SBD,F
Girls,67.36,DQ,Arimoney McQuirter,Liberty,63.91,,,,,Single-ply,SBD,F
Girls,67.36,DQ,Allie Botello,Livingston,65.95,,,,,Single-ply,SBD,F
Girls,67.36,DQ,Nicole Nelson,Shepherd,61.05,,,,,Single-ply,SBD,F
Girls,75.07,1,Lacey Pender,Bridge City,67.72,158.76,68.04,151.95,378.75,Single-ply,SBD,F
Girls,75.07,2,Sarah Trujillo,Splendora,67.9,136.08,72.57,147.42,356.07,Single-ply,SBD,F
Girls,75.07,3,Leah Hensarling,Splendora,73.66,140.61,77.11,133.81,351.53,Single-ply,SBD,F
Girls,75.07,4,Maighan Beck,Shepherd,67.63,147.42,77.11,124.74,349.27,Single-ply,SBD,F
Girls,75.07,5,Alliyah Galvez,Bay City,73.3,142.88,77.11,117.93,337.93,Single-ply,SBD,F
Girls,75.07,6,Shelby Dean,Shepherd,70.17,122.47,61.23,136.08,319.78,Single-ply,SBD,F
Girls,75.07,7,Lizbeth Amezquita,Bay City,69.58,133.81,65.77,117.93,317.51,Single-ply,SBD,F
Girls,75.07,8,Ariana Williams,Sweeny,68.63,120.2,68.04,120.2,308.44,Single-ply,SBD,F
Girls,75.07,9,Cora Sievertson,Shepherd,71.35,124.74,61.23,108.86,294.84,Single-ply,SBD,F
Girls,75.07,10,Lisbeth Manzano,Splendora,69.26,106.59,54.43,111.13,272.16,Single-ply,SBD,F
Girls,75.07,DQ,Chloe Monreal,Livingston,72.44,,,,,Single-ply,SBD,F
Girls,75.07,DQ,Shelby Jefferson,West Orange-Stark,69.81,,,,,Single-ply,SBD,F
Girls,82.33,1,Megan Sheehan,Lumberton,76.07,161.03,74.84,136.08,371.95,Single-ply,SBD,F
Girls,82.33,2,Gracie Groh,Splendora,78.7,145.15,92.99,129.27,367.41,Single-ply,SBD,F
Girls,82.33,3,Kylie Jones,Splendora,78.02,149.69,77.11,129.27,356.07,Single-ply,SBD,F
Girls,82.33,4,Makenzie Keel,Splendora,78.29,136.08,72.57,136.08,344.73,Single-ply,SBD,F
Girls,82.33,5,Sarah Briggs,Sweeny,75.39,129.27,72.57,127.01,328.85,Single-ply,SBD,F
Girls,82.33,6,Hailey Santimauro,Sweeny,75.21,131.54,70.31,124.74,326.59,Single-ply,SBD,F
Girls,82.33,7,Rosa Marroquin,Needville,78.97,129.27,65.77,122.47,317.51,Single-ply,SBD,F
Girls,82.33,8,Sarah Bates,Orange Little Cypress-Mauriceville,79.02,124.74,72.57,115.67,312.98,Single-ply,SBD,F
Girls,82.33,9,Allie Bumpurs,Splendora,77.02,113.4,52.16,124.74,290.3,Single-ply,SBD,F
Girls,82.33,DQ,Marlinda Dunham,Livingston,77.61,,,,,Single-ply,SBD,F
Girls,82.33,DQ,Bailey Barrett #1,Livingston,76.84,,,,,Single-ply,SBD,F
Girls,82.33,DQ,Kaylee Sims,Hamshire-Fannett,79.15,133.81,68.04,,,Single-ply,SBD,F
Girls,90.04,1,Lorelei Irby,Sweeny,88.13,176.9,92.99,151.95,421.84,Single-ply,SBD,F
Girls,90.04,2,Racheal Brown,West Columbia,87.14,147.42,74.84,151.95,374.21,Single-ply,SBD,F
Girls,90.04,3,Nubia Rodriguez,Liberty,85.5,161.03,72.57,133.81,367.41,Single-ply,SBD,F
Girls,90.04,4,Alexxus Cole,Stafford,82.46,127.01,52.16,140.61,319.78,Single-ply,SBD,F
Girls,90.04,5,Katlyne Pollard,Shepherd,86.55,136.08,65.77,117.93,319.78,Single-ply,SBD,F
Girls,90.04,6,Kayla Hays,Splendora,87.82,124.74,72.57,113.4,310.71,Single-ply,SBD,F
Girls,90.04,7,Jadyn Cunningham,Bridge City,83.1,115.67,65.77,115.67,297.1,Single-ply,SBD,F
Girls,90.04,8,Camren Miller,Freeport Brazosport,89.13,104.33,54.43,115.67,274.42,Single-ply,SBD,F
Girls,90.04,9,Shelby Kaack,Needville,85.46,108.86,58.97,92.99,260.82,Single-ply,SBD,F
Girls,90.04,DQ,Hope Anderson,Cleveland Tarkington,86.95,,,,,Single-ply,SBD,F
Girls,90.04,DQ,Kaylin Davalos,Livingston,85.64,,,,,Single-ply,SBD,F
Girls,90.04,DQ,Alyssa Daniels,Splendora,87,,,,,Single-ply,SBD,F
Girls,90.04,DQ,Alyssa Buentello,Sweeny,82.6,97.52,63.5,,,Single-ply,SBD,F
Girls,100.02,1,Lataevia Thomas,Freeport Brazosport,95.35,163.29,90.72,167.83,421.84,Single-ply,SBD,F
Girls,100.02,2,Trinity Boatright,Shepherd,92.08,136.08,83.91,142.88,362.87,Single-ply,SBD,F
Girls,100.02,3,Chloe LeJeune,Bridge City,96.21,136.08,65.77,147.42,349.27,Single-ply,SBD,F
Girls,100.02,4,Madison Eason,Splendora,90.36,131.54,70.31,140.61,342.46,Single-ply,SBD,F
Girls,100.02,5,Alissa White,Lumberton,95.8,120.2,74.84,120.2,315.25,Single-ply,SBD,F
Girls,100.02,6,Chaley Cleckley,Sour Lake Hardin-Jefferson,95.44,129.27,58.97,113.4,301.64,Single-ply,SBD,F
Girls,100.02,7,Tyra Patterson,Sweeny,94.17,120.2,72.57,99.79,292.57,Single-ply,SBD,F
Girls,100.02,DQ,Chesney Payne,Livingston,90.85,,,,,Single-ply,SBD,F
Girls,100.02,DQ,Payton Olivier,La Marque,97.34,117.93,58.97,,,Single-ply,SBD,F
Girls,100.02,DQ,Cami Clark,Shepherd,90.26,,,,,Single-ply,SBD,F
Girls,100.02,DQ,Madison Roman,Sweeny,92.4,102.06,,,,Single-ply,SBD,F
Girls,100.02,DQ,Asianna Stewart,Sweeny,95.71,,,,,Single-ply,SBD,F
Girls,117.71,1,Hannah McCullough,Sour Lake Hardin-Jefferson,112.85,185.97,104.33,156.49,446.79,Single-ply,SBD,F
Girls,117.71,2,Savannah Davey,Needville,102.15,174.63,86.18,129.27,390.09,Single-ply,SBD,F
Girls,117.71,3,Madison Mirelez,Bay City,112.94,147.42,79.38,136.08,362.87,Single-ply,SBD,F
Girls,117.71,4,Ashlyn Moore,Sweeny,111.31,131.54,74.84,129.27,335.66,Single-ply,SBD,F
Girls,117.71,5,Lauryn Fisher,West Columbia,108.14,92.99,77.11,124.74,294.84,Single-ply,SBD,F
Girls,117.71,6,Danielle Oldham,Livingston,112.13,124.74,52.16,115.67,292.57,Single-ply,SBD,F
Girls,117.71,7,Tarah Boone,Needville,100.97,111.13,56.7,102.06,269.89,Single-ply,SBD,F
Girls,117.71,8,Thalia Pina,Freeport Brazosport,100.24,70.31,43.09,127.01,240.4,Single-ply,SBD,F
Girls,117.71,DQ,Jazmine Strother,Silsbee,105.6,,,,,Single-ply,SBD,F
Girls,117.71,DQ,Haven Meyers,Splendora,100.7,,,,,Single-ply,SBD,F
Girls,117.71+,1,Kenya Jeffcoat,Shepherd,121.11,185.97,106.59,131.54,424.11,Single-ply,SBD,F
Girls,117.71+,2,Nortazia McGhee,West Orange-Stark,125.1,92.99,49.9,133.81,276.69,Single-ply,SBD,F
Girls,117.71+,3,Jacqueline Sells,Silsbee,129.91,54.43,81.65,138.35,274.42,Single-ply,SBD,F
Girls,117.71+,4,Starr Lee,Hamshire-Fannett,132.9,117.93,49.9,99.79,267.62,Single-ply,SBD,F
Girls,117.71+,5,T'Shyia Evans,Silsbee,138.53,79.38,61.23,124.74,265.35,Single-ply,SBD,F
Girls,117.71+,DQ,Kambrie Michie,Freeport Brazosport,117.75,,,,,Single-ply,SBD,F
