Place,Tested,Equipment,Event,WeightClassKg,Sex,Name,Division,BirthYear,Age,BodyweightKg,Country,Squat1Kg,Squat2Kg,Squat3Kg,Squat4Kg,Best3SquatKg,Bench1Kg,Bench2Kg,Bench3Kg,Bench4Kg,Best3BenchKg,Deadlift1Kg,Deadlift2Kg,Deadlift3Kg,Deadlift4Kg,Best3DeadliftKg,TotalKg
1,Yes,Raw,SBD,52,F,Darya Khorkova,Juniors 20-23,1996,21,49.6,Russia,-60,60,,,60,40,-45,-45,,40,80,95,-105,,95,195
1,Yes,Raw,SBD,52,F,Irina Zemtsova,Open,1981,35,49.7,Russia,95,97.5,100,,100,50,52.5,-55,,52.5,102.5,107.5,112.5,,112.5,265
2,Yes,Raw,SBD,52,F,Veronika Tyuleneva,Open,1992,24,52,Russia,82.5,87.5,92.5,,92.5,57.5,-62.5,-62.5,,57.5,105,110,112.5,,112.5,262.5
DQ,Yes,Raw,SBD,56,F,Irina Yakovenko,Juniors 20-23,1994,23,55.6,Russia,-105,-105,-105,,,,,,,,,,,,,
1,Yes,Raw,SBD,56,F,Alesya Goncharova,Open,1992,25,56,Russia,85,90,-92.5,,90,37.5,-40,-40,,37.5,105,110,-115,,110,237.5
DQ,Yes,Raw,SBD,67.5,F,Valeriya Sukhovetskaya,Open,1988,29,65.1,Russia,-90,-107.5,110,,110,-65,-65,-65,,,,,,,,
1,Yes,Raw,SBD,75,F,Anastasiya Pykhova,Open,1989,28,73.7,Russia,110,120,125,,125,72.5,75,-77.5,,75,-160,165,-170,,165,365
DQ,Yes,Raw,SBD,60,M,Sergey Luchinsky,Open,1987,30,59.8,Russia,-160,-160,-160,,,,,,,,,,,,,
1,Yes,Raw,SBD,67.5,M,Roman Rochev,Juniors 20-23,1993,23,65.8,Russia,120,135,140,,140,110,-120,-125,,110,120,130,142.5,,142.5,392.5
1,Yes,Raw,SBD,67.5,M,Roman Rochev,Open,1993,23,65.8,Russia,120,135,140,,140,110,-120,-125,,110,120,130,142.5,,142.5,392.5
DQ,Yes,Raw,SBD,67.5,M,Ruslan Kayumov,Open,1993,24,64.9,Russia,-155,-155,-155,,,,,,,,,,,,,
1,Yes,Raw,SBD,75,M,Kirill Shakhov,Juniors 20-23,1994,23,74.5,Russia,135,145,152.5,,152.5,120,130,135,,135,180,192.5,-207.5,,192.5,480
1,Yes,Raw,SBD,75,M,Yevgeniy Karpov,Open,1979,38,70.2,Russia,175,180,-185,,180,130,135,-137.5,,135,175,185,190,,190,505
1,Yes,Raw,SBD,82.5,M,Danil Pustovoy,Teen 13-15,2003,14,80.7,Russia,-105,115,-125,,115,70,-80,-80,,70,130,137.5,-142.5,,137.5,322.5
DQ,Yes,Raw,SBD,82.5,M,Mehmet Sari,Teen 16-17,2001,16,81.5,Turkey,140,-150,155,,155,85,-95,95,,95,-195,-195,-195,,,
1,Yes,Raw,SBD,82.5,M,Ivan Pustovalov,Open,1987,30,80.3,Russia,180,190,205,,205,120,130,-140,,130,225,235,-250,,235,570
1,Yes,Raw,SBD,90,M,Murat Sener-Yuksel,Juniors 20-23,1996,21,87.1,Turkey,170,180,-190,,180,145,-155,-155,,145,220,-230,-230,,220,545
1,Yes,Raw,SBD,90,M,Aleksey Sheykin,Open,1988,29,89,Belarus,230,240,-275,,240,175,180,-185,,180,280,295,302.5,,302.5,722.5
2,Yes,Raw,SBD,90,M,Aleksandr Levin,Open,1989,28,87.5,Russia,195,202.5,-207.5,,202.5,130,135,-137.5,,135,235,-250,-250,,235,572.5
1,Yes,Raw,SBD,100,M,Zakir Omarov,Teen 18-19,1998,19,97.8,Russia,-135,140,145,,145,90,95,-100,,95,145,155,160,,160,400
1,Yes,Raw,SBD,100,M,Boris Duma,Open,1987,29,97.1,Russia,-120,130,140,,140,80,95,-102.5,,95,150,180,200,,200,435
2,Yes,Raw,SBD,100,M,Yevgeniy Galiullin,Open,1978,38,98.9,Russia,-160,165,170,,170,100,105,-110,,105,-160,-160,160,,160,435
DQ,Yes,Raw,SBD,100,M,Aleksey Mizin,Open,1980,37,97.1,Russia,140,-155,-165,,140,-95,-105,-105,,,,,,,,
1,Yes,Raw,SBD,100,M,Yevgeniy Galiullin,Submasters 35-39,1978,38,98.9,Russia,-160,165,170,,170,100,105,-110,,105,-160,-160,160,,160,435
1,Yes,Raw,SBD,110,M,Talna Cetin,Teen 18-19,1997,19,102.7,Turkey,-220,230,250,,250,175,-185,-185,,175,280,300,-310,,300,725
DQ,Yes,Raw,SBD,110,M,Roman Klimov,Open,1981,35,107,Russia,-230,-230,230,,230,-160,-160,-160,,,,,,,,
1,Yes,Raw,SBD,140+,M,Gurhan Gurler,Open,1983,34,150,Turkey,270,290,310,,310,200,220,235,,235,270,-290,290,,290,835
1,Yes,Raw,S,56,F,Galina Myakisheva,Open,1983,34,56,Russia,-95,95,-105,,95,,,,,,,,,,,95
1,Yes,Raw,S,67.5,M,Yevgeniy Bayborodin,Open,1987,30,64.3,Russia,140,150,155,,155,,,,,,,,,,,155
1,No,Raw,SBD,82.5,M,Dmitriy Boboyev,Teen 18-19,1999,18,81.6,Russia,165,170,177.5,,177.5,112.5,115,-117.5,,115,180,185,190,,190,482.5
1,No,Raw,SBD,82.5,M,Igor Tomson,Open,1981,36,82.4,Estonia,200,210,-217.5,,210,145,-152.5,,,145,245,255,-265,,255,610
1,No,Raw,SBD,82.5,M,Tarun Dutta,Masters 40-44,1977,40,81.6,India,100,150,-175,,150,100,110,115,,115,-120,-180,180,,180,445
1,No,Raw,SBD,90,M,Sergey Onishchenko,Juniors 20-23,1994,22,86.7,Russia,210,220,-230,,220,125,132.5,137.5,,137.5,230,240,250,,250,607.5
2,No,Raw,SBD,90,M,Balraj Balayan,Open,1979,38,89.1,India,160,190,205,,205,110,125,135,,135,160,180,200,,200,540
1,No,Raw,SBD,100,M,Nikolay Balyuk,Teen 18-19,1997,19,97.3,Russia,-170,175,185,,185,135,145,-150,,145,180,205,225,,225,555
1,No,Raw,SBD,100,M,Saul Salazar,Open,1964,53,96.5,Colombia,200,215,225,,225,130,140,147.5,,147.5,230,255,-260,,255,627.5
1,No,Raw,SBD,100,M,Denis Podvizhnoy,Masters 40-44,1977,40,97,Russia,215,225,,,225,170,180,185,,185,260,280,-290,,280,690
2,No,Raw,SBD,100,M,Mikhail Tikhomirov,Masters 40-44,1974,43,98.7,Russia,200,-215,215,,215,-135,135,-150,,135,225,240,255,,255,605
1,No,Raw,SBD,100,M,Saul Salazar,Masters 50-54,1964,53,96.5,Colombia,200,215,225,,225,130,140,147.5,,147.5,230,255,-260,,255,627.5
1,No,Raw,SBD,110,M,Ivan Pezikov,Juniors 20-23,1994,23,103.5,Russia,260,272.5,-282.5,,272.5,162.5,170,175,,175,275,287.5,300,-320.5,300,747.5
1,No,Raw,SBD,125,M,Sergey Luchenkov,Open,1977,40,125,Russia,-260,260,280,,280,180,200,210,,210,300,320,330,,330,820
1,No,Raw,SBD,140,M,Mohamed Bouafia,Open,1976,40,128.7,Algeria,-340,340,380,,380,200,210,-222.5,,210,330,350,-370,,350,940
1,No,Raw,SBD,140,M,Mohamed Bouafia,Masters 40-44,1976,40,128.7,Algeria,-340,340,380,,380,200,210,-222.5,,210,330,350,-370,,350,940
1,No,Raw,S,82.5,M,Chaman Gaur,Open,1990,27,81.9,India,100,130,-150,,130,,,,,,,,,,,130
2,No,Raw,S,82.5,M,Sunil Lochab,Open,1979,38,79.4,India,80,90,100,,100,,,,,,,,,,,100
DQ,No,Raw,S,82.5,M,Sonu Rajput,Open,1984,33,80.4,India,-100,-100,-100,,,,,,,,,,,,,
2,No,Raw,S,90,M,Saksham Yadav,Open,1993,24,83.5,India,100,120,140,,140,,,,,,,,,,,140
1,No,Raw,S,110,M,Vikrant Vohra,Open,1978,39,106.9,India,60,-70,-75,,60,,,,,,,,,,,60
DQ,Yes,Wraps,SBD,48,F,Natalya Kuznetsova,Open,1976,41,44.7,Russia,-95,-97.5,-97.5,,,,,,,,,,,,,
1,Yes,Wraps,SBD,56,F,Natalya Konchakova,Open,1977,40,52.5,Russia,132.5,140,-145,,140,62.5,65,-67.5,,65,145,152.5,-160,,152.5,357.5
1,Yes,Wraps,SBD,67.5,F,Yelena Kiseleva,Open,1981,35,65.9,Russia,-85,85,90,,90,60,62.5,-65,,62.5,95,100,110,,110,262.5
1,Yes,Wraps,SBD,67.5,F,Mariya Pogorelko,Masters 40-44,1973,44,65.3,Russia,-110,-110,110,,110,55,57.5,60,,60,100,112.5,115,,115,285
1,Yes,Wraps,SBD,75,F,Olga Klimas,Open,1975,42,72.6,Russia,-105,110,120,130,120,52.5,57.5,-60,,57.5,140,150,160,170,160,337.5
1,Yes,Wraps,SBD,60,M,Artem Piven,Teen 16-17,2001,16,59.5,Russia,145,-152.5,-152.5,,145,90,95,-97.5,,95,145,152.5,157.5,,157.5,397.5
1,Yes,Wraps,SBD,67.5,M,Aleksandr Rek,Open,1987,30,66.9,Russia,210,225,230,,230,112.5,120,-122.5,,120,200,212.5,,,212.5,562.5
1,Yes,Wraps,SBD,82.5,M,Grigoriy Yudin,Open,1985,32,81.4,Russia,220,240,-252.5,,240,137.5,145,150,,150,170,185,-202.5,,185,575
1,Yes,Wraps,SBD,90,M,Oleg Berezhnoy,Teen 18-19,1998,19,87.5,Russia,120,140,-150,,140,-90,-90,90,,90,130,150,-160,,150,380
1,Yes,Wraps,SBD,90,M,Artem Riznik,Juniors 20-23,1994,23,87.3,Russia,220,237.5,250,,250,155,162.5,170,,170,210,225,-235,,225,645
DQ,Yes,Wraps,SBD,90,M,Ilya Salvadov,Juniors 20-23,1996,21,89.2,Russia,-230,230,250,,250,-150,-150,-150,,,,,,,,
1,Yes,Wraps,SBD,90,M,Artem Riznik,Open,1994,23,87.3,Russia,220,237.5,250,,250,155,162.5,170,,170,210,225,-235,,225,645
2,Yes,Wraps,SBD,90,M,Samvel Daniyelyan,Open,1991,26,89.4,Russia,-200,210,222.5,,222.5,135,-142.5,-142.5,,135,-210,210,-220,,210,567.5
DQ,Yes,Wraps,SBD,90,M,Andrey Byzov,Open,1982,35,88.9,Russia,-195,-195,-210,,,,,,,,,,,,,
1,Yes,Wraps,SBD,100,M,Sergey Zelyanin,Open,1987,30,99.3,Belarus,280,-292.5,292.5,,292.5,175,182.5,-187.5,,182.5,270,280,292.5,,292.5,767.5
2,Yes,Wraps,SBD,100,M,Gleb Zubakov,Open,1991,26,95.8,Russia,200,210,-220,,210,130,-140,-140,,130,230,-245,-245,,230,570
1,Yes,Wraps,SBD,110,M,Andrey Imenyev,Open,1989,28,107.9,Russia,230,245,-252.5,,245,172.5,185,-190,,185,-240,240,-255,,240,670
2,Yes,Wraps,SBD,110,M,Mikhail Kulakov,Open,1986,31,106.6,Russia,-135,135,137.5,,137.5,72.5,-75,-75,,72.5,152.5,155,157.5,,157.5,367.5
1,Yes,Wraps,SBD,125,M,Igor Zaychuk,Open,1989,27,114.4,Ukraine,265,277.5,285,,285,-195,-195,195,,195,290,310,-312.5,,310,790
DQ,Yes,Wraps,SBD,125,M,Grigoriy Barannik,Open,1990,27,124.7,Ukraine,235,-255,-255,,235,-155,-155,-155,,,255,275,,,275,
1,Yes,Wraps,SBD,140,M,Sajad Naghneh,Teen 16-17,2000,17,133,Iran,-200,200,220,,220,100,115,122.5,,122.5,-190,200,-210,,200,542.5
1,Yes,Wraps,S,52,F,Anna Postrigan,Open,1986,31,51.3,Russia,90,-105,-105,,90,,,,,,,,,,,90
1,Yes,Wraps,S,90,M,Ivan Kiselev,Masters 55-59,1961,56,87,Russia,-160,160,170,,170,,,,,,,,,,,170
1,Yes,Wraps,S,100,M,Sharahi Yasavoli,Masters 50-54,1967,50,97.3,Iran,-220,220,,,220,,,,,,,,,,,220
1,Yes,Wraps,S,110,M,Vitaliy Komarchuk,Open,1977,40,102.7,Russia,230,250,-260,,250,,,,,,,,,,,250
1,Yes,Wraps,S,110,M,Vitaliy Komarchuk,Masters 40-44,1977,40,102.7,Russia,230,250,-260,,250,,,,,,,,,,,250
1,No,Wraps,SBD,60,F,Caterine González,Juniors 20-23,1997,20,59.5,Colombia,170,180,-190,,180,90,97.5,100,,100,180,200,-207.5,,200,480
1,No,Wraps,SBD,60,F,Caterine González,Open,1997,20,59.5,Colombia,170,180,-190,,180,90,97.5,100,,100,180,200,-207.5,,200,480
1,No,Wraps,SBD,75,M,Aleksandr Tyugay,Masters 50-54,1966,51,74.3,Kazakhstan,190,201,207.5,,207.5,123.5,132.5,-141,,132.5,170,190,,,190,530
1,No,Wraps,SBD,82.5,M,Sergey Smirnov,Open,1988,29,82.3,Russia,270,280,-290,,280,170,-180,-180,,170,-280,-280,280,,280,730
1,No,Wraps,SBD,90,M,Vitaliy Nikolaev,Open,1982,35,88.8,Russia,280,-300,-310,,280,200,210,220,-225.5,220,290,305,315,-320,315,815
2,No,Wraps,SBD,90,M,Nacim Ighalloune,Open,1993,24,86.9,Algeria,225,240,250,,250,145,155,160,,160,235,245,250,,250,660
3,No,Wraps,SBD,90,M,Aleksandr Bazylev,Open,1980,37,88.8,Russia,145,-155,160,,160,105,115,117.5,,117.5,170,180,190,,190,467.5
1,No,Wraps,SBD,90,M,Igor Lipnik,Masters 40-44,1974,43,89.9,Russia,180,195,205,,205,140,150,160,,160,210,230,240,,240,605
2,No,Wraps,SBD,90,M,Dmitriy Gorelikov,Masters 45-49,1968,49,88.7,Russia,210,-222.5,-222.5,,210,110,117.5,120,,120,235,242.5,256,,256,586
3,No,Wraps,SBD,90,M,Damir Tulybayev,Masters 40-44,1974,43,88.7,Russia,180,200,-210,,200,130,140,145,,145,210,230,-242.5,,230,575
1,No,Wraps,SBD,100,M,Aleksandr Burin,Juniors 20-23,1994,23,97.6,Belarus,-240,240,-255,,240,175,182.5,185,,185,255,-265,,,255,680
1,No,Wraps,SBD,110,M,Sergey Mishchenko,Open,1988,29,107.1,Ukraine,270,-302.5,-302.5,,270,150,160,-170,,160,270,280,-290,,280,710
1,No,Wraps,SBD,125,M,Roman Demin,Open,1980,37,115.9,Russia,300,315,325,,325,185,195,205,,205,310,332.5,345,,345,875
1,No,Wraps,SBD,140,M,Sergey Odegov,Open,1976,41,137.3,Russia,-330,350,-365,,350,215,-225,225,,225,335,355,-371,,355,930
1,No,Wraps,S,82.5,M,Igor Tomson,Open,1981,36,82.4,Estonia,230,-250,,,230,,,,,,,,,,,230
1,No,Wraps,S,90,M,Aleksey Markin,Open,1986,31,89.3,Russia,-270,-280,280,,280,,,,,,,,,,,280
1,No,Wraps,S,100,M,Mohit Nagpal,Open,1986,31,90.9,India,-180,180,-210,,180,,,,,,,,,,,180
1,No,Wraps,S,125,M,Roman Bazuyev,Open,1983,34,115.2,Russia,-280,280,-290,,280,,,,,,,,,,,280
1,No,Wraps,S,125,M,Aleksandr Bereznikov,Masters 50-54,1964,53,114.6,Russia,215,225,-235,,225,,,,,,,,,,,225
1,Yes,Single-ply,SBD,90,M,Sergey Polyakov,Masters 45-49,1972,45,88.7,Russia,180,200,210,,210,140,-150,-150,,140,180,200,-210,,200,550
1,No,Single-ply,SBD,67.5,F,Darya Chernyak,Juniors 20-23,1996,21,65,Russia,200,,,,200,82.5,92.5,97.5,,97.5,155,170,180,,180,477.5
1,No,Single-ply,SBD,140,M,Aleksandr Lugovoy,Juniors 20-23,1995,22,131.3,Russia,360,-385,385,,385,280,300,310,,310,350,370,-382.5,,370,1065
DQ,Yes,Multi-ply,SBD,90,M,Anatoliy Kirillov,Open,1981,36,86.6,Russia,160,175,-185,,175,-150,-150,-150,,,,,,,,
1,Yes,Multi-ply,SBD,100,M,Aleksandr Kosarev-Volodko,Masters 40-44,1974,43,98.2,Russia,160,170,-180,,170,140,150,-160,,150,160,175,200,,200,520
1,Yes,Multi-ply,SBD,100,M,Aleksandr Krovikov,Masters 55-59,1961,56,97.4,Russia,-200,200,220,,220,160,170,-180,,170,200,230,250,,250,640
DQ,Yes,Multi-ply,S,100,M,Sharahi Yasavoli,Masters 50-54,1967,50,97.3,Iran,-270,-270,,,,,,,,,,,,,,
1,Yes,Raw,BD,48,F,Yelena Zemerova,Open,1980,37,47.8,Russia,,,,,,45,-50,-50,,45,122.5,127.5,-132.5,,127.5,172.5
1,Yes,Raw,BD,56,F,Mariya Polivkina,Open,1987,30,55.4,Russia,,,,,,50,-55,-55,,50,-100,100,112.5,,112.5,162.5
1,Yes,Raw,BD,60,M,Sergey Luchinsky,Open,1987,30,59.8,Russia,,,,,,-105,105,-110,,105,160,-177.5,177.5,,177.5,282.5
1,Yes,Raw,BD,75,M,Serdar Tosun,Juniors 20-23,1997,20,70.9,Turkey,,,,,,-125,125,-130,,125,221,-235,235,,235,360
1,Yes,Raw,BD,82.5,M,Igor Pashkov,Open,1986,31,80.8,Russia,,,,,,130,135,-140,,135,230,-235,,,230,365
2,Yes,Raw,BD,125,M,Ivan Regulyarnyy,Open,1984,32,117.4,Russia,,,,,,197.5,-202.5,-202.5,,197.5,280,-295,,,280,477.5
1,No,Raw,BD,82.5,M,Nikita Kharinin,Teen 16-17,2001,16,80.1,Russia,,,,,,107.5,110,-112.5,,110,207.5,215,220,,220,330
1,No,Raw,BD,82.5,M,Sonu Rajput,Open,1984,33,80.4,India,,,,,,100,105,-107.5,,105,150,180,195,,195,300
2,No,Raw,BD,82.5,M,Chaman Gaur,Open,1990,27,81.9,India,,,,,,110,120,125,,125,-160,160,165,,165,290
3,No,Raw,BD,82.5,M,Sunil Lochab,Open,1979,38,79.4,India,,,,,,-80,80,90,,90,100,110,,,110,200
3,No,Raw,BD,90,M,Saksham Yadav,Open,1993,24,83.5,India,,,,,,110,125,130,,130,170,200,210,,210,340
1,No,Raw,BD,100,M,Muhammed Enes Ozkan,Open,1987,30,98,Turkey,,,,,,165,177.5,-182.5,,177.5,280,300,313,-321,313,490.5
2,No,Raw,BD,100,M,Stepan Smirnov,Open,1983,34,96.8,Russia,,,,,,150,160,167.5,,167.5,260,272.5,282.5,,282.5,450
1,No,Raw,BD,110,M,Roman Khomyakov,Juniors 20-23,1993,23,109.5,Russia,,,,,,180,190,-195,,190,270,290,300,,300,490
1,No,Raw,BD,110,M,Aleksey Gruzin,Open,1983,34,106.3,Russia,,,,,,180,190,195,,195,-285,285,300,,300,495
DQ,No,Raw,BD,125,M,Dmitriy Samsonov,Open,1993,24,124.2,Russia,,,,,,-192.5,-192.5,-192.5,,,,,,,,
1,Yes,Raw,B,44,F,Darya Fedoseeva,Teen 16-17,2000,17,44,Russia,,,,,,-62.5,62.5,65,,65,,,,,,65
1,Yes,Raw,B,44,F,Darya Fedoseeva,Open,2000,17,44,Russia,,,,,,-62.5,62.5,65,,65,,,,,,65
1,Yes,Raw,B,52,F,Albina Popkova,Open,1989,28,51.6,Russia,,,,,,70,-72.5,-75,,70,,,,,,70
1,Yes,Raw,B,56,F,Aleksandra Vedeneyeva,Open,1985,32,55.9,Russia,,,,,,-67.5,67.5,72.5,,72.5,,,,,,72.5
2,Yes,Raw,B,56,F,Alena Kalgina,Open,1993,24,54.4,Russia,,,,,,55,62.5,-65,,62.5,,,,,,62.5
3,Yes,Raw,B,56,F,Olga Korobkova,Open,1982,35,55.1,Russia,,,,,,57.5,60,-62.5,,60,,,,,,60
1,Yes,Raw,B,60,F,Nina Yemelyanenko,Open,1986,31,58.3,Russia,,,,,,47.5,-52.5,-52.5,,47.5,,,,,,47.5
1,Yes,Raw,B,60,F,Olga Sidorova,Masters 50-54,1966,51,59.3,Russia,,,,,,55,60,-62.5,,60,,,,,,60
1,Yes,Raw,B,67.5,F,Mariya Krivoruchenko,Juniors 20-23,1997,20,63.7,Russia,,,,,,65,70,75,,75,,,,,,75
1,Yes,Raw,B,67.5,F,Svetlana Grigoryeva,Open,1982,35,64.4,Russia,,,,,,75,80,-82.5,,80,,,,,,80
2,Yes,Raw,B,67.5,F,Natalya Mukhomor,Open,1985,32,62.7,Russia,,,,,,-60,62.5,65,,65,,,,,,65
3,Yes,Raw,B,67.5,F,Yekaterina Stepanova,Open,1988,29,65.5,Russia,,,,,,-57.5,-57.5,57.5,,57.5,,,,,,57.5
1,Yes,Raw,B,75,F,Yelena Yakovleva,Open,1991,26,73.4,Russia,,,,,,-62.5,62.5,-65,,62.5,,,,,,62.5
1,Yes,Raw,B,52,M,Kirill Bondarev,Teen 13-15,2004,13,51,Russia,,,,,,57.5,62.5,-65,,62.5,,,,,,62.5
1,Yes,Raw,B,52,M,Kirill Bondarev,Open,2004,13,51,Russia,,,,,,57.5,62.5,-65,,62.5,,,,,,62.5
1,Yes,Raw,B,67.5,M,Özgün Gümrük,Open,1988,29,66,Turkey,,,,,,115,120,125,,125,,,,,,125
2,Yes,Raw,B,67.5,M,Ruslan Kayumov,Open,1993,24,64.9,Russia,,,,,,107.5,115,-125,,115,,,,,,115
1,Yes,Raw,B,75,M,Sergey Salosalov,Teen 13-15,2004,13,68.5,Russia,,,,,,97.5,-102.5,-102.5,,97.5,,,,,,97.5
2,Yes,Raw,B,75,M,Aleksandr Chirkov,Juniors 20-23,1995,22,73,Russia,,,,,,125,127.5,,,127.5,,,,,,127.5
1,Yes,Raw,B,75,M,Timofey Patrikeyev,Open,1982,35,73.8,Russia,,,,,,125,-130,,,125,,,,,,125
DQ,Yes,Raw,B,75,M,Artem Suntsov,Open,1991,25,74,Russia,,,,,,-135,-135,-135,,,,,,,,
1,Yes,Raw,B,75,M,Sergey Sidorovskiy,Masters 45-49,1971,46,74.5,Russia,,,,,,127.5,132.5,-135,,132.5,,,,,,132.5
DQ,Yes,Raw,B,82.5,M,Sergey Ishin,Juniors 20-23,1994,23,80.3,Russia,,,,,,-135,-135,-145,,,,,,,,
1,Yes,Raw,B,82.5,M,Ilya Pankratov,Open,1986,30,82.5,Russia,,,,,,195,-200,-200,,195,,,,,,195
2,Yes,Raw,B,82.5,M,Mikhail Barilko,Open,1987,30,82.3,Russia,,,,,,162.5,170,-172.5,,170,,,,,,170
3,Yes,Raw,B,82.5,M,Vladislav Krasnov,Open,1989,28,80.6,Russia,,,,,,135,-145,-145,,135,,,,,,135
1,Yes,Raw,B,82.5,M,Ghassem Ghorbanizadeh,Masters 40-44,1975,42,79.5,Iran,,,,,,90,110,-120,,110,,,,,,110
1,Yes,Raw,B,90,M,Aleksandr Mukhin,Juniors 20-23,1996,21,86.8,Russia,,,,,,160,167.5,-175,,167.5,,,,,,167.5
2,Yes,Raw,B,90,M,Vyacheslav Burmistrov,Juniors 20-23,1995,22,85,Russia,,,,,,120,132.5,137.5,,137.5,,,,,,137.5
1,Yes,Raw,B,90,M,Vasiliy Zharkov,Open,1979,38,89.1,Russia,,,,,,165,170,-175,,170,,,,,,170
2,Yes,Raw,B,90,M,Bogdan Lugovoy,Open,1975,41,88.4,Russia,,,,,,150,162.5,167.5,,167.5,,,,,,167.5
3,Yes,Raw,B,90,M,Hamid Mohmedi-Kartaalaei,Open,1986,31,89.9,Turkey,,,,,,150,-165,-170,,150,,,,,,150
4,Yes,Raw,B,90,M,Aleksey Alferyev,Open,1991,26,87.2,Russia,,,,,,-135,135,-152.5,,135,,,,,,135
DQ,Yes,Raw,B,90,M,Oleg Starostin,Open,1984,33,89.7,Russia,,,,,,-120,-120,-120,,,,,,,,
1,Yes,Raw,B,90,M,Bogdan Lugovoy,Masters 40-44,1975,41,88.4,Russia,,,,,,150,162.5,167.5,,167.5,,,,,,167.5
1,Yes,Raw,B,100,M,Kirill Aksenov,Juniors 20-23,1994,23,97.4,Russia,,,,,,147.5,150,-152.5,,150,,,,,,150
2,Yes,Raw,B,100,M,Roman Legchayev,Juniors 20-23,1995,21,90.4,Russia,,,,,,132.5,-140,-140,,132.5,,,,,,132.5
1,Yes,Raw,B,100,M,Avetik Mardoyan,Open,1992,25,93.9,Russia,,,,,,170,185,195,,195,,,,,,195
2,Yes,Raw,B,100,M,Viktor Borinets,Open,1989,28,93,Ukraine,,,,,,175,182.5,-185,,182.5,,,,,,182.5
3,Yes,Raw,B,100,M,Evren Temel,Open,1982,35,99.1,Turkey,,,,,,175,182.5,-197.5,,182.5,,,,,,182.5
4,Yes,Raw,B,100,M,Sergey Ermolaev,Open,1987,30,93.6,Russia,,,,,,170,180,-185,,180,,,,,,180
1,Yes,Raw,B,100,M,Sergey Veselyev,Masters 40-44,1977,40,93.8,Russia,,,,,,160,165,-167.5,,165,,,,,,165
1,Yes,Raw,B,110,M,Vitaliy Kazak,Teen 16-17,2000,17,106.9,Moldova,,,,,,147.5,155,-157.5,,155,,,,,,155
1,Yes,Raw,B,110,M,Vladislav Makushka,Juniors 20-23,1995,22,108.6,Ukraine,,,,,,190,200,-210,,200,,,,,,200
1,Yes,Raw,B,110,M,Denis Malchikov,Open,1980,37,105.7,Russia,,,,,,215,225,-232.5,,225,,,,,,225
2,Yes,Raw,B,110,M,Andrey Makarkin,Open,1980,37,108.5,Russia,,,,,,192.5,200,-205,,200,,,,,,200
1,Yes,Raw,B,110,M,Esmail Kabiripour,Masters 40-44,1977,40,107.5,Iran,,,,,,-180,-180,180,,180,,,,,,180
1,Yes,Raw,B,110,M,Igor Kurotchenko,Masters 55-59,1962,55,109.5,Russia,,,,,,145,-155,,,145,,,,,,145
3,Yes,Raw,B,125,M,Amir Omid Ali,Open,1980,37,110.1,Iran,,,,,,170,180,-190,,180,,,,,,180
DQ,Yes,Raw,B,125,M,Oktay Akay,Open,1981,36,110.1,Turkey,,,,,,-175,-175,-175,,,,,,,,
1,Yes,Raw,B,140,M,Kaveh Jafari-Beris,Juniors 20-23,1996,21,127.8,Iran,,,,,,90,100,105,,105,,,,,,105
1,Yes,Raw,B,140,M,Ali Mehrabanmarani,Open,1988,29,132,Turkey,,,,,,140,-170,-170,,140,,,,,,140
1,Yes,Raw,B,140,M,Konstantin Bogdanov,Masters 40-44,1976,41,136.1,Russia,,,,,,185,192.5,-197.5,,192.5,,,,,,192.5
2,Yes,Raw,B,140+,M,Sergey Lazarev,Open,1960,57,153.5,Russia,,,,,,145,150,155,,155,,,,,,155
1,Yes,Raw,B,140+,M,Sergey Lazarev,Masters 55-59,1960,57,153.5,Russia,,,,,,145,150,155,,155,,,,,,155
1,No,Raw,B,75,F,Tatyana Rozhdestvenskaya,Open,1982,35,73.9,Russia,,,,,,110,115,117.5,,117.5,,,,,,117.5
1,No,Raw,B,90+,F,Svetlana Poletaeva,Masters 40-44,1977,40,94,Russia,,,,,,80,-87.5,-87.5,,80,,,,,,80
1,No,Raw,B,75,M,Abdullah-Furkan Kaya,Juniors 20-23,1993,23,73,Turkey,,,,,,125,135,-137,,135,,,,,,135
1,No,Raw,B,75,M,Maksim Bogdanov,Open,1992,25,74.3,Russia,,,,,,192.5,-197.5,-197.5,,192.5,,,,,,192.5
1,No,Raw,B,82.5,M,Sergey Tsyupko,Juniors 20-23,1996,21,81,Russia,,,,,,160,165,172.5,,172.5,,,,,,172.5
1,No,Raw,B,82.5,M,Yuriy Knyazev,Open,1983,33,76.8,Russia,,,,,,145,150,155,,155,,,,,,155
2,No,Raw,B,82.5,M,Vladislav Mukhin,Open,1983,34,82.1,Russia,,,,,,150,-160,-165,,150,,,,,,150
1,No,Raw,B,82.5,M,Igor Polivanov,Masters 40-44,1974,42,80.6,Russia,,,,,,155,160,-165,,160,,,,,,160
2,No,Raw,B,90,M,Aleksey Prokudin,Open,1981,36,89.7,Russia,,,,,,-205,205,-222.5,,205,,,,,,205
3,No,Raw,B,90,M,Roman Dagayev,Open,1980,37,89.2,Russia,,,,,,-180,190,-195,,190,,,,,,190
5,No,Raw,B,90,M,Aleksey Zaytsev,Open,1991,26,89.6,Russia,,,,,,160,-170,-170,,160,,,,,,160
1,No,Raw,B,100,M,Eduard Ageyev,Juniors 20-23,1995,22,90.4,Russia,,,,,,200,205,-207.5,,205,,,,,,205
2,No,Raw,B,100,M,Stanislav Levashov,Juniors 20-23,1997,20,97.7,Russia,,,,,,185,200,-215,,200,,,,,,200
1,No,Raw,B,100,M,Aleksey Shishimin,Open,1989,28,98.3,Russia,,,,,,220,-230,-235,,220,,,,,,220
2,No,Raw,B,100,M,Andrey Volodchenkov,Open,1981,36,94.5,Russia,,,,,,180,190,-200,,190,,,,,,190
3,No,Raw,B,100,M,Mohit Nagpal,Open,1986,31,90.9,India,,,,,,-160,160,-170,,160,,,,,,160
1,No,Raw,B,100,M,Natig Aliyev,Masters 50-54,1964,53,98.4,Azerbaijan,,,,,,-192.5,195,-200,,195,,,,,,195
2,No,Raw,B,100,M,Andrey Makevnin,Masters 55-59,1961,56,94.4,Russia,,,,,,155,165,-167.5,,165,,,,,,165
1,No,Raw,B,110,M,Artem Kobanov,Open,1992,25,109.4,Russia,,,,,,212.5,217.5,225,,225,,,,,,225
2,No,Raw,B,110,M,Anton Repin,Open,1991,26,102.9,Russia,,,,,,202.5,212.5,222.5,,222.5,,,,,,222.5
3,No,Raw,B,110,M,Egor Panov,Open,1976,41,107.5,Russia,,,,,,182.5,192.5,-200,,192.5,,,,,,192.5
1,No,Raw,B,110,M,Denis Puzyrev,Masters 40-44,1974,43,109.1,Russia,,,,,,187.5,192.5,195,,195,,,,,,195
2,No,Raw,B,110,M,Vadim Zaytsev,Masters 40-44,1977,40,108.5,Russia,,,,,,185,-192.5,-192.5,,185,,,,,,185
3,No,Raw,B,110,M,Oleg Shlepin,Masters 40-44,1975,42,109.2,Russia,,,,,,175,180,185,,185,,,,,,185
4,No,Raw,B,110,M,Boris Karasev,Masters 45-49,1972,45,109.9,Russia,,,,,,172.5,180,185,,185,,,,,,185
1,No,Raw,B,125,M,Yevgeniy Zuykov,Juniors 20-23,1994,23,120.5,Russia,,,,,,190,-202.5,-202.5,,190,,,,,,190
1,No,Raw,B,125,M,Aleksey Markelov,Open,1984,33,113.3,Russia,,,,,,240,-247.5,247.5,,247.5,,,,,,247.5
2,No,Raw,B,125,M,Aleksandr Kuznetsov #1,Open,1979,38,118.5,Russia,,,,,,240,-250,-250,,240,,,,,,240
3,No,Raw,B,125,M,Artur Arakelyan,Open,1987,30,114,Russia,,,,,,210,225,-230,,225,,,,,,225
4,No,Raw,B,125,M,Oktay Akay,Open,1981,36,110.1,Turkey,,,,,,160,-170,170,,170,,,,,,170
1,No,Raw,B,125,M,Leonid Palshin,Masters 45-49,1970,47,116.8,Russia,,,,,,192.5,202.5,-205,,202.5,,,,,,202.5
1,No,Raw,B,52,F,Yeva Merzon,Open,1991,26,48.5,Russia,,,,,,30,40,45,,45,,,,,,45
1,No,Raw,B,52,F,Margarita Talitsyna,Masters 45-49,1968,49,52,Russia,,,,,,37.5,40,42.5,,42.5,,,,,,42.5
1,No,Raw,B,60,F,Lyubov Potapova,Masters 60-64,1954,62,57.9,Russia,,,,,,-27.5,-30,30,,30,,,,,,30
1,No,Raw,B,82.5,F,Yelena Lebedeva,Masters 50-54,1963,54,81.9,Russia,,,,,,35,37.5,40,,40,,,,,,40
1,No,Raw,B,90,F,Valentina Semenyuk,Masters 65-69,1952,65,83.1,Russia,,,,,,30,32.5,-35,,32.5,,,,,,32.5
1,No,Raw,B,56,M,Grigoriy Loshchinin,Open,1991,26,56,Russia,,,,,,75,80,-85,,80,,,,,,80
1,No,Raw,B,60,M,Yegor Avershin,Open,1990,27,59,Russia,,,,,,45,47.5,-50,,47.5,,,,,,47.5
1,No,Raw,B,67.5,M,Aleksandr Andreyev,Teen 13-15,2002,14,61.8,Russia,,,,,,75,80,82.5,,82.5,,,,,,82.5
1,No,Raw,B,67.5,M,Pavel Varavin,Open,1982,35,64.8,Russia,,,,,,80,90,92.5,,92.5,,,,,,92.5
1,No,Raw,B,67.5,M,Yevgeniy Kosarev,Masters 55-59,1961,56,64.8,Russia,,,,,,-85,85,-87.5,,85,,,,,,85
1,No,Raw,B,75,M,Nikita Konstantinov,Juniors 20-23,1996,20,72.3,Russia,,,,,,90,97.5,-102.5,,97.5,,,,,,97.5
1,No,Raw,B,75,M,Aleksey Pachin,Open,1979,38,74.9,Russia,,,,,,72.5,80,85,,85,,,,,,85
1,No,Raw,B,82.5,M,Anton Vostrikov,Juniors 20-23,1995,22,80,Russia,,,,,,120,127.5,-132.5,,127.5,,,,,,127.5
1,No,Raw,B,82.5,M,Sergey Dyubkin,Open,1982,35,78,Russia,,,,,,150,155,157.5,,157.5,,,,,,157.5
2,No,Raw,B,82.5,M,Nikolay Petrokovich,Open,1979,38,78,Russia,,,,,,110,117.5,-122.5,,117.5,,,,,,117.5
3,No,Raw,B,82.5,M,Dmitriy Abdalov,Open,1989,28,80.2,Russia,,,,,,80,85,-92.5,,85,,,,,,85
1,No,Raw,B,82.5,M,Georgiy Gvozdev,Masters 55-59,1959,58,79.9,Russia,,,,,,115,117.5,-122.5,,117.5,,,,,,117.5
1,No,Raw,B,82.5,M,Vyacheslav Grunichev,Masters 75-79,1939,78,77.5,Russia,,,,,,25,30,32.5,,32.5,,,,,,32.5
1,No,Raw,B,90,M,Aleksandr Veselov,Open,1990,27,86,Russia,,,,,,65,70,80,,80,,,,,,80
2,No,Raw,B,90,M,Sergey Kolosov,Open,1988,29,88.9,Russia,,,,,,70,72.5,75,,75,,,,,,75
1,No,Raw,B,90,M,Aleksandr Lednev,Masters 40-44,1973,44,87.4,Russia,,,,,,95,100,-105,,100,,,,,,100
1,No,Raw,B,100,M,Konstantin Makarenko,Open,1973,44,98.8,Russia,,,,,,100,110,115,,115,,,,,,115
DQ,No,Raw,B,100,M,Ivan Puryshev,Open,1980,37,99.2,Russia,,,,,,-50,-50,-50,,,,,,,,
1,No,Raw,B,100,M,Sergey Kovalev,Masters 45-49,1969,48,93.3,Russia,,,,,,115,-120,-120,,115,,,,,,115
1,No,Raw,B,100,M,Vladimir Kuznetsov,Masters 70-74,1945,72,94.5,Russia,,,,,,65,70,72.5,,72.5,,,,,,72.5
DQ,No,Raw,B,140,M,Stanislav Goryachev,Open,1975,42,127.8,Russia,,,,,,-180,,,,,,,,,,
1,Yes,Single-ply,B,67.5,F,Olga Tyurina,Open,1977,39,67.2,Russia,,,,,,-110,110,-115,,110,,,,,,110
2,Yes,Single-ply,B,67.5,F,Tatyana Samsonova,Open,1983,34,66,Russia,,,,,,-70,70,-75,,70,,,,,,70
1,Yes,Single-ply,B,67.5,F,Olga Tyurina,Submasters 35-39,1977,39,67.2,Russia,,,,,,-110,110,-115,,110,,,,,,110
1,Yes,Single-ply,B,82.5,M,Mehrdad Mohammadkhani,Open,1986,30,78.8,Iran,,,,,,-215,-215,215,-225,215,,,,,,215
1,Yes,Single-ply,B,90,M,Vladimir Konchakov,Open,1973,44,90,Russia,,,,,,250,265,272.5,,272.5,,,,,,272.5
DQ,No,Single-ply,B,52,F,Monika Aus,Open,1971,46,49.6,Estonia,,,,,,-65,-65,-65,,,,,,,,
DQ,No,Single-ply,B,52,F,Monika Aus,Masters 45-49,1971,46,49.6,Estonia,,,,,,-65,-65,-65,,,,,,,,
1,No,Single-ply,B,75,M,Nikolay Sokolov,Open,1979,38,74.9,Russia,,,,,,225,235,-241,,235,,,,,,235
2,No,Single-ply,B,75,M,Denis Kopyttsev,Open,1990,26,72.7,Russia,,,,,,170,-177.5,-177.5,,170,,,,,,170
DQ,No,Single-ply,B,82.5,M,Yuriy Knyazev,Open,1983,33,76.8,Russia,,,,,,-190,-190,,,,,,,,,
1,No,Single-ply,B,90,M,Pavel Silushin,Open,1989,28,87.9,Russia,,,,,,245,257.5,-272.5,,257.5,,,,,,257.5
1,No,Single-ply,B,100,M,Dmitriy Zhukov,Masters 40-44,1976,40,98.4,Russia,,,,,,195,205,-215,,205,,,,,,205
1,No,Single-ply,B,125,M,Dmitriy Shishlyannikov,Open,1980,37,122.9,Russia,,,,,,240,260,-285,,260,,,,,,260
1,Yes,Multi-ply,B,82.5,M,Ghassem Ghorbanizadeh,Masters 40-44,1975,42,79.5,Iran,,,,,,90,-100,-100,,90,,,,,,90
1,Yes,Multi-ply,B,90,M,Hamid Mohmedi-Kartaalaei,Open,1986,31,89.9,Turkey,,,,,,140,150,152.5,,152.5,,,,,,152.5
1,Yes,Multi-ply,B,100,M,Sharahi Yasavoli,Masters 50-54,1967,50,97.3,Iran,,,,,,130,,,,130,,,,,,130
1,Yes,Multi-ply,B,110,M,Esmail Kabiripour,Masters 40-44,1977,40,107.5,Iran,,,,,,180,-190,,,180,,,,,,180
1,Yes,Multi-ply,B,140,M,Kaveh Jafari-Beris,Juniors 20-23,1996,21,127.8,Iran,,,,,,-100,110,115,,115,,,,,,115
1,Yes,Multi-ply,B,140,M,Ali Mehrabanmarani,Open,1988,29,132,Turkey,,,,,,-150,160,165,,165,,,,,,165
DQ,Yes,Multi-ply,B,110,M,Aleksandr Kudashkin,Open,1992,25,108.8,Russia,,,,,,-290,-302.5,-302.5,,,,,,,,
1,Yes,Multi-ply,B,67.5,M,Mikhail Nachev,Open,1990,26,67.3,Russia,,,,,,142.5,-165,-165,,142.5,,,,,,142.5
1,Yes,Multi-ply,B,67.5,M,Rinat Khuzin,Masters 45-49,1969,48,67.4,Russia,,,,,,160,180,190,200,190,,,,,,190
1,Yes,Multi-ply,B,75,M,Yegor Kuzichev,Juniors 20-23,1995,22,72.7,Russia,,,,,,182.5,190,-195,,190,,,,,,190
1,Yes,Multi-ply,B,75,M,Ilya Varshavskiy,Open,1991,26,74.7,Russia,,,,,,245,252.5,255,,255,,,,,,255
2,Yes,Multi-ply,B,75,M,Valeriy Iosifov,Open,1982,35,73.5,Russia,,,,,,170,182.5,-187.5,,182.5,,,,,,182.5
1,Yes,Multi-ply,B,75,M,Sergey Sidorovskiy,Masters 45-49,1971,46,74.5,Russia,,,,,,-182.5,182.5,190,-200,190,,,,,,190
1,Yes,Multi-ply,B,90,M,Kirill Sukharev,Juniors 20-23,1993,23,90,Russia,,,,,,220,235,-247.5,,235,,,,,,235
2,Yes,Multi-ply,B,90,M,Viktor Garanin,Juniors 20-23,1994,23,87.5,Russia,,,,,,215,220,,,220,,,,,,220
1,Yes,Multi-ply,B,90,M,Aleksey Sheykin,Open,1988,29,89,Belarus,,,,,,240,247.5,260,,260,,,,,,260
2,Yes,Multi-ply,B,90,M,Kirill Sukharev,Open,1993,23,90,Russia,,,,,,220,235,-247.5,,235,,,,,,235
3,Yes,Multi-ply,B,90,M,Aleksey Zotov,Open,1986,31,88.4,Russia,,,,,,230,-247.5,-247.5,,230,,,,,,230
1,Yes,Multi-ply,B,100,M,Georgiy Kotelnikov,Open,1992,25,100,Russia,,,,,,230,-240,-240,,230,,,,,,230
2,Yes,Multi-ply,B,100,M,Denis Gladyshev,Open,1988,29,97.6,Russia,,,,,,160,175,180,,180,,,,,,180
1,Yes,Multi-ply,B,100,M,Sergey Volkov,Masters 40-44,1973,44,99.4,Russia,,,,,,200,-210,-210,,200,,,,,,200
1,Yes,Multi-ply,B,110,M,Igor Kurotchenko,Masters 55-59,1962,55,109.5,Russia,,,,,,180,200,220,,220,,,,,,220
1,Yes,Multi-ply,B,140+,M,Sergey Lazarev,Open,1960,57,153.5,Russia,,,,,,190,202.5,215,,215,,,,,,215
1,Yes,Multi-ply,B,140+,M,Sergey Lazarev,Masters 55-59,1960,57,153.5,Russia,,,,,,190,202.5,215,,215,,,,,,215
1,No,Multi-ply,B,90,M,Yulian Lymar,Open,1984,33,89.5,Russia,,,,,,205,-220,-220,,205,,,,,,205
1,No,Multi-ply,B,100,M,Oleg Smirnov,Open,1986,31,98.1,Russia,,,,,,-260,270,280,,280,,,,,,280
1,No,Multi-ply,B,100,M,Mikhail Tikhomirov,Masters 40-44,1974,43,98.7,Russia,,,,,,180,-195,-195,,180,,,,,,180
1,No,Multi-ply,B,110,M,Oleg Shlepin,Open,1975,42,109.2,Russia,,,,,,-250,-250,255,,255,,,,,,255
2,No,Multi-ply,B,110,M,Denis Puzyrev,Open,1974,43,109.1,Russia,,,,,,240,250,-265,,250,,,,,,250
1,No,Multi-ply,B,125,M,Artur Borisov,Teen 18-19,1997,19,121.8,Russia,,,,,,-245,-255,255,,255,,,,,,255
1,Yes,Raw,D,48,F,Galina Vavilkina,Masters 45-49,1971,46,47.7,Russia,,,,,,,,,,,100,107.5,-110,,107.5,107.5
1,Yes,Raw,D,56,F,Irina Yakovenko,Juniors 20-23,1994,23,55.6,Russia,,,,,,,,,,,117.5,125,127.5,,127.5,127.5
2,Yes,Raw,D,56,F,Larisa Turlova,Open,1987,30,54.5,Russia,,,,,,,,,,,90,-100,100,,100,100
1,Yes,Raw,D,60,F,Darya Yermolayeva,Open,1993,24,60,Russia,,,,,,,,,,,140,150,-155,,150,150
2,Yes,Raw,D,60,F,Anastasiya Barkova,Open,1983,34,58.1,Russia,,,,,,,,,,,100,110,-115,,110,110
1,Yes,Raw,D,67.5,F,Svetlana Grigoryeva,Open,1982,35,64.4,Russia,,,,,,,,,,,140,-145,145,,145,145
1,Yes,Raw,D,67.5,F,Zhanna Fedorova,Masters 50-54,1963,54,66.9,Russia,,,,,,,,,,,90,97.5,102.5,,102.5,102.5
1,Yes,Raw,D,75,F,Tamara Plotnikova,Juniors 20-23,1996,20,70,Russia,,,,,,,,,,,120,127.5,132.5,,132.5,132.5
2,Yes,Raw,D,75,F,Yelena Yakovleva,Open,1991,26,73.4,Russia,,,,,,,,,,,120,130,132.5,,132.5,132.5
1,Yes,Raw,D,56,M,Sergey Zaprudnov,Teen 13-15,2002,15,55.2,Russia,,,,,,,,,,,-100,110,120,,120,120
1,Yes,Raw,D,67.5,M,Yevgeniy Bayborodin,Open,1987,30,64.3,Russia,,,,,,,,,,,-185,185,195,,195,195
2,Yes,Raw,D,67.5,M,Ruslan Kayumov,Open,1993,24,64.9,Russia,,,,,,,,,,,160,170,-180,,170,170
3,Yes,Raw,D,67.5,M,Kianoush Doustiirani,Open,1993,24,66.5,Iran,,,,,,,,,,,170,,,,170,170
1,Yes,Raw,D,75,M,Rodion Tarasov,Teen 18-19,1999,18,74.7,Russia,,,,,,,,,,,-200,222.5,-230,,222.5,222.5
1,Yes,Raw,D,75,M,Sergey Loshchev,Open,1985,32,73.5,Russia,,,,,,,,,,,-160,160,-187.5,,160,160
1,Yes,Raw,D,82.5,M,Andrey Kozhedub,Juniors 20-23,1993,23,81.8,Russia,,,,,,,,,,,225,240,250,,250,250
1,Yes,Raw,D,82.5,M,Andrey Kozhedub,Open,1993,23,81.8,Russia,,,,,,,,,,,225,240,250,,250,250
2,Yes,Raw,D,82.5,M,Andrey Ganichkin,Open,1984,33,81.9,Russia,,,,,,,,,,,230,240,250,,250,250
3,Yes,Raw,D,82.5,M,Nikolay Zhiltsov,Open,1987,30,79.3,Russia,,,,,,,,,,,220,230,-240,,230,230
4,Yes,Raw,D,82.5,M,Sergey Doronin,Open,1983,34,82.2,Russia,,,,,,,,,,,190,210,-220,,210,210
1,Yes,Raw,D,82.5,M,Dmitriy Shapilov,Masters 40-44,1975,42,79.3,Russia,,,,,,,,,,,220,-243,,,220,220
1,Yes,Raw,D,90,M,Ilya Salvadov,Juniors 20-23,1996,21,89.2,Russia,,,,,,,,,,,220,230,245,,245,245
2,Yes,Raw,D,90,M,Andrey Byzov,Open,1982,35,88.9,Russia,,,,,,,,,,,240,-250,250,-262.5,250,250
3,Yes,Raw,D,90,M,Zhasurbek Umurzakov,Open,1987,30,88.7,Russia,,,,,,,,,,,212.5,-232.5,-232.5,,212.5,212.5
DQ,Yes,Raw,D,90,M,Aleksey Boyarintsev,Open,1989,28,88.8,Russia,,,,,,,,,,,-280,-280,-280,,,
1,Yes,Raw,D,100,M,Eldar Salakhetdinov,Teen 18-19,1998,19,98.6,Russia,,,,,,,,,,,260,270,-275,,270,270
1,Yes,Raw,D,100,M,Sergey Durandin,Open,1974,43,98.5,Russia,,,,,,,,,,,240,250,257.5,,257.5,257.5
2,Yes,Raw,D,100,M,Hamid Ghasemi,Open,1990,27,96.6,Iran,,,,,,,,,,,-190,190,200,,200,200
1,Yes,Raw,D,100,M,Sergey Durandin,Masters 40-44,1974,43,98.5,Russia,,,,,,,,,,,240,250,257.5,,257.5,257.5
2,Yes,Raw,D,100,M,Sergey Yefimov,Masters 40-44,1974,43,96.2,Russia,,,,,,,,,,,210,230,240,,240,240
1,Yes,Raw,D,100,M,Sharahi Yasavoli,Masters 50-54,1967,50,97.3,Iran,,,,,,,,,,,230,250,-260,,250,250
1,Yes,Raw,D,110,M,Ivan Novikov,Juniors 20-23,1996,21,102.3,Russia,,,,,,,,,,,-270,-270,270,,270,270
1,Yes,Raw,D,110,M,Ivan Novikov,Open,1996,21,102.3,Russia,,,,,,,,,,,-270,-270,270,,270,270
2,Yes,Raw,D,110,M,Vasiliy Dovgoborets,Open,1990,27,103,Russia,,,,,,,,,,,260,270,,,270,270
1,Yes,Raw,D,110,M,Reza Zamani,Masters 40-44,1977,40,106,Iran,,,,,,,,,,,-220,-220,220,,220,220
3,Yes,Raw,D,125,M,Tabriz Nurutdinov,Open,1981,36,121.6,Russia,,,,,,,,,,,265,280,-290,,280,280
1,No,Raw,D,75,F,Lyudmila Ivashko,Open,1993,24,69.9,Russia,,,,,,,,,,,90,-105,-105,,90,90
1,No,Raw,D,82.5,M,Aleksandr Ilyenko,Juniors 20-23,1996,21,79.7,Russia,,,,,,,,,,,235,250,261,270,261,261
1,No,Raw,D,100,M,Maksim Samoylenko,Teen 18-19,1998,19,99,Ukraine,,,,,,,,,,,312.5,-320,320,-325,320,320
1,No,Raw,D,100,M,Oleg Vinogradov,Open,1990,27,99.6,Russia,,,,,,,,,,,340,355,-360,,355,355
2,No,Raw,D,100,M,Vitaliy Zheludev,Open,1985,32,91.5,Russia,,,,,,,,,,,-290,-300,300,,300,300
2,No,Raw,D,110,M,Ruslan Novikov,Open,1988,29,103.4,Russia,,,,,,,,,,,255,270,282.5,,282.5,282.5
1,No,Raw,D,125,M,Artur Borisov,Teen 18-19,1997,19,122.2,Russia,,,,,,,,,,,300,-310,-310,,300,300
1,No,Raw,D,125,M,Konstantin Morozov #1,Open,1984,33,120.4,Russia,,,,,,,,,,,400,410,-417.5,,410,410
2,No,Raw,D,125,M,Dmitriy Samsonov,Open,1993,24,124.2,Russia,,,,,,,,,,,270,-280,-280,,270,270
1,No,Raw,D,125,M,Valeriy Sytnikov,Masters 45-49,1970,47,114.4,Russia,,,,,,,,,,,-260,260,285,291,285,285
1,No,Raw,D,125,M,Aleksandr Bereznikov,Masters 50-54,1964,53,114.6,Russia,,,,,,,,,,,265,275,,,275,275
1,No,Raw,D,140,M,Vladimir Marchenko,Open,1978,39,128.1,Russia,,,,,,,,,,,360,370,-377.5,,370,370
1,No,Raw,D,140+,M,Anton Filippov,Open,1986,31,148.2,Russia,,,,,,,,,,,320,-330,330,,330,330
DQ,Yes,Multi-ply,D,67.5,M,Kianoush Doustiirani,Open,1993,24,66.5,Iran,,,,,,,,,,,-230,-230,-230,,,
1,Yes,Multi-ply,D,90,M,Anatoliy Kirillov,Open,1981,36,86.6,Russia,,,,,,,,,,,170,185,200,,200,200
1,Yes,Multi-ply,D,100,M,Roman Zverev,Open,1988,29,99,Russia,,,,,,,,,,,310,322.5,-332.5,,322.5,322.5
1,No,Multi-ply,D,82.5,M,Timur Bogdanov,Open,1988,29,82.3,Russia,,,,,,,,,,,220,-250,272.5,,272.5,272.5
1,No,Multi-ply,D,110,M,Sergey Mishchenko,Open,1988,29,107.1,Ukraine,,,,,,,,,,,270,280,-290,,280,280
