Place,Name,Division,BodyweightKg,Squat1Kg,Squat2Kg,Squat3Kg,Best3SquatKg,Bench1Kg,Bench2Kg,Bench3Kg,Best3BenchKg,Bench4Kg,Deadlift1Kg,Deadlift2Kg,Deadlift3Kg,Best3DeadliftKg,Deadlift4Kg,TotalKg,WeightClassKg,Sex,CyrillicName,BirthYear,Tested,Equipment,Event
1,Aleksandra Sovkova,Amateur Juniors 20-23,55.75,60,65,67.5,67.5,40,-45,-45,40,,80,-87.5,-87.5,80,,187.5,56,F,Александра Совкова,1988,Yes,Raw,SBD
1,Svetlana Maletskaya,Amateur Open,55.8,95,100,-102.5,100,57.5,60,-62.5,60,,125,-127.5,-127.5,125,,285,56,F,Светлана Малецкая,1983,Yes,Raw,SBD
1,Galina Kalinina,Amateur Open,63.5,-100,100,105,105,60,-65,-65,60,,127.5,132.5,140,140,,305,67.5,F,Галина Калинина,1981,Yes,Raw,SBD
1,Irina Sotova,Amateur Teen,73.85,-100,100,-105,100,40,45,-47.5,45,,100,105,115,115,,260,75,F,Ирина Сотова,1992,Yes,Raw,SBD
1,Nina Biryukova,Amateur Open,74.6,70,80,85,85,55,60,62.5,62.5,,100,115,120,120,,267.5,75,F,Нина Бирюкова,1971,Yes,Raw,SBD
1,Dmitriy Shishanov,Amateur Open,59.45,110,120,-125,120,75,77.5,80,80,,-140,140,160,160,,360,60,M,Дмитрий Шишанов,1985,Yes,Raw,SBD
1,Maksim Sukhobok,Amateur Masters,60,140,152.5,155,155,95,102.5,105,105,,180,192.5,-197.5,192.5,,452.5,60,M,Максим Сухобок,1965,Yes,Raw,SBD
1,Dmitriy Scherbak,Amateur Teen,65.1,-105,110,-120,110,80,-87.5,-87.5,80,,125,132.5,-140,132.5,,322.5,67.5,M,Дмитрий Щербак,1992,Yes,Raw,SBD
1,Evgeniy Avdeev,Amateur Teen,73.4,150,160,-165,160,82.5,87.5,92.5,92.5,,210,220,-225,220,,472.5,75,M,Евгений Авдеев,1994,Yes,Raw,SBD
1,Nikolay Balugin,Amateur Juniors 20-23,72.8,175,182.5,187.5,187.5,125,-130,-130,125,,215,222.5,-227.5,222.5,,535,75,M,Николай Балугин,1987,Yes,Raw,SBD
2,Mikhail Mikheev,Amateur Juniors 20-23,71.5,-180,-180,180,180,105,110,-115,110,,180,200,-210,200,,490,75,M,Михаил Михеев,1987,Yes,Raw,SBD
3,Aleksandr Shabrov,Amateur Juniors 20-23,71.7,145,155,165,165,-105,110,-115,110,,185,-200,-200,185,,460,75,M,Александр Шабров,1991,Yes,Raw,SBD
4,Anton Lukinov,Amateur Juniors 20-23,73,-150,165,-170,165,-105,110,-115,110,,180,-190,-190,180,,455,75,M,Антон Лукинов,1989,Yes,Raw,SBD
5,Vadim Muravlev,Amateur Juniors 20-23,70.8,120,130,-140,130,92.5,97.5,-100,97.5,,175,185,192.5,192.5,,420,75,M,Вадим Муравлев,1991,Yes,Raw,SBD
DQ,Aleksandr Savitskiy,Amateur Juniors 20-23,73.3,165,175,-180,175,-105,-105,-105,,,-190,,,,,,75,M,Александр Савицкий,1990,Yes,Raw,SBD
DQ,Maksim Ibraev,Amateur Juniors 20-23,68.4,-140,-145,-145,,-130,,,,,-160,,,,,,75,M,Максим Ибраев,1987,Yes,Raw,SBD
1,Vladimir Paltov,Amateur Open,72.9,145,-152.5,152.5,152.5,102.5,105,107.5,107.5,,170,180,,180,,440,75,M,Владимир Пальтов,1979,Yes,Raw,SBD
1,Yuriy Tarbonov,Amateur Juniors 20-23,80,180,-190,190,190,-145,-145,145,145,,235,-257.5,-257.5,235,,570,82.5,M,Юрий Тарбонов,1987,Yes,Raw,SBD
2,Aleksandr Shustov,Amateur Juniors 20-23,82.5,180,-190,-190,180,117.5,-122.5,-122.5,117.5,,210,220,-225,220,,517.5,82.5,M,Александр Шустов,1987,Yes,Raw,SBD
3,Aleksandr Sapozhnikov,Amateur Juniors 20-23,76.6,130,145,150,150,120,125,127.5,127.5,,-190,190,-200,190,,467.5,82.5,M,Александр Сапожников,1989,Yes,Raw,SBD
DQ,Aleksandr Kurtsaev,Amateur Juniors 20-23,79,170,-180,-180,170,110,120,-125,120,,-200,-215,-215,,,,82.5,M,Александр Курцаев,1989,Yes,Raw,SBD
DQ,Mikhail Sadekov,Amateur Juniors 20-23,78.2,-165,-165,-172.5,,-122.5,,,,,-190,,,,,,82.5,M,Михаил Садеков,1989,Yes,Raw,SBD
1,Konstantin Zhekov,Amateur Open,82,175,185,-187.5,185,130,135,,135,,-207.5,215,-220,215,,535,82.5,M,Константин Жеков,1972,Yes,Raw,SBD
2,Aleksey Koshuba,Amateur Open,82.5,170,180,185,185,-115,122.5,-127.5,122.5,,210,215,220,220,,527.5,82.5,M,Алексей Кошуба,1980,Yes,Raw,SBD
DQ,Aleksey Volkov,Amateur Open,81.4,-190,-190,-190,,-110,,,,,-175,,,,,,82.5,M,Алексей Волков,1978,Yes,Raw,SBD
2,Dmitriy Bogdanov,Amateur Teen,88.65,-190,190,-200,190,-120,120,-125,120,,210,220,-237.5,220,,530,90,M,Дмитрий Богданов,1992,Yes,Raw,SBD
1,Ilya Lebedev,Amateur Teen,86.6,-160,160,-170,160,130,135,140,140,,190,200,210,210,,510,90,M,Илья Лебедев,1994,Yes,Raw,SBD
3,Evgeniy Pivovarov,Amateur Juniors 20-23,86,180,190,200,200,130,160,-170,160,,200,210,220,220,,580,90,M,Евгений Пивоваров,1988,Yes,Raw,SBD
4,Dmitriy Pavlovskiy,Amateur Juniors 20-23,90,-175,175,190,190,130,140,-145,140,,210,225,-240,225,,555,90,M,Дмитрий Павловский,1988,Yes,Raw,SBD
5,Kirill Lomanov,Amateur Juniors 20-23,90,170,180,-185,180,117.5,122.5,-125,122.5,,-245,-245,245,245,,547.5,90,M,Кирилл Ломанов,1987,Yes,Raw,SBD
6,Konstantin Kozlov,Amateur Juniors 20-23,88.6,100,130,-150,130,90,100,-105,100,,150,-170,170,170,,400,90,M,Константин Козлов,1990,Yes,Raw,SBD
1,Aleksandr Shuralev,Amateur Open,89,190,200,-207.5,200,-155,155,162.5,162.5,,-210,215,220,220,,582.5,90,M,Александр Шуралев,1975,Yes,Raw,SBD
2,Vladimir Orlov,Amateur Open,87.55,-190,-190,190,190,120,-130,-130,120,,240,252.5,257.5,257.5,,567.5,90,M,Владимир Орлов,1977,Yes,Raw,SBD
3,Aleksandr Drozdov,Amateur Open,87.9,170,-180,180,180,140,-145,-145,140,,230,-240,-245,230,,550,90,M,Александр Дроздов,1980,Yes,Raw,SBD
4,Nikolay Dobrokhotov,Amateur Masters,88.45,165,175,,175,130,-135,-135,130,,205,-212.5,,205,,510,90,M,Николай Доброхотов,1957,Yes,Raw,SBD
DD,Artem Kobanov,Amateur Teen,97.1,-207.5,207.5,-217.5,207.5,147.5,-155,157.5,157.5,,235,247.5,257.5,257.5,-260.5,,100,M,Артем Кобанов,1992,Yes,Raw,SBD
DQ,Oleg Dogadin,Amateur Juniors 20-23,97.4,-220,-220,-220,,-145,,,,,-270,,,,,,100,M,Олег Догадин,1989,Yes,Raw,SBD
1,Konstantin Morozov #1,Amateur Open,98.8,210,220,-230,220,170,175,-180,175,,300,,,300,,695,100,M,Константин Морозов,1984,Yes,Raw,SBD
2,Vasiliy Burnashov,Amateur Open,99.4,-220,230,-242.5,230,155,162.5,-170,162.5,,240,-260,-260,240,,632.5,100,M,Василий Бурнашов,1977,Yes,Raw,SBD
3,Oleg Dogadin,Amateur Open,97.4,200,-215,215,215,140,150,155,155,,260,-282.5,-282.5,260,,630,100,M,Олег Догадин,1989,Yes,Raw,SBD
4,Andrey Sukharev,Amateur Open,100,220,232.5,-237.5,232.5,150,157.5,-160,157.5,,225,232.5,237.5,237.5,,627.5,100,M,Андрей Сухарев,1974,Yes,Raw,SBD
5,Mikhail Evstigneev,Amateur Open,96.75,-180,-180,180,180,-160,165,175,175,,-200,210,220,220,,575,100,M,Михаил Евстигнеев,1976,Yes,Raw,SBD
DQ,Aleksey Lebedinskiy,Amateur Open,99.05,-150,-150,,,-115,,,,,-170,,,,,,100,M,Алексей Лебединский,1977,Yes,Raw,SBD
1,Valeriy Sytnikov,Amateur Masters,96.3,150,157.5,165,165,122.5,132.5,137.5,137.5,,202.5,212.5,222.5,222.5,,525,100,M,Валерий Сытников,1970,Yes,Raw,SBD
2,Sergey Mavrenkov,Amateur Masters,96.3,155,162.5,170,170,127.5,132.5,135,135,,180,195,-202.5,195,,500,100,M,Сергей Мавренков,1966,Yes,Raw,SBD
1,Andrey Fedoseev,Amateur Open,109,235,-245,-251,235,180,187.5,-191,187.5,,265,-275,-277.5,265,,687.5,110,M,Андрей Федосеев,1974,Yes,Raw,SBD
2,Andrey Shmorgun,Amateur Open,108.35,190,210,215,215,160,170,-175,170,,-220,240,245,245,,630,110,M,Андрей Шморгун,1984,Yes,Raw,SBD
3,Aleksandr Kuznetsov #1,Amateur Open,104.05,-200,205,-215,205,180,187.5,192.5,192.5,,210,225,-237.5,225,,622.5,110,M,Александр Кузнецов,1979,Yes,Raw,SBD
4,Igor Golovanov,Amateur Open,109.2,200,210,-215,210,150,160,-165,160,,240,250,-260,250,,620,110,M,Игорь Голованов,1983,Yes,Raw,SBD
5,Sergey Timchenko,Amateur Open,108.2,180,-195,-200,180,150,160,-165,160,,190,210,220,220,,560,110,M,Сергей Тимченко,1979,Yes,Raw,SBD
6,Aleksandr Gorshkov,Amateur Open,102.8,-180,190,200,200,155,-160,-160,155,,-200,200,,200,,555,110,M,Александр Горшков,1979,Yes,Raw,SBD
1,Evgeniy Baranov,Amateur Open,118.5,-240,255,265,265,160,170,180,180,,270,280,296,296,,741,125,M,Евгений Баранов,1982,Yes,Raw,SBD
2,Igor Eltsov,Amateur Open,115.2,210,-220,-220,210,165,172.5,-177.5,172.5,,-230,-250,250,250,,632.5,125,M,Игорь Ельцов,1978,Yes,Raw,SBD
3,Pavel Mishin,Amateur Open,124.1,200,-210,-210,200,140,150,-155,150,,230,240,265,265,,615,125,M,Павел Мишин,1973,Yes,Raw,SBD
1,Maksim Kolenkin,Pro Open,73.8,200,210,-217.5,210,120,132.5,-137.5,132.5,,225,237.5,-242.5,237.5,,580,75,M,Максим Коленкин,1984,No,Raw,SBD
2,Konstantin Massalin,Pro Open,74.5,165,-175,-175,165,117.5,120,,120,,160,167.5,172.5,172.5,,457.5,75,M,Константин Массалин,,No,Raw,SBD
1,Andrey Baydalov,Pro Juniors 20-23,81,195,-205,-207.5,195,-170,175,-182.5,175,,240,250,-265,250,,620,82.5,M,Андрей Байдалов,1991,No,Raw,SBD
2,Mikhail Lebedev,Pro Juniors 20-23,82.4,185,-195,-195,185,130,140,147.5,147.5,,220,230,240,240,,572.5,82.5,M,Михаил Лебедев,1989,No,Raw,SBD
3,Ragim Balakshiev,Pro Juniors 20-23,79.3,140,150,160,160,100,110,-115,110,,170,185,-200,185,,455,82.5,M,Рагим Балакшиев,1990,No,Raw,SBD
1,Konstantin Konstantinov,Pro Open,78.3,220,230,-235,230,150,160,165,165,,240,255,265,265,,660,82.5,M,Константин Константинов,1981,No,Raw,SBD
2,Aleksey Kolenkin,Pro Open,80,175,185,190,190,140,147.5,152.5,152.5,,215,-225,225,225,,567.5,82.5,M,Алексей Коленкин,1983,No,Raw,SBD
3,Aleksandr Kozin,Pro Open,80.9,185,-192.5,-192.5,185,130,-135,-135,130,,222.5,227.5,232.5,232.5,,547.5,82.5,M,Александр Козин,1973,No,Raw,SBD
4,Aleksey Markov,Pro Open,76.7,130,140,145,145,130,140,147.5,147.5,,185,195,205,205,,497.5,82.5,M,Алексей Марков,1984,No,Raw,SBD
5,Aleksandr Vasilevskiy,Pro Open,79.1,150,-160,160,160,110,120,-130,120,,160,170,180,180,,460,82.5,M,Александр Василевский,1985,No,Raw,SBD
1,Vladimir Tarbonov,Pro Masters 55-59,80.8,155,-162.5,-162.5,155,85,90,92.5,92.5,,185,195,-210,195,,442.5,82.5,M,Владимир Тарбонов,1954,No,Raw,SBD
1,Andrey Gruzdev,Pro Teen,84.8,-150,-170,175,175,115,125,-135,125,,185,200,-220,200,,500,90,M,Андрей Груздев,1992,No,Raw,SBD
1,Evgeniy Blinkov,Pro Juniors 20-23,89.2,250,-265,-265,250,175,185,-190,185,,262.5,-275,,262.5,,697.5,90,M,Евгений Блинков,1987,No,Raw,SBD
1,Igor Paramonov,Pro Open,88.6,220,-230,235,235,155,165,170,170,,255,-265,-270,255,,660,90,M,Игорь Парамонов,1983,No,Raw,SBD
2,Dmitriy Panov,Pro Open,89,200,-210,210,210,140,147.5,150,150,,180,190,200,200,,560,90,M,Дмитрий Панов,1983,No,Raw,SBD
3,Vyacheslav Gusev,Pro Open,87.8,195,205,,205,120,130,-135,130,,195,205,215,215,,550,90,M,Вячеслав Гусев,1987,No,Raw,SBD
1,Vitaliy Shumilov,Pro Masters,89.2,175,185,190,190,150,157.5,-165,157.5,,235,252.5,-262.5,252.5,,600,90,M,Виталий Шумилов,1970,No,Raw,SBD
1,Viktor Kalugin,Pro Open,97.3,230,245,-255,245,170,177.5,-185,177.5,,300,-315,-320,300,,722.5,100,M,Виктор Калугин,1978,No,Raw,SBD
2,Ivan Abramov,Pro Open,99.5,225,235,240,240,160,170,175,175,,255,275,,275,,690,100,M,Иван Абрамов,1980,No,Raw,SBD
3,Denis Matyushin,Pro Open,96,210,-220,-220,210,170,180,-185,180,,-250,250,255,255,,645,100,M,Денис Матюшин,1984,No,Raw,SBD
4,Dmitriy Melikhov,Pro Open,98.5,195,205,215,215,142.5,150,155,155,,220,235,240,240,,610,100,M,Дмитрий Мелихов,1979,No,Raw,SBD
DQ,Roman Mikheev,Pro Open,95.8,-215,-220,-220,,-150,,,,,-215,,,,,,100,M,Роман Михеев,1981,No,Raw,SBD
1,Mikhail Tsatsulin,Pro Juniors 20-23,109.2,260,280,292.5,292.5,175,185,-192.5,185,,300,315,330,330,,807.5,110,M,Михаил Цацулин,1988,No,Raw,SBD
2,Maksim Avtukhov,Pro Juniors 20-23,107,245,255,260,260,165,172.5,177.5,177.5,,272.5,285,-290,285,,722.5,110,M,Максим Автухов,1990,No,Raw,SBD
3,Nizami Tagiev,Pro Juniors 20-23,104,-220,220,-235,220,160,170,-180,170,,280,300,-320,300,,690,110,M,Низами Тагиев,1991,No,Raw,SBD
1,Ilya Linnikov,Pro Open,109.3,-255,255,270,270,215,222.5,230,230,,305,320,,320,,820,110,M,Илья Линников,1981,No,Raw,SBD
2,Valeriy Sabelnikov,Pro Open,109.5,250,265,275,275,180,195,-202.5,195,,280,295,-305,295,,765,110,M,Валерий Сабельников,1971,No,Raw,SBD
3,Dmitriy Semenin,Pro Open,107.95,250,265,280,280,200,210,-215,210,,250,270,-290,270,,760,110,M,Дмитрий Семенин,1983,No,Raw,SBD
4,Roman Shevtsov,Pro Open,110,250,270,-275,270,200,-210,-210,200,,250,270,-280,270,,740,110,M,Роман Шевцов,1982,No,Raw,SBD
5,Roman Khaydarov,Pro Open,110,250,-270,270,270,160,-170,,160,,280,-300,,280,,710,110,M,Роман Хайдаров,1983,No,Raw,SBD
6,Aleksandr Ivanov,Pro Open,109.25,230,-245,-245,230,170,180,185,185,,240,260,270,270,,685,110,M,Александр Иванов,1977,No,Raw,SBD
7,Sergey Tikhov,Pro Open,107.8,-200,-200,200,200,165,-180,182.5,182.5,,250,270,290,290,,672.5,110,M,Сергей Тихов,1981,No,Raw,SBD
5,Aleksey Belanchik,Pro Open,108,210,220,-225,220,155,160,165,165,,240,250,260,260,,645,110,M,Алексей Беланчик,1974,No,Raw,SBD
9,Denis Gromanov,Pro Open,105.8,200,-225,225,225,130,150,155,155,,230,-250,250,250,,630,110,M,Денис Громанов,1981,No,Raw,SBD
DQ,Artem Savelyev,Pro Open,109.4,-290,-290,-290,,-190,,,,,-310,,,,,,110,M,Артем Савельев,1988,No,Raw,SBD
DQ,Oleg Skorobreschuk,Pro Open,108.9,-230,-230,-230,,-155,,,,,-240,,,,,,110,M,Олег Скоробрещук,1977,No,Raw,SBD
1,Kirill Bakarinov,Pro Juniors 20-23,115.7,210,230,-245,230,135,145,-155,145,,230,250,260,260,,635,125,M,Кирилл Бакаринов,1987,No,Raw,SBD
1,Andrey Enduraev,Pro Open,118.1,-220,220,230,230,140,150,-160,150,,250,270,-290,270,,650,125,M,Андрей Ендураев,1976,No,Raw,SBD
2,Aleksandr Tarakin,Pro Open,112.8,160,180,200,200,150,160,-170,160,,240,-260,260,260,,620,125,M,Александр Таракин,1986,No,Raw,SBD
DQ,Maksim Mitrofanov,Pro Open,123.7,255,-270,,255,-192.5,,,,,-275,,,,,,125,M,Максим Митрофанов,1980,No,Raw,SBD
1,Sergey Shuvalov,Pro Open,133.65,230,-240,-240,230,-170,175,-185,175,,280,-300,,280,,685,140,M,Сергей Шувалов,1972,No,Raw,SBD
1,Ruslan Aliev,Amateur Juniors 20-23,70.4,-130,-130,130,130,90,100,-105,100,,-145,145,155,155,,385,75,M,Руслан Алиев,1990,Yes,Multi-ply,SBD
1,Aleksey Tarasov,Amateur Teen,79.8,180,200,,200,110,120,125,125,-128,190,207.5,220,220,,545,82.5,M,Алексей Тарасов,1994,Yes,Multi-ply,SBD
1,Konstantin Sapunkov,Amateur Open,82,245,-255,,245,165,172.5,177.5,177.5,,215,227.5,-235,227.5,,650,82.5,M,Константин Сапунков,1981,Yes,Multi-ply,SBD
DD,Vladimir Urazov,Amateur Masters,81.25,210,225,-237.5,225,150,-157.5,-157.5,150,,230,250,-257.5,250,,,82.5,M,Владимир Уразов,1967,Yes,Multi-ply,SBD
1,Mikhail Sviryuev,Amateur Open,89,-260,260,-270,260,150,160,-162.5,160,,240,250,-262.5,250,,670,90,M,Михаил Свирюев,1983,Yes,Multi-ply,SBD
2,Vladimir Beskaravaynyy,Amateur Open,84.3,210,230,-240,230,115,125,130,130,,210,230,240,240,,600,90,M,Владимир Бескаравайный,1983,Yes,Multi-ply,SBD
1,Dmitriy Solovyev #3,Amateur Open,99.1,-285,285,-295,285,175,-185,-185,175,,280,295,300,300,,760,100,M,Дмитрий Соловьёв,1983,Yes,Multi-ply,SBD
1,Aleksey Samburov,Amateur Open,102,-260,260,-275,260,160,-165,165,165,,-245,250,270.5,270.5,,695.5,110,M,Алексей Самбуров,1975,Yes,Multi-ply,SBD
DQ,Aleksandr Kablukov,Amateur Open,106.8,-300,-300,,,-175,,,,,-270,,,,,,110,M,Александр Каблуков,1984,Yes,Multi-ply,SBD
1,Aleksandr Trezinskiy,Amateur Open,114.85,-300,-300,300,300,180,192.5,200,200,,260,275,-300,275,,775,125,M,Александр Трезинский,1980,Yes,Multi-ply,SBD
DQ,Polina Alkon-Churme,Pro Open,58.7,-155,-155,-155,,-65,,,,,-150,,,,,,60,F,Полина Алькон-Чурме,1978,No,Multi-ply,SBD
1,Vizhe Mirmirani,Pro Masters,57.6,130,-140,-140,130,70,-80,-80,70,,120,130,-160,130,,330,60,F,Виже Мирмирани,1965,No,Multi-ply,SBD
DQ,Aleksandr Strunkin,Pro Open,67.5,-220,-220,-220,,-130,,,,,-230,,,,,,67.5,M,Александр Стрункин,1984,No,Multi-ply,SBD
1,Aleksandr Slugin,Pro Juniors 20-23,80.1,200,210,-220,210,125,130,140,140,,220,230,-240,230,,580,82.5,M,Александр Слугин,1988,No,Multi-ply,SBD
1,Sergey Blinov,Pro Open,81.2,300,-320,320,320,215,225,232.5,232.5,,270,285,-295,285,,837.5,82.5,M,Сергей Блинов,1987,No,Multi-ply,SBD
2,Aleksey Nikulin,Pro Open,82.1,310,-330,-340,310,-200,200,220,220,,250,270,-290,270,,800,82.5,M,Алексей Никулин,1982,No,Single-ply,SBD
3,Denis Vishnyakov,Pro Open,82.5,-200,200,220,220,120,130,-140,130,,230,-250,-250,230,,580,82.5,M,Денис Вишняков,1987,No,Multi-ply,SBD
1,Aleksandr Larin,Pro Juniors 20-23,89.6,-250,-267.5,270,270,125,135,-142.5,135,,220,-235,-235,220,,625,90,M,Александр Ларин,1990,No,Multi-ply,SBD
1,Viktor Petukhov,Pro Open,88,330,350,-370,350,190,200,210,210,,290,305,-315,305,,865,90,M,Виктор Петухов,1979,No,Multi-ply,SBD
DQ,Aleksandr Voropaev,Pro Open,88.9,-220,-220,-220,,-125,,,,,-225,,,,,,90,M,Александр Воропаев,1979,No,Multi-ply,SBD
1,Evgeniy Khudoleev,Pro Masters,89.8,-150,150,,150,150,160,170,170,,220,235,-245,235,,555,90,M,Евгений Худолеев,1946,No,Multi-ply,SBD
1,Aleksandr Zagorodnikov,Pro Juniors 20-23,96.9,280,-290,300,300,165,175,185,185,,250,260,-270,260,,745,100,M,Александр Загородников,1989,No,Multi-ply,SBD
2,Maksim Samoylov,Pro Juniors 20-23,90.7,-260,-260,260,260,190,200,-210,200,,230,240,250,250,,710,100,M,Максим Самойлов,1988,No,Multi-ply,SBD
1,Aleksey Kireev,Pro Open,99,300,-310,-320,300,180,190,200,200,,-300,310,-320,310,,810,100,M,Алексей Киреев,1980,No,Multi-ply,SBD
2,Vyacheslav Mikhno,Pro Open,99.35,-225,230,-240,230,145,150,-155,150,,220,230,-240,230,,610,100,M,Вячеслав Михно,1978,No,Multi-ply,SBD
1,Alexander Krovikov,Pro Masters,92.7,-200,-200,200,200,135,150,-160,150,,-200,200,-250,200,,550,100,M,Александр Кровиков,1961,No,Multi-ply,SBD
DQ,Dmitriy Loginov,Pro Juniors 20-23,107.2,-270,-285,-285,,-190,,,,,-270,,,,,,110,M,Дмитрий Логинов,1989,No,Multi-ply,SBD
DQ,Rami Alav,Pro Open,105.4,-250,-250,-250,,-220,,,,,-230,,,,,,110,M,Рами Алав,1983,No,Multi-ply,SBD
1,Vasiliy Voropaev,Pro Masters,103,210,-230,-230,210,130,140,-150,140,,210,220,235,235,,585,110,M,Василий Воропаев,1956,No,Multi-ply,SBD
1,Manuk Manukyan,Pro Juniors 20-23,121.2,-290,290,295,295,210,215,-220,215,,-290,-290,300,300,,810,125,M,Манук Манукян,1989,No,Multi-ply,SBD
2,Igor Potapov,Pro Juniors 20-23,121.8,170,190,220,220,150,-160,-160,150,,210,-230,,210,,580,125,M,Игорь Потапов,1987,No,Multi-ply,SBD
1,Irina Pokornaya,Amateur Open,43.9,,,,,60,61.5,63,63,65,,,,,,63,44,F,Ирина Покорная,1977,Yes,Raw,B
1,Olga Kazantseva,Amateur Masters,41.65,,,,,35,-40,-40,35,,,,,,,35,44,F,Ольга Казанцева,1961,Yes,Raw,B
1,Svetlana Fatyukhina,Amateur Teen,46.85,,,,,50,-57.5,-57.5,50,,,,,,,50,48,F,Светлана Фатюхина,1994,Yes,Raw,B
1,Tatyana Evtushenko,Amateur Open,46.85,,,,,45,-47.5,-50,45,,,,,,,45,48,F,Татьяна Евтушенко,1985,Yes,Raw,B
1,Natalya Marieva,Amateur Masters,47.4,,,,,37.5,-45,-45,37.5,,,,,,,37.5,48,F,Наталья Мариева,1968,Yes,Raw,B
1,Nadezhda Vlasova,Amateur Open,51,,,,,55,-60,-62.5,55,,,,,,,55,52,F,Надежда Власова,1982,Yes,Raw,B
1,Irina Lapshova,Amateur Masters,52,,,,,50,55,-57.5,55,,,,,,,55,52,F,Ирина Лапшова,1964,Yes,Raw,B
1,Elena Dymova,Amateur Open,53.1,,,,,-42.5,42.5,-47.5,42.5,,,,,,,42.5,56,F,Елена Дымова,1971,Yes,Raw,B
2,Tatyana Lyubalina,Amateur Open,54,,,,,-27.5,27.5,30,30,,,,,,,30,56,F,Татьяна Любалина,1974,Yes,Raw,B
1,Mariya Rezvykh,Amateur Open,59.6,,,,,55,57.5,-62.5,57.5,,,,,,,57.5,60,F,Мария Резвых,1985,Yes,Raw,B
1,Svetlana Kovylina,Amateur Juniors 20-23,62.45,,,,,65,-70,-70,65,,,,,,,65,67.5,F,Светлана Ковылина,1991,Yes,Raw,B
1,Natalya Demyanenko,Amateur Open,66.85,,,,,70,-75,-75,70,,,,,,,70,67.5,F,Наталья Демьяненко,1971,Yes,Raw,B
1,Olga Surkova,Amateur Juniors 20-23,73.7,,,,,55,-62.5,-62.5,55,,,,,,,55,75,F,Ольга Суркова,1988,Yes,Raw,B
1,Alla Pugovkina,Amateur Open,77.7,,,,,75,80,-85,80,,,,,,,80,82.5,F,Алла Пуговкина,1975,Yes,Raw,B
3,Ivan Gorelkin,Amateur Teen,52,,,,,77.5,85,90,90,,,,,,,90,52,M,Иван Горелкин,1994,Yes,Raw,B
1,Aleksandr Zhuravlev,Amateur Teen,52,,,,,65,72.5,-75,72.5,,,,,,,72.5,52,M,Александр Журавлев,1996,Yes,Raw,B
2,Ivan Timofeev,Amateur Teen,51.8,,,,,52.5,55,57.5,57.5,-60,,,,,,57.5,52,M,Иван Тимофеев,1996,Yes,Raw,B
1,Rostislav Lvov,Amateur Juniors 20-23,52.8,,,,,50,55,60,60,,,,,,,60,56,M,Ростислав Львов,1991,Yes,Raw,B
1,Aleksey Zhizhin,Amateur Teen,59.6,,,,,90,100,102.5,102.5,,,,,,,102.5,60,M,Алексей Жижин,1992,Yes,Raw,B
2,Renat Akhmetzyanov,Amateur Teen,60,,,,,70,-75,-75,70,,,,,,,70,60,M,Ренат Ахметзянов,1992,Yes,Raw,B
1,Nikolay Dergachev,Amateur Teen,62.9,,,,,100,-105,105,105,,,,,,,105,67.5,M,Николай Дергачев,1991,Yes,Raw,B
1,Vladimir Yushin,Amateur Teen,64.6,,,,,75,-87.5,-87.5,75,,,,,,,75,67.5,M,Владимир Юшин,1993,Yes,Raw,B
1,Egor Klimov,Amateur Teen,64.7,,,,,47.5,55,-60,55,,,,,,,55,67.5,M,Егор Климов,1996,Yes,Raw,B
1,Evgeniy Ryazanov,Amateur Open,65.4,,,,,140,147.5,-152.5,147.5,,,,,,,147.5,67.5,M,Евгений Рязанов,1984,Yes,Raw,B
2,Viktor Mychko,Amateur Open,67.05,,,,,127.5,-137.5,140,140,-145,,,,,,140,67.5,M,Виктор Мычко,1984,Yes,Raw,B
3,Roman Petrakov,Amateur Open,64.95,,,,,125,130,-135,130,,,,,,,130,67.5,M,Роман Петраков,1981,Yes,Raw,B
4,Ruslan Bayramov,Amateur Open,67.5,,,,,127.5,-130,-130,127.5,,,,,,,127.5,67.5,M,Руслан Байрамов,1986,Yes,Raw,B
5,Artem Tserunyan,Amateur Open,66,,,,,125,-130,-130,125,,,,,,,125,67.5,M,Артем Церунян,1984,Yes,Raw,B
1,Aleksey Shalunov,Amateur Masters,66,,,,,112.5,-115,-115,112.5,,,,,,,112.5,67.5,M,Алексей Шалунов,1969,Yes,Raw,B
1,Evgeniy Sevryukov,Amateur Teen,70.4,,,,,120,-125,125,125,,,,,,,125,75,M,Евгений Севрюков,1991,Yes,Raw,B
2,Aleksandr Boldinov,Amateur Teen,73.5,,,,,115,125,-127.5,125,,,,,,,125,75,M,Александр Болдинов,1992,Yes,Raw,B
1,Dmitriy Saliashvili,Amateur Teen,75,,,,,92.5,97.5,100,100,,,,,,,100,75,M,Дмитрий Салиашвили,1994,Yes,Raw,B
1,Sergey Denisov,Amateur Juniors 20-23,70.8,,,,,155,-162.5,-162.5,155,,,,,,,155,75,M,Сергей Денисов,1988,Yes,Raw,B
2,Sergey Samsonov,Amateur Juniors 20-23,72.3,,,,,125,140,-145,140,,,,,,,140,75,M,Сергей Самсонов,1989,Yes,Raw,B
3,Aleksandr Sereda,Amateur Juniors 20-23,71.2,,,,,120,125,130,130,,,,,,,130,75,M,Александр Середа,1988,Yes,Raw,B
4,Dmitriy Zeyfert,Amateur Juniors 20-23,74.5,,,,,120,125,130,130,,,,,,,130,75,M,Дмитрий Зейферт,1989,Yes,Raw,B
1,Artem Larionov,Amateur Open,75,,,,,167.5,170,-172.5,170,,,,,,,170,75,M,Артем Ларионов,1978,Yes,Raw,B
2,Dmitriy Dergachev,Amateur Open,75,,,,,145,150,-152.5,150,,,,,,,150,75,M,Дмитрий Дергачев,1982,Yes,Raw,B
3,Aleksey Roslovets,Amateur Open,73.05,,,,,135,140,145,145,,,,,,,145,75,M,Алексей Рословец,1977,Yes,Raw,B
4,Stanislav Chugaev,Amateur Open,74.75,,,,,145,-150,-150,145,,,,,,,145,75,M,Станислав Чугаев,1974,Yes,Raw,B
5,Aleksandr Olisov,Amateur Open,74.25,,,,,135,-140,140,140,,,,,,,140,75,M,Александр Олисов,1982,Yes,Raw,B
6,Maksim Karpov,Amateur Open,74.65,,,,,-125,125,135,135,,,,,,,135,75,M,Максим Карпов,1977,Yes,Raw,B
7,Dmitriy Firsaev,Amateur Open,74.3,,,,,132.5,-137.5,-140,132.5,,,,,,,132.5,75,M,Дмитрий Фирсаев,1983,Yes,Raw,B
8,Valeriy Ukolov,Amateur Open,72.2,,,,,120,125,130,130,,,,,,,130,75,M,Валерий Уколов,1981,Yes,Raw,B
9,Maksim Shopin,Amateur Open,71.7,,,,,115,120,125,125,,,,,,,125,75,M,Максим Шопин,1987,Yes,Raw,B
10,Elior Isakov,Amateur Open,74.2,,,,,122.5,-127.5,-127.5,122.5,,,,,,,122.5,75,M,Элиор Исаков,1986,Yes,Raw,B
11,Maksim Lyubyatinskiy,Amateur Open,69.95,,,,,110,117.5,-125,117.5,,,,,,,117.5,75,M,Максим Любятинский,1985,Yes,Raw,B
12,Dmitriy Sgadov,Amateur Open,74.7,,,,,85,90,-97.5,90,,,,,,,90,75,M,Дмитрий Сгадов,1979,Yes,Raw,B
1,Igor Kovalev,Amateur Masters,73.6,,,,,132.5,140,-145,140,,,,,,,140,75,M,Игорь Ковалев,1957,Yes,Raw,B
1,Nikolay Kireev,Amateur Masters,72.2,,,,,125,130,-135,130,,,,,,,130,75,M,Николай Киреев,1963,Yes,Raw,B
1,Andrey Zyabrin,Amateur Teen,80.6,,,,,120,132.5,-135,132.5,,,,,,,132.5,82.5,M,Андрей Зябрин,1994,Yes,Raw,B
1,Ilya Nikitin,Amateur Teen,75.8,,,,,60,75,-85,75,,,,,,,75,82.5,M,Илья Никитин,1996,Yes,Raw,B
1,Ivan Akimkin,Amateur Juniors 20-23,80.8,,,,,172.5,-175,-175,172.5,,,,,,,172.5,82.5,M,Иван Акимкин,1988,Yes,Raw,B
2,Vladislav Girko,Amateur Juniors 20-23,78.55,,,,,-145,145,-150,145,,,,,,,145,82.5,M,Владислав Гирко,1987,Yes,Raw,B
3,Yuriy Tarbonov,Amateur Juniors 20-23,80.35,,,,,140,-150,-150,140,,,,,,,140,82.5,M,Юрий Тарбонов,1987,Yes,Raw,B
4,Mikhail Rakul,Amateur Juniors 20-23,81,,,,,-132.5,132.5,-137.5,132.5,,,,,,,132.5,82.5,M,Михаил Ракуль,1988,Yes,Raw,B
5,Nikolay Balugin,Amateur Juniors 20-23,75.2,,,,,122.5,127.5,-130,127.5,,,,,,,127.5,82.5,M,Николай Балугин,1987,Yes,Raw,B
1,Eduard Melyaev,Amateur Open,81.5,,,,,180,190,-195,190,,,,,,,190,82.5,M,Эдуард Меляев,1970,Yes,Raw,B
2,Igor Shmorgun,Amateur Open,75.9,,,,,-140,145,155,155,,,,,,,155,82.5,M,Игорь Шморгун,1983,Yes,Raw,B
3,Aleksandr Smirnov,Amateur Open,80.65,,,,,150,155,-160,155,,,,,,,155,82.5,M,Александр Смирнов,1985,Yes,Raw,B
4,Vladimir Schegolkov,Amateur Open,80.5,,,,,140,150,-160,150,,,,,,,150,82.5,M,Владимир Щегольков,1973,Yes,Raw,B
5,Dmitriy Akimov,Amateur Open,76.6,,,,,125,132.5,137.5,137.5,,,,,,,137.5,82.5,M,Дмитрий Акимов,1984,Yes,Raw,B
6,Vladimir Kornishin,Amateur Open,80.85,,,,,127.5,-132.5,-132.5,127.5,,,,,,,127.5,82.5,M,Владимир Корнишин,1977,Yes,Raw,B
7,Andrey Panasyuk,Amateur Open,80.8,,,,,122.5,-127.5,-127.5,122.5,,,,,,,122.5,82.5,M,Андрей Панасюк,1986,Yes,Raw,B
8,Lev Pozdnyakov,Amateur Open,76.9,,,,,115,-120,120,120,,,,,,,120,82.5,M,Лев Поздняков,1989,Yes,Raw,B
9,Igor Busarov,Amateur Open,80,,,,,-120,120,-125,120,,,,,,,120,82.5,M,Игорь Бусаров,1979,Yes,Raw,B
10,Aleksandr Lebedev,Amateur Open,80.9,,,,,120,-132.5,-132.5,120,,,,,,,120,82.5,M,Александр Лебедев,1986,Yes,Raw,B
1,Ilya Timofeev,Amateur Masters,82.3,,,,,145,-150,-150,145,,,,,,,145,82.5,M,Илья Тимофеев,1970,Yes,Raw,B
1,Vladimir Kornishin,Amateur Masters,77.45,,,,,117.5,122.5,125,125,,,,,,,125,82.5,M,Владимир Корнишин,1952,Yes,Raw,B
1,Maksim Popkov,Amateur Teen,83.4,,,,,-120,120,-130,120,,,,,,,120,90,M,Максим Попков,1994,Yes,Raw,B
1,Andrey Sapozhonkov,Amateur Juniors 20-23,86.1,,,,,192.5,197.5,200,200,202.5,,,,,,200,90,M,Андрей Сапожонков,1987,Yes,Raw,B
2,Evgeniy Pivovarov,Amateur Juniors 20-23,86,,,,,160,-170,,160,,,,,,,160,90,M,Евгений Пивоваров,1988,Yes,Raw,B
1,Sergey Kolotvin,Amateur Open,89.9,,,,,175,180,182.5,182.5,,,,,,,182.5,90,M,Сергей Колотвин,1985,Yes,Raw,B
2,Aleksandr Drosin,Amateur Open,87.5,,,,,-172.5,175,180,180,,,,,,,180,90,M,Александр Дросин,1982,Yes,Raw,B
3,Nikolay Karakcheev,Amateur Open,87.65,,,,,170,180,-182.5,180,,,,,,,180,90,M,Николай Каракчеев,1974,Yes,Raw,B
4,Ruslan Savostyanov,Amateur Open,86.6,,,,,165,175,-182.5,175,,,,,,,175,90,M,Руслан Савостьянов,1985,Yes,Raw,B
5,Aleksey Kotov,Amateur Open,88.8,,,,,-175,-175,175,175,,,,,,,175,90,M,Алексей Котов,1974,Yes,Raw,B
6,Petr Pushnin,Amateur Open,88.8,,,,,150,157.5,162.5,162.5,,,,,,,162.5,90,M,Петр Пушнин,1984,Yes,Raw,B
7,Andrey Malashenkov,Amateur Open,84.1,,,,,155,160,-167.5,160,,,,,,,160,90,M,Андрей Малашенков,1982,Yes,Raw,B
8,Dmitriy Nosov,Amateur Open,89.3,,,,,160,-167.5,-167.5,160,,,,,,,160,90,M,Дмитрий Носов,1971,Yes,Raw,B
9,Vladimir Volter,Amateur Open,87.75,,,,,-155,155,-160,155,,,,,,,155,90,M,Владимир Вольтер,1983,Yes,Raw,B
10,Aleksandr Petrov,Amateur Open,88.05,,,,,-155,155,-160,155,,,,,,,155,90,M,Александр Петров,1978,Yes,Raw,B
11,Dmitriy Barkov,Amateur Open,88.2,,,,,145,-155,155,155,,,,,,,155,90,M,Дмитрий Барков,1984,Yes,Raw,B
12,Dmitriy Lanin,Amateur Open,88.3,,,,,-140,-155,155,155,,,,,,,155,90,M,Дмитрий Ланин,1980,Yes,Raw,B
13,Sergey Plistov,Amateur Open,87,,,,,130,-140,145,145,,,,,,,145,90,M,Сергей Плистов,1985,Yes,Raw,B
14,Igor Chernyavskiy,Amateur Open,88.75,,,,,-140,140,-145,140,,,,,,,140,90,M,Игорь Чернявский,1984,Yes,Raw,B
15,Petr Dvurechenskiy,Amateur Open,89.55,,,,,-137.5,137.5,-142.5,137.5,,,,,,,137.5,90,M,Петр Двуреченский,1986,Yes,Raw,B
16,Denis Mikheev,Amateur Open,87.75,,,,,130,-135,-135,130,,,,,,,130,90,M,Денис Михеев,1978,Yes,Raw,B
17,Dan Teut,Amateur Open,85.6,,,,,125,-137.5,-137.5,125,,,,,,,125,90,M,Дан Теут,1974,Yes,Raw,B
18,Aleksandr Solovyev,Amateur Open,88.5,,,,,120,-137.5,-137.5,120,,,,,,,120,90,M,Александр Соловьев,1977,Yes,Raw,B
19,Aleksey Pospelov,Amateur Open,88.3,,,,,110,115,117.5,117.5,,,,,,,117.5,90,M,Алексей Поспелов,1981,Yes,Raw,B
20,Aleksey Reshinskiy,Amateur Open,89.3,,,,,115,-120,-120,115,,,,,,,115,90,M,Алексей Решинский,1986,Yes,Raw,B
DQ,Aleksandr Dobryakov,Amateur Open,88.85,,,,,-130,-140,-140,,,,,,,,,90,M,Александр Добряков,1972,Yes,Raw,B
DQ,Sergey Teplenin,Amateur Open,88.5,,,,,-137.5,-137.5,-137.5,,,,,,,,,90,M,Сергей Тепленин,1979,Yes,Raw,B
DQ,Aleksey Kocheshkov,Amateur Open,87.85,,,,,-150,-155,-155,,,,,,,,,90,M,Алексей Кочешков,1976,Yes,Raw,B
DQ,Ivan Semenov,Amateur Open,86.8,,,,,-155,-155,-155,,,,,,,,,90,M,Иван Семенов,1978,Yes,Raw,B
DQ,Aleksandr Drozdov,Amateur Open,87.3,,,,,-142.5,-142.5,-142.5,,,,,,,,,90,M,Александр Дроздов,1980,Yes,Raw,B
1,Andrey Salov,Amateur Masters,88.1,,,,,130,140,145,145,,,,,,,145,90,M,Андрей Салов,1959,Yes,Raw,B
1,Igor Sirotkin,Amateur Masters,88.8,,,,,140,-147.5,-147.5,140,,,,,,,140,90,M,Игорь Сироткин,1970,Yes,Raw,B
2,Vyacheslav Stanchak,Amateur Masters,87.35,,,,,135,140,-145,140,,,,,,,140,90,M,Вячеслав Станчак,1952,Yes,Raw,B
DQ,Dmitriy Nosov,Amateur Masters,89.3,,,,,-170,-170,-170,,,,,,,,,90,M,Дмитрий Носов,1971,Yes,Raw,B
DQ,Daniil Savik,Amateur Teen,98.5,,,,,-160,-162.5,-163,,,,,,,,,100,M,Даниил Савик,1992,Yes,Raw,B
DD,Artem Kobanov,Amateur Teen,97.1,,,,,152.5,-162.5,-162.5,152.5,,,,,,,,100,M,Артем Кобанов,1992,Yes,Raw,B
1,Dmitriy Khalev,Amateur Juniors 20-23,95.75,,,,,172.5,-183,183,183,-185,,,,,,183,100,M,Дмитрий Халев,1989,Yes,Raw,B
2,Dmitriy Kuleshov,Amateur Juniors 20-23,95.2,,,,,170,-180,-180,170,,,,,,,170,100,M,Дмитрий Кулешов,1988,Yes,Raw,B
3,Danila Krikov,Amateur Juniors 20-23,97.6,,,,,155,-162.5,-162.5,155,,,,,,,155,100,M,Данила Криков,1987,Yes,Raw,B
4,Pavel Smirnov,Amateur Juniors 20-23,93.1,,,,,135,142.5,150,150,,,,,,,150,100,M,Павел Смирнов,1988,Yes,Raw,B
1,Pavel Milovanov,Amateur Open,99.85,,,,,175,182.5,-187.5,182.5,,,,,,,182.5,100,M,Павел Милованов,1977,Yes,Raw,B
2,Aleksey Stolyarov,Amateur Open,96.3,,,,,162.5,-170,172.5,172.5,,,,,,,172.5,100,M,Алексей Столяров,1986,Yes,Raw,B
3,Sergey Dmitriev,Amateur Open,97.3,,,,,162.5,-172.5,172.5,172.5,,,,,,,172.5,100,M,Сергей Дмитриев,1976,Yes,Raw,B
4,Pavel Rysenkov,Amateur Open,99,,,,,170,-175,-175,170,,,,,,,170,100,M,Павел Рысенков,1978,Yes,Raw,B
5,Aleksandr Shuralev,Amateur Open,93,,,,,162.5,165,-170,165,,,,,,,165,100,M,Александр Шуралев,1975,Yes,Raw,B
6,Aleksandr Kokotkin,Amateur Open,100,,,,,165,-187.5,-187.5,165,,,,,,,165,100,M,Александр Кокоткин,1974,Yes,Raw,B
7,Valeriy Kharitonov,Amateur Open,98.8,,,,,142.5,150,-162.5,150,,,,,,,150,100,M,Валерий Харитонов,1985,Yes,Raw,B
8,Vladimir Verbov,Amateur Open,94.6,,,,,-135,-142.5,142.5,142.5,,,,,,,142.5,100,M,Владимир Вербов,1986,Yes,Raw,B
9,Andrey Tsukanov,Amateur Open,94.6,,,,,-142.5,-142.5,142.5,142.5,,,,,,,142.5,100,M,Андрей Цуканов,1980,Yes,Raw,B
10,Konstantin Semov,Amateur Open,96,,,,,-137.5,142.5,-150,142.5,,,,,,,142.5,100,M,Константин Семов,1978,Yes,Raw,B
DQ,Dmitriy Veselov,Amateur Open,92.6,,,,,-115,-125,-125,,,,,,,,,100,M,Дмитрий Веселов,1985,Yes,Raw,B
DD,Maksim Kochetov,Amateur Open,91.2,,,,,142.5,150,162.5,162.5,,,,,,,,100,M,Максим Кочетов,1982,Yes,Raw,B
1,Sergey Mantserov,Amateur Masters,94.5,,,,,170,177.5,182.5,182.5,,,,,,,182.5,100,M,Сергей Манцеров,1970,Yes,Raw,B
1,Andrei Sukin,Amateur Masters,99.6,,,,,130,132.5,-135,132.5,,,,,,,132.5,100,M,Андрей Сукин,1963,Yes,Raw,B
1,Timur Salakhutdinov,Amateur Open,106.7,,,,,167.5,172.5,-177.5,172.5,,,,,,,172.5,110,M,Тимур Салахутдинов,1982,Yes,Raw,B
2,Andrey Myakshin,Amateur Open,102.3,,,,,155,160,162.5,162.5,,,,,,,162.5,110,M,Андрей Мякшин,1971,Yes,Raw,B
3,Aleksey Korovushkin,Amateur Open,107.2,,,,,150,160,162.5,162.5,,,,,,,162.5,110,M,Алексей Коровушкин,1985,Yes,Raw,B
4,Sergey Kucher,Amateur Open,103.2,,,,,155,-160,-160,155,,,,,,,155,110,M,Сергей Кучер,1985,Yes,Raw,B
5,Stanislav Karpov,Amateur Open,104.5,,,,,140,147.5,-160,147.5,,,,,,,147.5,110,M,Станислав Карпов,1982,Yes,Raw,B
6,Ivan Burlov,Amateur Open,106.3,,,,,-135,135,-145,135,,,,,,,135,110,M,Иван Бурлов,1970,Yes,Raw,B
DQ,Vitaliy Andriyakin,Amateur Open,110,,,,,-167.5,-167.5,-167.5,,,,,,,,,110,M,Виталий Андриякин,1983,Yes,Raw,B
1,Evgeniy Panin,Amateur Masters,104,,,,,150,160,-165,160,,,,,,,160,110,M,Евгений Панин,1955,Yes,Raw,B
1,Aleksey Shoniya,Amateur Masters,106.5,,,,,130,-135,-135,130,,,,,,,130,110,M,Алексей Шония,1970,Yes,Raw,B
1,Dmitriy Krikov,Amateur Open,124.95,,,,,180,190,195,195,,,,,,,195,125,M,Дмитрий Криков,1980,Yes,Raw,B
2,Sergey Bobchikhin,Amateur Open,120.5,,,,,185,192.5,-202.5,192.5,,,,,,,192.5,125,M,Сергей Бобчихин,1975,Yes,Raw,B
3,Ilya Gridnev,Amateur Open,116.85,,,,,180,190,-202.5,190,,,,,,,190,125,M,Илья Гриднев,1976,Yes,Raw,B
4,Pavel Perminov,Amateur Open,119.4,,,,,175,180,185,185,,,,,,,185,125,M,Павел Перминов,1986,Yes,Raw,B
5,Andrey Shmorgun,Amateur Open,110.3,,,,,160,-175,,160,,,,,,,160,125,M,Андрей Шморгун,1984,Yes,Raw,B
6,Mikhail Azhnin,Amateur Open,114,,,,,147.5,155,160,160,,,,,,,160,125,M,Михаил Ажнин,1971,Yes,Raw,B
7,Igor Mishanin,Amateur Open,120.1,,,,,155,-165,-165,155,,,,,,,155,125,M,Игорь Мишанин,1982,Yes,Raw,B
1,Denis Ogloblin,Amateur Masters,117.5,,,,,200,205,207.5,207.5,,,,,,,207.5,125,M,Денис Оглоблин,1967,Yes,Raw,B
2,Vasily Chernyshenko,Amateur Masters,120.8,,,,,150,155,160,160,162.5,,,,,,160,125,M,Василий Чернышенко,1963,Yes,Raw,B
1,Viktor Senkin,Amateur Masters 55-59,124.1,,,,,140,150,-152.5,150,,,,,,,150,125,M,Виктор Сенькин,1955,Yes,Raw,B
1,Ivan Akimkin,Amateur Juniors 20-23,80.8,,,,,172.5,-175,-175,172.5,,,,,,,172.5,82.5,M,Иван Акимкин,1988,Yes,Raw,B
2,Sergey Denisov,Amateur Juniors 20-23,70.8,,,,,155,-162.5,-162.5,155,,,,,,,155,75,M,Сергей Денисов,1988,Yes,Raw,B
1,Yuriy Panteleev,Amateur Open,139.1,,,,,190,200,207.5,207.5,,,,,,,207.5,140,M,Юрий Пантелеев,1975,Yes,Raw,B
2,Roman Mishurenkov,Amateur Open,138.6,,,,,170,-180,180,180,,,,,,,180,140,M,Роман Мишуренков,1982,Yes,Raw,B
3,Boris Trofimov,Amateur Open,139.6,,,,,160,180,-207.5,180,,,,,,,180,140,M,Борис Трофимов,1972,Yes,Raw,B
1,Irina Derkacheva,Pro Open,74.2,,,,,-90,90,100,100,,,,,,,100,75,F,Ирина Деркачева,1980,No,Raw,B
1,Oleg Grudinin,Pro Open,40,,,,,57.5,60,-62.5,60,,,,,,,60,52,M,Олег Грудинин,1986,No,Raw,B
1,Andrei Zhilin,Pro Open,66.9,,,,,115,120,-122.5,120,,,,,,,120,67.5,M,Андрей Жилин,1980,No,Raw,B
1,Konstantin Zhigulin,Pro Juniors 20-23,69.5,,,,,-120,125,130,130,,,,,,,130,75,M,Константин Жигулин,1987,No,Raw,B
1,Aleksandr Koryavko,Pro Open,73.1,,,,,145,-152.5,,145,,,,,,,145,75,M,Александр Корявко,1982,No,Raw,B
DQ,Vladimir Akhotelashvili,Pro Juniors 20-23,78.8,,,,,-120,-125,-125,,,,,,,,,82.5,M,Владимир Ахотелашвили,1988,No,Raw,B
1,Aleksey Khvatov,Pro Open,82.2,,,,,180,190,-197.5,190,,,,,,,190,82.5,M,Алексей Хватов,1968,No,Raw,B
2,Pavel Leonov,Pro Open,82.1,,,,,170,177.5,182.5,182.5,,,,,,,182.5,82.5,M,Павел Леонов,1983,No,Raw,B
1,Vladimir Fateev,Pro Masters,81.7,,,,,-160,-160,160,160,,,,,,,160,82.5,M,Владимир Фатеев,1964,No,Raw,B
1,Egor Dudarev,Pro Teen,88.7,,,,,-175,185,-195,185,,,,,,,185,90,M,,1991,No,Raw,B
1,Gevorg Sargsyan,Pro Teen,87.35,,,,,120,130,135,135,,,,,,,135,90,M,Геворг Саркисян,1993,No,Raw,B
1,Vadim Rezvykh,Pro Juniors 20-23,89.4,,,,,195,200,207.5,207.5,,,,,,,207.5,90,M,Вадим Резвых,1987,No,Raw,B
2,Pavel Danilov,Pro Juniors 20-23,85.6,,,,,170,180,185,185,,,,,,,185,90,M,Павел Данилов,1988,No,Raw,B
3,Aleksey Yannikov,Pro Juniors 20-23,87.7,,,,,145,-155,-155,145,,,,,,,145,90,M,Алексей Янников,1990,No,Raw,B
4,Dmitriy Stepanov,Pro Juniors 20-23,89.1,,,,,110,-120,-120,110,,,,,,,110,90,M,Дмитрий Степанов,1990,No,Raw,B
1,Aleksandr Kalyagin,Pro Open,88.5,,,,,175,-180,-180,175,,,,,,,175,90,M,Александр Калягин,1983,No,Raw,B
2,Igor Kalugin,Pro Open,89.1,,,,,165,170,172.5,172.5,,,,,,,172.5,90,M,Игорь Калугин,1983,No,Raw,B
3,Aleksey Ivanov,Pro Open,83.7,,,,,155,-165,165,165,,,,,,,165,90,M,Алексей Иванов,1983,No,Raw,B
DQ,Aleksandr Shoev,Pro Open,88.9,,,,,-205,-205,-205,,,,,,,,,90,M,Александр Шоев,1982,No,Raw,B
1,Dmitriy Serezhkin,Pro Juniors 20-23,93.9,,,,,170,-180,-185,170,,,,,,,170,100,M,Дмитрий Сережкин,1990,No,Raw,B
1,Vadim Polyanin,Pro Open,97.8,,,,,197.5,205,-210,205,,,,,,,205,100,M,Вадим Полянин,1983,No,Raw,B
2,Aleksandr Plaksin,Pro Open,97.9,,,,,195,200,-207.5,200,,,,,,,200,100,M,Александр Плаксин,1987,No,Raw,B
3,Ivan Miron,Pro Open,92.3,,,,,160,170,175,175,,,,,,,175,100,M,Иван Мирон,1986,No,Raw,B
4,Igor Eremkin,Pro Open,94.9,,,,,160,-172.5,-172.5,160,,,,,,,160,100,M,Игорь Еремкин,1973,No,Raw,B
5,Aleksey Erofeev,Pro Open,97.6,,,,,-160,160,-175,160,,,,,,,160,100,M,Алексей Ерофеев,1986,No,Raw,B
6,Vasiliy Sukharev,Pro Open,99.4,,,,,145,-152.5,-152.5,145,,,,,,,145,100,M,Василий Сухарев,1980,No,Raw,B
7,Sergey Panteleev,Pro Open,96.2,,,,,115,-125,-125,115,,,,,,,115,100,M,Сергей Пантелеев,1982,No,Raw,B
1,Eduard Vladimirov,Pro Masters,94.9,,,,,120,-125,125,125,,,,,,,125,100,M,Эдуард Владимиров,1966,No,Raw,B
DQ,Igor Shinov,Pro Masters,95.1,,,,,-165,-175,-175,,,,,,,,,100,M,Игорь Шинов,1970,No,Raw,B
1,Sergei Ponomaryov,Pro Open,106.2,,,,,205,212.5,220,220,,,,,,,220,110,M,Сергей Пономарев,1982,No,Raw,B
2,Dmitriy Kashaev,Pro Open,106.9,,,,,-185,195,207.5,207.5,,,,,,,207.5,110,M,Дмитрий Кашаев,1982,No,Raw,B
3,Dmitriy Rogatin,Pro Open,104.1,,,,,185,-202.5,205,205,,,,,,,205,110,M,Дмитрий Рогатин,1984,No,Raw,B
4,Oleg Zaytsev,Pro Open,106.1,,,,,200,-205,-212.5,200,,,,,,,200,110,M,Олег Зайцев,1976,No,Raw,B
5,Yuriy Romanov #1,Pro Open,109.2,,,,,195,-202.5,-202.5,195,,,,,,,195,110,M,Юрий Романов,1983,No,Raw,B
6,Konstantin Konstantinov,Pro Open,108.7,,,,,170,180,185,185,,,,,,,185,110,M,Константин Константинов,1978,No,Raw,B
7,Yuriy Molodtsov,Pro Open,104.3,,,,,170,180,-185,180,,,,,,,180,110,M,Юрий Молодцов,1975,No,Raw,B
8,Denis Borozna,Pro Open,107.7,,,,,160,-172.5,-172.5,160,,,,,,,160,110,M,Денис Борозна,1972,No,Raw,B
DQ,Aleksandr Kazmin,Pro Open,108,,,,,-210,-215,-215,,,,,,,,,110,M,Александр Казьмин,1977,No,Raw,B
DQ,Evgeniy Lapunov,Pro Open,100.1,,,,,-220,,,,,,,,,,,110,M,Евгений Лапунов,1973,No,Raw,B
1,Mikhail Petrov,Pro Masters,103.5,,,,,185,-195,-195,185,,,,,,,185,110,M,Михаил Петров,1963,No,Raw,B
1,Vadim Shamkov,Pro Masters,108,,,,,170,-180,-180,170,,,,,,,170,110,M,Вадим Шамков,1967,No,Raw,B
1,Igor Potapov,Pro Juniors 20-23,121.8,,,,,-140,140,-150,140,,,,,,,140,125,M,Игорь Потапов,1987,No,Raw,B
1,Anton Matveev,Pro Open,116,,,,,210,220,230,230,,,,,,,230,125,M,Антон Матвеев,1971,No,Raw,B
2,Igor Balashov,Pro Open,116.5,,,,,200,212.5,222.5,222.5,,,,,,,222.5,125,M,Игорь Балашов,1976,No,Raw,B
3,Ivan Polyakov,Pro Open,115.9,,,,,-200,210,-215,210,,,,,,,210,125,M,Иван Поляков,1974,No,Raw,B
4,Igor Lyapkov,Pro Open,120.2,,,,,190,200,-205,200,,,,,,,200,125,M,Игорь Ляпков,1984,No,Raw,B
5,Maksim Lebedev,Pro Open,117.6,,,,,185,190,-200,190,,,,,,,190,125,M,Максим Лебедев,,No,Raw,B
6,Sergey Nosov,Pro Open,111.3,,,,,165,-175,-177.5,165,,,,,,,165,125,M,Сергей Носов,1986,No,Raw,B
1,Oleg Manuylov,Pro Open,127.1,,,,,210,220,-225,220,,,,,,,220,140,M,Олег Мануйлов,1975,No,Raw,B
2,Roman Strelkov,Pro Open,129,,,,,220,-232.5,,220,,,,,,,220,140,M,Роман Стрелков,1969,No,Raw,B
3,Dmitriy Sokolov,Pro Open,127.2,,,,,195,-200,205,205,,,,,,,205,140,M,Дмитрий Соколов,1983,No,Raw,B
1,Roman Strelkov,Pro Masters,129,,,,,220,230,-235,230,,,,,,,230,140,M,Роман Стрелков,1969,No,Raw,B
1,Evgeniy Deryuzhenko,Pro Open,147.85,,,,,195,-200,200,200,,,,,,,200,140+,M,Евгений Дерюженко,1981,No,Raw,B
1,Aleksandr Fedorov,Amateur Open,59.9,,,,,122.5,127.5,-130,127.5,,,,,,,127.5,60,M,Александр Федоров,1976,Yes,Multi-ply,B
1,Dmitriy Kalistratov,Amateur Open,66.85,,,,,-153.5,153.5,-162.5,153.5,,,,,,,153.5,67.5,M,Дмитрий Калистратов,1977,Yes,Multi-ply,B
2,Yuriy Eremin,Amateur Open,65.7,,,,,140,-150,-155,140,,,,,,,140,67.5,M,Юрий Еремин,1983,Yes,Multi-ply,B
3,Ivan Ionov,Amateur Open,65.4,,,,,-125,-125,125,125,,,,,,,125,67.5,M,Иван Ионов,1982,Yes,Multi-ply,B
4,Aleksey Schipanov,Amateur Open,66.6,,,,,120,125,-127.5,125,,,,,,,125,67.5,M,Алексей Щипанов,1980,Yes,Multi-ply,B
1,Vyacheslav Romanov,Amateur Juniors 20-23,73.8,,,,,-145,145,-150,145,,,,,,,145,75,M,Вячеслав Романов,1990,Yes,Multi-ply,B
2,Ruslan Aliev,Amateur Juniors 20-23,70.4,,,,,90,100,102.5,102.5,,,,,,,102.5,75,M,Руслан Алиев,1990,Yes,Multi-ply,B
1,Vladimir Safonov,Amateur Open,74,,,,,170,-180,-180,170,,,,,,,170,75,M,Владимир Сафонов,1984,Yes,Multi-ply,B
2,Aleksey Zhiburkin,Amateur Open,75,,,,,-140,-140,140,140,,,,,,,140,75,M,Алексей Жибуркин,1985,Yes,Multi-ply,B
1,Andrey Suetin,Amateur Open,81.5,,,,,190,-200,-202.5,190,,,,,,,190,82.5,M,Андрей Суетин,1983,Yes,Multi-ply,B
2,Denis Dobryanskiy,Amateur Open,80.5,,,,,175,-185,185,185,,,,,,,185,82.5,M,Денис Добрянский,1977,Yes,Multi-ply,B
3,Konstantin Sapunkov,Amateur Open,82,,,,,160,170,180,180,,,,,,,180,82.5,M,Константин Сапунков,1981,Yes,Multi-ply,B
DQ,Ilya Konkov,Amateur Juniors 20-23,88.5,,,,,-160,-160,-160,,,,,,,,,90,M,Илья Коньков,1989,Yes,Multi-ply,B
1,Ivan Poryadin,Amateur Open,88.4,,,,,230,-240,-240,230,,,,,,,230,90,M,Иван Порядин,1982,Yes,Multi-ply,B
2,Georgiy Yakimenkov,Amateur Open,88.5,,,,,190,-207.5,207.5,207.5,,,,,,,207.5,90,M,Георгий Якименков,1984,Yes,Multi-ply,B
1,Igor Rachkov,Amateur Masters,85.4,,,,,-150,150,,150,,,,,,,150,90,M,Игорь Рачков,1965,Yes,Multi-ply,B
1,Nikolai Solovyev,Amateur Open,99.3,,,,,-242.5,-242.5,252.5,252.5,,,,,,,252.5,100,M,Николай Соловьев,1981,Yes,Multi-ply,B
2,Denis Popov,Amateur Open,95.3,,,,,240,-250,250,250,253,,,,,,250,100,M,Денис Попов,1982,Yes,Multi-ply,B
3,Roman Shulenin,Amateur Open,99.1,,,,,-210,210,-222.5,210,,,,,,,210,100,M,Роман Шуленин,1975,Yes,Multi-ply,B
4,Arseniy Novikov,Amateur Open,97.6,,,,,160,-170,-170,160,,,,,,,160,100,M,Арсений Новиков,1986,Yes,Multi-ply,B
1,Andrei Sukin,Amateur Masters,99.4,,,,,140,145,-150,145,,,,,,,145,100,M,Андрей Сукин,1963,Yes,Multi-ply,B
DQ,Sergei Kosarev,Amateur Masters,94.35,,,,,-175,-190,-190,,,,,,,,,100,M,Сергей Косарев,1968,Yes,Multi-ply,B
1,Ivan Sukin,Amateur Open,110,,,,,225,-230,235,235,,,,,,,235,110,M,Иван Сукин,1990,Yes,Multi-ply,B
2,N. Emelyanov,Amateur Open,107.5,,,,,200,212.5,-225,212.5,,,,,,,212.5,110,M,Николай Емельянов,1979,Yes,Multi-ply,B
DQ,Aleksey Ventsov,Amateur Open,108,,,,,-220,-225,-235,,,,,,,,,110,M,Алексей Венцов,1981,Yes,Multi-ply,B
DQ,Valeriy Kurochkin,Amateur Open,107.2,,,,,-300,-300,-310,,,,,,,,,110,M,Валерий Курочкин,1978,Yes,Multi-ply,B
1,Igor Simanovskiy,Amateur Masters,109.9,,,,,-240,240,250,250,,,,,,,250,110,M,Игорь Симановский,1965,Yes,Multi-ply,B
1,Aleksey Voronkov,Amateur Juniors 20-23,117.4,,,,,230,-250,-250,230,,,,,,,230,125,M,Алексей Воронков,1989,Yes,Multi-ply,B
1,Sergey Vlaskin,Amateur Open,124.8,,,,,220,230,240,240,,,,,,,240,125,M,Сергей Власкин,1974,Yes,Multi-ply,B
1,Vasiliy Filatov,Amateur Open,128.05,,,,,260,-270,-275,260,,,,,,,260,140,M,Василий Филатов,1986,Yes,Multi-ply,B
1,Konstantin Zhigulin,Pro Juniors 20-23,69.5,,,,,-145,145,-165,145,,,,,,,145,75,M,Константин Жигулин,1987,No,Multi-ply,B
1,Aleksandr Koryavko,Pro Open,73.1,,,,,140,-150,150,150,,,,,,,150,75,M,Александр Корявко,1982,No,Multi-ply,B
DQ,Mikhail Lebedev,Pro Juniors 20-23,81.8,,,,,-195,-195,-195,,,,,,,,,82.5,M,Михаил Лебедев,1989,No,Multi-ply,B
1,Pavel Leonov,Pro Open,82.1,,,,,-190,200,-210,200,,,,,,,200,82.5,M,Павел Леонов,1983,No,Multi-ply,B
2,Bogdan Gutsalo,Pro Open,81.35,,,,,155,-165,-165,155,,,,,,,155,82.5,M,Богдан Гуцало,1981,No,Multi-ply,B
DQ,Vasiliy Leschenko,Pro Open,80.3,,,,,-165,-165,-165,,,,,,,,,82.5,M,Василий Лещенко,1980,No,Multi-ply,B
1,Nikolay Krasnov,Pro Masters,78.2,,,,,180,-190,-190,180,,,,,,,180,82.5,M,Николай Краснов,1960,No,Multi-ply,B
1,Roman Koroglishvili,Pro Teen,89.7,,,,,235,-245,-245,235,,,,,,,235,90,M,Роман Короглишвили,1992,No,Multi-ply,B
1,Alexander Petrov,Pro Open,89.85,,,,,230,245,-257.5,245,,,,,,,245,90,M,Александр Петров,1960,No,Multi-ply,B
2,Yuriy Geraskin,Pro Open,87,,,,,230,240,-250,240,,,,,,,240,90,M,Юрий Гераськин,1971,No,Multi-ply,B
3,Igor Kalyta,Pro Open,88.8,,,,,-220,-220,220,220,,,,,,,220,90,M,Игорь Калыта,1982,No,Multi-ply,B
1,Aleksandr Evsyutkin,Pro Juniors 20-23,97.8,,,,,150,-160,160,160,,,,,,,160,100,M,Александр Евсюткин,1988,No,Multi-ply,B
2,Maksim Stepanov #4,Pro Juniors 20-23,98.6,,,,,160,-170,-170,160,,,,,,,160,100,M,Максим Степанов,1988,No,Multi-ply,B
1,Andrey Chebykin,Pro Open,99.95,,,,,230,-262.5,-262.5,230,,,,,,,230,100,M,Андрей Чебыкин,1976,No,Multi-ply,B
2,Grigoriy Lysov,Pro Open,98.4,,,,,210,220,225,225,,,,,,,225,100,M,Григорий Лысов,1976,No,Multi-ply,B
3,Aleksey Yakovlev,Pro Open,91.2,,,,,-205,205,-225,205,,,,,,,205,100,M,Алексей Яковлев,1978,No,Multi-ply,B
4,Vasiliy Sukharev,Pro Open,99.4,,,,,-170,-170,170,170,,,,,,,170,100,M,Василий Сухарев,1980,No,Multi-ply,B
1,Roman Brekhov,Pro Juniors 20-23,105.1,,,,,125,,,125,,,,,,,125,110,M,Роман Брехов,1990,No,Multi-ply,B
1,Yaroslav Golubev,Pro Open,107.7,,,,,265,275,-280,275,,,,,,,275,110,M,Ярослав Голубев,1980,No,Multi-ply,B
2,Roman Pryamov,Pro Open,109.9,,,,,240,-250,250,250,,,,,,,250,110,M,Роман Прямов,1980,No,Multi-ply,B
3,Evgeniy Lapunov,Pro Open,100.1,,,,,220,-230,-230,220,,,,,,,220,110,M,Евгений Лапунов,1973,No,Multi-ply,B
1,Maksim Lebedev,Pro Open,117.6,,,,,220,-230,-230,220,,,,,,,220,125,M,Максим Лебедев,,No,Multi-ply,B
1,Yuriy Kholodov,Pro Open,136.8,,,,,255,262.5,267.5,267.5,,,,,,,267.5,140,M,Юрий Холодов,1982,No,Multi-ply,B
2,Vladimir Shmyrin,Pro Open,132.8,,,,,255,-265,-265,255,,,,,,,255,140,M,Владимир Шмырин,1984,No,Multi-ply,B
DQ,Aleksandr Erozidi,Pro Masters,131.05,,,,,-255,-270,-270,,,,,,,,,140,M,Александр Ерозиди,1965,No,Multi-ply,B
