Name,Team,Division,Sex,Equipment,BodyweightKg,WeightClassKg,Squat1Kg,Squat2Kg,Squat3Kg,Best3SquatKg,Bench1Kg,Bench2Kg,Bench3Kg,Best3BenchKg,Deadlift1Kg,Deadlift2Kg,Deadlift3Kg,Best3DeadliftKg,TotalKg,Event,Place
Leoni Tatman,SW,F-C-Open,F,Raw,46.6,47,80,90,95,95,62.5,-65,-65,62.5,110,115,-117.5,115,272.5,SBD,1
Kristina March,SE,F-C-Open,F,Raw,55.8,57,97.5,105,110,110,62.5,67.5,70,70,142.5,147.5,-152.5,147.5,327.5,SBD,1
Sally Mann,GL,F-C-Open,F,Raw,55.35,57,90,95,-100,95,42.5,-45,45,45,110,120,122.5,122.5,262.5,SBD,2
Arwah Taha,WM,F-C-U23,F,Raw,56.45,57,-85,90,-100,90,42.5,45,-50,45,100,110,-120,110,245,SBD,1
Jasmine Hayles,SW,F-C-U20,F,Raw,55,57,70,75,80,80,42.5,-47.5,47.5,47.5,80,85,-90,85,212.5,SBD,1
Ayse Bayraktar,GL,F-C-Open,F,Raw,55.75,57,60,65,70,70,30,35,-40,35,80,90,-100,90,195,SBD,3
Maariyah Tahir,WM,F-C-Open,F,Raw,62.4,63,97.5,105,110,110,57.5,62.5,-65,62.5,135,145,160,160,332.5,SBD,1
Melanie Golding,SE,F-C-M2,F,Raw,61.95,63,95,105,107.5,107.5,55,58,-62.5,58,120,130,-135,130,295.5,SBD,1
Louise Sawers,SE,F-C-Open,F,Raw,61,63,85,95,97.5,97.5,50,55,57.5,57.5,135,-145,-145,135,290,SBD,2
Teniola Adeboye,GL,F-C-U23,F,Raw,70.75,72,110,120,130,130,45,52.5,60,60,117.5,130,142.5,142.5,332.5,SBD,1
Lizzie Jones,SE,F-C-U23,F,Raw,71,72,107.5,115,117.5,117.5,55,60,-65,60,125,135,-140,135,312.5,SBD,2
Bronte Williams,SM,F-C-Open,F,Raw,67.65,72,95,100,105,105,52.5,57.5,60,60,132.5,140,145,145,310,SBD,1
Aurelie Kent,SE,F-C-U23,F,Raw,68.4,72,105,110,-115,110,47.5,52.5,57.5,57.5,125,135,140,140,307.5,SBD,3
Lisa Bacon,SE,F-C-Open,F,Raw,70.45,72,110,-117.5,117.5,117.5,60,-65,65,65,112.5,120,-127.5,120,302.5,SBD,2
Zoe Nateras,SE,F-C-Open,F,Raw,70.05,72,92.5,97.5,-102.5,97.5,45,50,52.5,52.5,120,125,130,130,280,SBD,3
Elmira Kaliberova,EM,F-C-U16,F,Raw,69.15,72,95,105,-107.5,105,55,57.5,60,60,90,95,105,105,270,SBD,1
Lucy Hyde,SE,F-C-Open,F,Raw,80.5,84,85,95,100,100,65,70,-75,70,112.5,125,132.5,132.5,302.5,SBD,1
Kim Diaper,SE,F-C-Open,F,Raw,79.2,84,95,-105,-110,95,47.5,52.5,55,55,115,127.5,132.5,132.5,282.5,SBD,2
Helen Cheesworth,SE,F-C-Open,F,Raw,74.25,84,75,85,-92.5,85,45,50,-55,50,100,110,117.5,117.5,252.5,SBD,3
Scarlett Sotiris,SM,F-C-Open,F,Raw,90.1,84+,125,135,145,145,70,77.5,82.5,82.5,165,175,185,185,412.5,SBD,1
Mohamad Latif,SW,M-C-U23,M,Raw,64.7,66,135,-145,-145,135,100,105,110,110,185,-195,-195,185,430,SBD,1
Luis Corbo,SE,M-C-U18,M,Raw,64.3,66,120,125,130,130,65,70,-75,70,150,160,165,165,365,SBD,1
Matthew Campion,SE,M-C-U23,M,Raw,72.1,74,165,-175,175,175,112.5,-117.5,117.5,117.5,190,200,-207.5,200,492.5,SBD,1
Max Young,SE,M-C-U20,M,Raw,73.6,74,162.5,-170,-170,162.5,110,117.5,-122.5,117.5,180,192.5,-200,192.5,472.5,SBD,1
Charles Herbert,SE,M-C-U23,M,Raw,73.9,74,140,147.5,155,155,97.5,105,107.5,107.5,160,170,180,180,442.5,SBD,2
Marek Debicki,SE,M-C-U20,M,Raw,73,74,140,-145,-145,140,-95,95,-102.5,95,190,-195,-195,190,425,SBD,2
Harrison Wall,SE,M-C-U18,M,Raw,70.55,74,140,145,150,150,85,90,92.5,92.5,150,160,165,165,407.5,SBD,1
Ryan Butler,SE,M-C-U23,M,Raw,83,83,165,175,-185,175,115,120,-127.5,120,210,222.5,232.5,232.5,527.5,SBD,1
David Kenward,SE,M-C-U20,M,Raw,80.7,83,150,160,-165,160,125,130,-132.5,130,195,205,210,210,500,SBD,1
Dean Smith,SE,M-C-U20,M,Raw,74.95,83,150,-160,-160,150,90,100,-105,100,160,170,180,180,430,SBD,2
Felix Avery,SE,M-C-U18,M,Raw,80.65,83,135,145,-150,145,82.5,87.5,-92.5,87.5,165,175,180,180,412.5,SBD,1
Jesse Sharplin,SE,M-C-U23,M,Raw,88.45,93,210,225,-232.5,225,160,170,-185,170,240,250,-257.5,250,645,SBD,1
James Balchin,SE,M-C-U23,M,Raw,93,93,210,217.5,225,225,152.5,160,165,165,225,240,250,250,640,SBD,2
Tom Smith #5,SE,M-C-U23,M,Raw,92.3,93,175,185,195,195,135,142.5,-147.5,142.5,235,245,250,250,587.5,SBD,3
David Olesinski,,M-C-U16,M,Raw,91.75,93,-165,177.5,180,180,-105,-110,110,110,185,192.5,200,200,490,SBD,1
Barnie Skinner,SE,M-C-U20,M,Raw,89.95,93,157.5,-167.5,-167.5,157.5,112.5,117.5,122.5,122.5,200,210,-222.5,210,490,SBD,1
Edwin Bree-Martin,SE,M-C-U23,M,Raw,102.9,105,250,260,-265,260,-150,-150,150,150,270,-290,-290,270,680,SBD,1
Hugh Gilmour,SE,M-C-U18,M,Raw,95.7,105,100,115,130,130,80,90,-100,90,140,152.5,-165,152.5,372.5,SBD,1
Lee James Chedumbrun,SE,M-C-Open,M,Raw,65.15,66,-132.5,140,145,145,90,95,,95,200,210,220,220,460,SBD,1
Rakib Abdul,SE,M-C-M1,M,Raw,64.35,66,110,115,120,120,80,-85,85,85,135,150,160,160,365,SBD,2
Ronan Bell,SE,M-C-M2,M,Raw,72.7,74,150,160,165,165,107.5,115,120,120,170,185,192.5,192.5,477.5,SBD,1
Jack Kittridge,GL,M-C-Open,M,Raw,73.7,74,160,-167.5,-167.5,160,90,95,-100,95,170,180,187.5,187.5,442.5,SBD,2
Tom Keating,SE,M-C-Open,M,Raw,68.55,74,130,-135,135,135,65,72.5,-75,72.5,170,-180,-180,170,377.5,SBD,3
Doug Graham,SE,M-C-M3,M,Raw,73.55,74,115,125,130,130,70,75,-77.5,75,160,-167.5,-167.5,160,365,SBD,4
Malcolm Bainbridge,SE,M-C-M4,M,Raw,66.1,74,95,105,115,115,65,70,75,75,160,170,-187.5,170,360,SBD,5
Will Mann,GL,M-C-Open,M,Raw,81.15,83,170,180,-190,180,-120,120,-125,120,220,230,240,240,540,SBD,1
Michael Craggs,SE,M-C-Open,M,Raw,80.25,83,127.5,135,142.5,142.5,100,107.5,-110,107.5,172.5,182.5,190,190,440,SBD,2
Vincent Chim,SE,M-C-Open,M,Raw,81.2,83,150,160,-167.5,160,80,90,-100,90,155,165,180,180,430,SBD,3
Dan Farrugia,SE,M-C-Open,M,Raw,80.45,83,130,140,142.5,142.5,95,105,-110,105,165,175,-182.5,175,422.5,SBD,4
Michael Collins,SE,M-C-M3,M,Raw,81.9,83,120,130,140,140,90,97.5,102.5,102.5,170,-180,-180,170,412.5,SBD,5
Paul Golding,SE,M-C-M2,M,Raw,82.55,83,170,180,-190,180,-100,107.5,110,110,105,,,105,395,SBD,6
Ted Cooper #1,SE,M-C-M5,M,Raw,82.7,83,90,-100,-100,90,60,-70,-70,60,120,140,-150,140,290,SBD,7
James Ingram,SM,M-C-Open,M,Raw,82,83,,,,,105,115,-122.5,115,,,,,115,B,1
Matt Morsia,SE,M-C-Open,M,Raw,92,93,215,230,245,245,145,155,-160,155,240,260,270,270,670,SBD,1
Richard Perfield,SE,M-C-Open,M,Raw,88.45,93,215,225,232.5,232.5,160,170,180,180,250,-262.5,-262.5,250,662.5,SBD,2
Ryan Godding,SE,M-C-Open,M,Raw,90.6,93,200,210,,210,135,-142.5,-142.5,135,260,270,275,275,620,SBD,3
Ben Miller #2,SE,M-C-Open,M,Raw,91.7,93,185,195,-205,195,130,140,145,145,190,210,-230,210,550,SBD,4
Stuart Alexander,EM,M-C-M1,M,Raw,91.85,93,170,190,200,200,100,115,122.5,122.5,180,210,225,225,547.5,SBD,5
James Massey,EM,M-C-Open,M,Raw,88.95,93,162.5,170,180,180,92.5,97.5,-102.5,97.5,190,200,210,210,487.5,SBD,6
Joe Leppard,GL,M-C-Open,M,Raw,91.35,93,137.5,145,152.5,152.5,117.5,122.5,-127.5,122.5,167.5,177.5,185,185,460,SBD,7
Daniel Lester,EM,M-C-Open,M,Raw,86.8,93,165,175,-182.5,175,92.5,100,-105,100,160,172.5,180,180,455,SBD,8
Zachary O'Sullivan,SE,M-C-Open,M,Raw,92.3,93,132.5,142.5,150,150,90,92.5,-95,92.5,185,-200,-200,185,427.5,SBD,9
Kieran Maguire,EM,M-C-Open,M,Raw,84.85,93,140,147.5,152.5,152.5,95,100,-107.5,100,157.5,165,170,170,422.5,SBD,10
Gary Hazard,SE,M-C-M4,M,Raw,88.8,93,-60,80,100,100,60,-100,-100,60,100,120,-140,120,280,SBD,11
Russ Kirby,SE,M-C-M1,M,Raw,101.4,105,250,270,277.5,277.5,175,180,182.5,182.5,265,280,,280,740,SBD,1
Steve Blackwell,SE,M-C-M2,M,Raw,102.5,105,200,215,227.5,227.5,140,145,150,150,240,260,275,275,652.5,SBD,2
David Downs,SE,M-C-Open,M,Raw,105,105,217.5,227.5,232.5,232.5,140,-150,-150,140,252.5,262.5,273,273,645.5,SBD,3
Alex Beevis,SE,M-C-Open,M,Raw,102.6,105,190,-200,,190,165,170.5,-172.5,170.5,265,-273,-273.5,265,625.5,SBD,4
Peter Szöke,SE,M-C-M1,M,Raw,100.6,105,170,180,185,185,155,165,-175,165,210,225,235,235,585,SBD,5
Liam Tye,SE,M-C-Open,M,Raw,93.4,105,205,215,225,225,120,127.5,-130,127.5,210,220,230,230,582.5,SBD,6
Richard Cunningham,SE,M-C-Open,M,Raw,102.6,105,150,157.5,167.5,167.5,100,107.5,-115,107.5,190,200,202.5,202.5,477.5,SBD,7
David Glendower,SE,M-C-M1,M,Raw,97,105,75,90,100,100,67.5,72.5,75,75,125,140,150,150,325,SBD,8
David Sinclair,SE,M-C-M1,M,Raw,105.6,120,200,210,225,225,130,135,145,145,180,200,220,220,590,SBD,1
Jack Morecroft,SE,M-C-Open,M,Raw,110.4,120,190,-210,-210,190,110,120,130,130,210,-225,230,230,550,SBD,2
